Division,WeightClassKg,Place,Name,Team,BodyweightKg,Best3SquatKg,Best3BenchKg,Best3DeadliftKg,TotalKg,Equipment,Event,Sex
Boys,55.79,1,Mario Giron,Pilot Point,51.89,131.54,74.84,147.42,353.8,Single-ply,SBD,M
Boys,55.79,2,Nate Lunsford,Frisco Wakeland,51.89,127.01,61.23,138.35,326.59,Single-ply,SBD,M
Boys,51.71,3,Ricky Lopez,Frisco Centennial,47.85,113.4,72.57,138.35,324.32,Single-ply,SBD,M
Boys,51.71,4,Jordan Brooks,Frisco,51.35,97.52,52.16,102.06,251.74,Single-ply,SBD,M
Boys,51.71,5,Cameron Police,Frisco Wakeland,50.44,90.72,45.36,104.33,240.4,Single-ply,SBD,M
Boys,51.71,6,Marc Vasquez,Aubrey,51.71,83.91,36.29,102.06,222.26,Single-ply,SBD,M
Boys,51.71,7,Kevin Roman,Carrollton Turner,51.71,90.72,52.16,61.23,204.12,Single-ply,SBD,M
Boys,51.71,DQ,Mathew Read,Frisco Heritage,50.8,72.57,,,,Single-ply,SBD,M
Boys,55.79,1,Logan Police,Frisco Wakeland,55.34,145.15,86.18,154.22,385.55,Single-ply,SBD,M
Boys,55.79,2,Gavin Carroll,Frisco Wakeland,55.57,122.47,63.5,122.47,308.44,Single-ply,SBD,M
Boys,55.79,3,Zach Brigandi,Little Elm,54.79,108.86,61.23,117.93,288.03,Single-ply,SBD,M
Boys,55.79,4,Ryan Holmen,Aubrey,55.79,102.06,63.5,122.47,288.03,Single-ply,SBD,M
Boys,55.79,5,Dalton Waller,Princeton,54.34,97.52,56.7,117.93,272.16,Single-ply,SBD,M
Boys,59.87,1,Baldemar Carbajal,Sherman,58.24,140.61,92.99,158.76,392.36,Single-ply,SBD,M
Boys,59.87,2,Carl Harvey,Frisco Centennial,59.87,111.13,81.65,142.88,335.66,Single-ply,SBD,M
Boys,59.87,3,Travis Doke,Prosper,57.52,113.4,92.99,127.01,333.39,Single-ply,SBD,M
Boys,67.13,4,Anthony Acevedo,Prosper,59.96,113.4,83.91,124.74,322.05,Single-ply,SBD,M
Boys,59.87,5,Caleb Scott,Aubrey,58.06,102.06,65.77,127.01,294.84,Single-ply,SBD,M
Boys,59.87,6,Earl Johnson,Prosper,58.29,102.06,72.57,113.4,288.03,Single-ply,SBD,M
Boys,59.87,7,Jack Brown,Frisco Heritage,59.87,95.25,68.04,124.74,288.03,Single-ply,SBD,M
Boys,67.13,8,Chris Hernandez,Kaufman,59.96,106.59,61.23,117.93,285.76,Single-ply,SBD,M
Boys,59.87,9,Colin Wilburn,Frisco Heritage,59.87,65.77,52.16,90.72,208.65,Single-ply,SBD,M
Boys,59.87,DQ,David Comernero,Pilot Point,58.69,,,,,Single-ply,SBD,M
Boys,67.13,1,Andrew Wilson,Frisco Wakeland,64.77,195.04,97.52,183.7,476.27,Single-ply,SBD,M
Boys,67.13,2,Kolby Dodson,Frisco Centennial,66,158.76,111.13,167.83,437.72,Single-ply,SBD,M
Boys,67.13,3,Nico Barlis,Frisco Centennial,66.59,151.95,95.25,190.51,437.72,Single-ply,SBD,M
Boys,67.13,4,Tre Adger,Sherman,62.69,161.03,90.72,170.1,421.84,Single-ply,SBD,M
Boys,67.13,5,Bailey Forst,Frisco Heritage,66.59,174.63,81.65,165.56,421.84,Single-ply,SBD,M
Boys,67.13,6,Brad Presser,Sherman,63.23,151.95,99.79,156.49,408.23,Single-ply,SBD,M
Boys,67.13,7,Manny Anzures,Carrollton Creekview,66.13,151.95,90.72,151.95,394.63,Single-ply,SBD,M
Boys,67.13,8,Daniel Hernandez,Princeton,64.5,142.88,79.38,165.56,387.82,Single-ply,SBD,M
Boys,67.13,9,Tanner Laycock,Frisco Centennial,64.14,154.22,81.65,142.88,378.75,Single-ply,SBD,M
Boys,67.13,10,Phillip Mayfield,Princeton,66.68,149.69,74.84,151.95,376.48,Single-ply,SBD,M
Boys,67.13,11,Isaiah Eley,Prosper,63.59,133.81,86.18,149.69,369.68,Single-ply,SBD,M
Boys,67.13,12,Raymond Bhikhai,Pilot Point,61.92,142.88,70.31,154.22,367.41,Single-ply,SBD,M
Boys,67.13,13,Alan Garcia,Carrollton Turner,66.22,142.88,79.38,142.88,365.14,Single-ply,SBD,M
Boys,67.13,14,Nick Ellis,Prosper,64.86,124.74,81.65,151.95,358.34,Single-ply,SBD,M
Boys,67.13,15,John Wright,Lancaster,66.22,124.74,83.91,147.42,356.07,Single-ply,SBD,M
Boys,67.13,16,Jon Delbosque,Aubrey,66,113.4,74.84,151.95,340.19,Single-ply,SBD,M
Boys,67.13,17,Cole Sciba,Aubrey,66,122.47,77.11,136.08,335.66,Single-ply,SBD,M
Boys,67.13,18,Jarrod Mariano,Carrollton Ranchview,66.86,113.4,74.84,142.88,331.12,Single-ply,SBD,M
Boys,67.13,19,DeVante Clayton,Sherman,64.18,108.86,61.23,115.67,285.76,Single-ply,SBD,M
Boys,67.13,20,Raul Rico,Gunter,66.86,102.06,70.31,111.13,283.5,Single-ply,SBD,M
Boys,67.13,DQ,Domanick Hughes,Carrollton Creekview,65.32,,,,,Single-ply,SBD,M
Boys,67.13,DQ,Derek Thacker,Valley View,61.87,,,,,Single-ply,SBD,M
Boys,74.84,1,George Kennard,Frisco Wakeland,71.44,181.44,127.01,192.78,501.22,Single-ply,SBD,M
Boys,74.84,2,Jaylon Norman,Carrollton Ranchview,71.89,167.83,104.33,195.04,467.2,Single-ply,SBD,M
Boys,74.84,3,Jake Schumacher,Frisco Centennial,69.49,163.29,113.4,176.9,453.59,Single-ply,SBD,M
Boys,74.84,4,Tyler Tarrence,Little Elm,72.8,167.83,97.52,176.9,442.25,Single-ply,SBD,M
Boys,74.84,5,Taylor Barrett,Pilot Point,69.4,170.1,97.52,170.1,437.72,Single-ply,SBD,M
Boys,74.84,6,Alejandro Vasquez,Little Elm,73.66,170.1,95.25,167.83,433.18,Single-ply,SBD,M
Boys,74.84,7,Dusty Burris,Princeton,70.85,145.15,104.33,165.56,415.04,Single-ply,SBD,M
Boys,74.84,8,Dylan Price,Princeton,72.57,151.95,90.72,163.29,405.97,Single-ply,SBD,M
Boys,82.1,9,Guliermo Saldana,Carrollton Turner,74.93,151.95,99.79,154.22,405.97,Single-ply,SBD,M
Boys,74.84,10,Jacob Gomez,Carrollton Turner,69.4,138.35,83.91,181.44,403.7,Single-ply,SBD,M
Boys,74.84,11,Hunter Smith,Frisco Wakeland,73.84,158.76,88.45,151.95,399.16,Single-ply,SBD,M
Boys,74.84,12,Joseph Murrell,Little Elm,70.49,154.22,77.11,161.03,392.36,Single-ply,SBD,M
Boys,82.1,13,Luis Betancourt,Gunter,74.93,136.08,92.99,147.42,376.48,Single-ply,SBD,M
Boys,74.84,14,Jesus Marban,Carrollton Turner,68.49,117.93,72.57,156.49,347,Single-ply,SBD,M
Boys,74.84,DQ,Felix Pacheco,Carrollton Ranchview,73.94,,,,,Single-ply,SBD,M
Boys,74.84,DQ,Sam Shoukri,Carrollton Ranchview,69.04,111.13,,,,Single-ply,SBD,M
Boys,82.1,DQ,Kyle Johnson #3,Frisco,75.07,142.88,,,,Single-ply,SBD,M
Boys,74.84,DQ,Preston Bluett,Princeton,74.75,195.04,,,,Single-ply,SBD,M
Boys,74.84,DQ,Colt Gallaway,Pilot Point,73.66,,,,,Single-ply,SBD,M
Boys,74.84,DQ,Zane English,Prosper,70.99,133.81,,,,Single-ply,SBD,M
Boys,82.1,1,George Flores,Princeton,78.2,176.9,131.54,206.38,514.83,Single-ply,SBD,M
Boys,82.1,2,Alex Dismuke,Lancaster,79.92,158.76,111.13,181.44,451.32,Single-ply,SBD,M
Boys,82.1,3,Garrett Hunter,Gunter,80.97,163.29,106.59,170.1,439.98,Single-ply,SBD,M
Boys,82.1,4,Adam Leiker,Lucas Lovejoy,77.79,170.1,113.4,154.22,437.72,Single-ply,SBD,M
Boys,82.1,5,Uriel Cadena,Carrollton Turner,79.92,163.29,92.99,172.37,428.64,Single-ply,SBD,M
Boys,82.1,6,Justin Wilson,Nevada Community,80.74,149.69,113.4,163.29,426.38,Single-ply,SBD,M
Boys,82.1,7,Mathew Rechsteiner,Frisco Heritage,78.83,138.35,97.52,163.29,399.16,Single-ply,SBD,M
Boys,82.1,8,Regan Wilkins,Princeton,79.38,151.95,90.72,154.22,396.89,Single-ply,SBD,M
Boys,82.1,9,Abe Duecke,Lucas Lovejoy,76.75,136.08,111.13,142.88,390.09,Single-ply,SBD,M
Boys,82.1,10,Ross Hendley,Prosper,77.11,138.35,92.99,154.22,385.55,Single-ply,SBD,M
Boys,89.81,11,Calvin Gardner,Prosper,82.19,151.95,90.72,138.35,381.02,Single-ply,SBD,M
Boys,82.1,12,Sam Wortham,Lucas Lovejoy,75.3,133.81,92.99,149.69,376.48,Single-ply,SBD,M
Boys,82.1,13,Malik Salahuddin,Prosper,78.47,122.47,81.65,147.42,351.53,Single-ply,SBD,M
Boys,89.81,14,Zane Perkins,Aubrey,82.33,122.47,81.65,142.88,347,Single-ply,SBD,M
Boys,82.1,15,Alex Varela,Prosper,80.2,90.72,95.25,124.74,310.71,Single-ply,SBD,M
Boys,82.1,16,Matthew Garcia,Carrollton Ranchview,77.66,106.59,68.04,124.74,299.37,Single-ply,SBD,M
Boys,82.1,DQ,Noah Yeldell,Kaufman,80.97,154.22,,,,Single-ply,SBD,M
Boys,82.1,DQ,Will Roane,Gunter,79.92,97.52,,,,Single-ply,SBD,M
Boys,82.1,DQ,Nick Rivera,Gunter,81.37,183.7,,,,Single-ply,SBD,M
Boys,82.1,DQ,Antonio Puga,Pilot Point,76.43,154.22,,,,Single-ply,SBD,M
Boys,82.1,DQ,Darrion Green,Pilot Point,79.29,,,,,Single-ply,SBD,M
Boys,82.1,DQ,Athens Gochis,Pilot Point,81.42,138.35,,,,Single-ply,SBD,M
Boys,89.81,DQ,Kyle Kossack,Little Elm,82.33,204.12,,,,Single-ply,SBD,M
Boys,89.81,DQ,Oluwaseye Akinwale,Frisco Heritage,82.28,97.52,,,,Single-ply,SBD,M
Boys,82.1,DQ,Jose Betancourt,Gunter,78.11,,,,,Single-ply,SBD,M
Boys,99.79,1,John Groff,Pilot Point,89.9,272.16,165.56,263.08,700.8,Single-ply,SBD,M
Boys,89.81,2,Charles Ijioma,Little Elm,88.54,217.72,127.01,217.72,562.45,Single-ply,SBD,M
Boys,89.81,3,Chad Perry,Sherman,85.82,188.24,131.54,210.92,530.7,Single-ply,SBD,M
Boys,89.81,4,Tyler Rudolph,Kaufman,88.36,204.12,108.86,217.72,530.7,Single-ply,SBD,M
Boys,89.81,5,Enrique Perez,Aubrey,88.09,176.9,113.4,190.51,480.81,Single-ply,SBD,M
Boys,89.81,6,Chance Marshall,Frisco Centennial,86.18,176.9,113.4,188.24,478.54,Single-ply,SBD,M
Boys,89.81,7,Gage Lowe,Frisco Centennial,89.81,172.37,106.59,163.29,442.25,Single-ply,SBD,M
Boys,89.81,8,Kade Ashley,Lucas Lovejoy,87.77,165.56,120.2,151.95,437.72,Single-ply,SBD,M
Boys,89.81,9,Lake Wilson,Sherman,89.72,151.95,92.99,176.9,421.84,Single-ply,SBD,M
Boys,89.81,10,Braden Labrie-Torres,Frisco Heritage,89.27,147.42,90.72,158.76,396.89,Single-ply,SBD,M
Boys,89.81,11,Taylor Heyen,Frisco Centennial,84.82,149.69,83.91,158.76,392.36,Single-ply,SBD,M
Boys,89.81,12,Jayson Ginn,Carrollton Ranchview,85.73,127.01,72.57,131.54,331.12,Single-ply,SBD,M
Boys,89.81,DQ,Connor Brach,Frisco,85.37,151.95,95.25,,,Single-ply,SBD,M
Boys,89.81,DQ,Lane Daniel,Nevada Community,84.28,158.76,,,,Single-ply,SBD,M
Boys,89.81,DQ,Ryan Massey,Princeton,89.81,142.88,,,,Single-ply,SBD,M
Boys,99.79,1,Dylan Branson,Little Elm,95.93,222.26,122.47,208.65,553.38,Single-ply,SBD,M
Boys,99.79,2,Alec Melkovitz,Frisco Centennial,91.85,204.12,131.54,192.78,528.44,Single-ply,SBD,M
Boys,99.79,3,Kevin Williams,Aubrey,94.12,190.51,129.27,197.31,517.1,Single-ply,SBD,M
Boys,99.79,4,Ryan Knesek,Frisco Wakeland,94.8,188.24,102.06,219.99,510.29,Single-ply,SBD,M
Boys,109.77,5,David Wilson,Carrollton Turner,99.97,174.63,129.27,195.04,498.95,Single-ply,SBD,M
Boys,99.79,6,Grayson Chouffet,Prosper,99.25,204.12,102.06,188.24,494.42,Single-ply,SBD,M
Boys,99.79,7,Taylor Wilson,Carrollton Turner,96.98,151.95,104.33,204.12,460.4,Single-ply,SBD,M
Boys,99.79,8,Ezequiel Trejo,Pilot Point,91.99,181.44,92.99,181.44,455.86,Single-ply,SBD,M
Boys,99.79,9,Michael Carpin,Frisco Heritage,95.35,158.76,115.67,179.17,453.59,Single-ply,SBD,M
Boys,99.79,10,Hunter Hull,Sherman,95.03,156.49,113.4,172.37,442.25,Single-ply,SBD,M
Boys,99.79,11,Justin Nichols,Sherman,99.43,170.1,106.59,165.56,442.25,Single-ply,SBD,M
Boys,99.79,12,Preston Pfeifer,Prosper,96.8,163.29,117.93,158.76,439.98,Single-ply,SBD,M
Boys,99.79,13,Cash Latta,Carrollton Creekview,91.81,142.88,102.06,151.95,396.89,Single-ply,SBD,M
Boys,99.79,14,Jacob Kendrick,Aubrey,94.26,142.88,86.18,158.76,387.82,Single-ply,SBD,M
Boys,99.79,15,Cj Smalls,Lancaster,99.7,131.54,83.91,158.76,374.21,Single-ply,SBD,M
Boys,99.79,16,Sergio Aldana,Frisco,93.62,131.54,95.25,145.15,371.95,Single-ply,SBD,M
Boys,99.79,17,Matthew Johnson,Kaufman,94.26,147.42,79.38,129.27,356.07,Single-ply,SBD,M
Boys,99.79,18,Sir Charles,Lancaster,95.25,113.4,65.77,158.76,337.93,Single-ply,SBD,M
Boys,99.79,19,Alejandro Garcia,Carrollton Turner,94.53,92.99,58.97,131.54,283.5,Single-ply,SBD,M
Boys,99.79,20,Alexis Arbaiza,Carrollton Turner,93.08,106.59,58.97,113.4,278.96,Single-ply,SBD,M
Boys,99.79,DQ,Tristen Bennett,Carrollton Ranchview,98.79,,113.4,192.78,,Single-ply,SBD,M
Boys,99.79,DQ,Jack Holstead,Lucas Lovejoy,98.43,147.42,,,,Single-ply,SBD,M
Boys,99.79,DQ,Rey Lomas,Valley View,98.34,238.14,,,,Single-ply,SBD,M
Boys,109.77,1,Landon Hallmark,Little Elm,109.32,281.23,142.88,272.16,696.26,Single-ply,SBD,M
Boys,109.77,2,John Brannon,Prosper,103.33,249.48,149.69,226.8,625.96,Single-ply,SBD,M
Boys,109.77,3,Kelvin McKee,Little Elm,105.41,206.38,99.79,224.53,530.7,Single-ply,SBD,M
Boys,109.77,4,Skylar Finnigan,Little Elm,108.86,208.65,102.06,197.31,508.02,Single-ply,SBD,M
Boys,109.77,5,Grant Benno,Lucas Lovejoy,101.15,181.44,117.93,185.97,485.34,Single-ply,SBD,M
Boys,109.77,6,Corey Mullican,Kaufman,106.32,190.51,99.79,190.51,480.81,Single-ply,SBD,M
Boys,109.77,7,Trevor Dyson,Lancaster,107.5,170.1,129.27,181.44,480.81,Single-ply,SBD,M
Boys,109.77,8,Nathan Ellison,Aubrey,107.05,154.22,108.86,195.04,458.13,Single-ply,SBD,M
Boys,109.77,9,Austin Norton,Nevada Community,105.91,174.63,95.25,174.63,444.52,Single-ply,SBD,M
Boys,109.77,10,Mason Parker,Carrollton Creekview,107.23,151.95,97.52,181.44,430.91,Single-ply,SBD,M
Boys,109.77,11,Hunter Hays,Kaufman,100.43,158.76,92.99,158.76,410.5,Single-ply,SBD,M
Boys,124.74,12,Kevin Mair,Frisco Heritage,109.86,154.22,83.91,158.76,396.89,Single-ply,SBD,M
Boys,109.77,13,Will Wagner,Frisco,104.55,124.74,92.99,156.49,374.21,Single-ply,SBD,M
Boys,109.77,DQ,Javier Vanegas,Valley View,101.06,181.44,,,,Single-ply,SBD,M
Boys,124.74,1,Camren Thompson,Frisco Wakeland,123.38,272.16,142.88,249.48,664.51,Single-ply,SBD,M
Boys,124.74,2,Sheldon Parkman,Gunter,114.03,238.14,124.74,217.72,580.6,Single-ply,SBD,M
Boys,124.74,3,Carlos Giron,Pilot Point,123.6,201.85,142.88,215.46,560.19,Single-ply,SBD,M
Boys,124.74,4,David Gray,Aubrey,111.22,204.12,117.93,190.51,512.56,Single-ply,SBD,M
Boys,124.74,5,Josh Schnitker,Sherman,119.84,170.1,138.35,201.85,510.29,Single-ply,SBD,M
Boys,124.74,6,Keylynn Rushing,Princeton,114.94,176.9,111.13,217.72,505.76,Single-ply,SBD,M
Boys,124.74,7,Justin Cook,Lancaster,116.57,170.1,102.06,192.78,464.93,Single-ply,SBD,M
Boys,124.74,8,James Harrison,Lancaster,118.57,170.1,102.06,190.51,462.66,Single-ply,SBD,M
Boys,124.74,9,Tre Walker,Lancaster,120.29,156.49,122.47,181.44,460.4,Single-ply,SBD,M
Boys,124.74,10,Jerry Daniel,Nevada Community,115.76,172.37,113.4,172.37,458.13,Single-ply,SBD,M
Boys,124.74,11,Fred Reyna,Aubrey,112.94,170.1,97.52,176.9,444.52,Single-ply,SBD,M
Boys,124.74,12,Parker Mahan,Prosper,119.93,163.29,111.13,142.88,417.3,Single-ply,SBD,M
Boys,124.74,13,Travis Parker,Aubrey,121.2,147.42,102.06,158.76,408.23,Single-ply,SBD,M
Boys,124.74,14,Bailey Smith,Lucas Lovejoy,120.56,147.42,88.45,158.76,394.63,Single-ply,SBD,M
Boys,124.74,15,Jonathan Robinson,Carrollton Ranchview,120.66,142.88,97.52,151.95,392.36,Single-ply,SBD,M
Boys,124.74,16,Cameron Officer,Carrollton Creekview,110.68,136.08,83.91,161.03,381.02,Single-ply,SBD,M
Boys,124.74,DQ,Morgan Dooley,Lucas Lovejoy,111.04,226.8,,,,Single-ply,SBD,M
Boys,124.74+,1,Derek Templeman,Princeton,130.63,249.48,158.76,233.6,641.83,Single-ply,SBD,M
Boys,124.74+,2,CJ Mendoza,Carrollton Ranchview,130.41,197.31,108.86,231.33,537.51,Single-ply,SBD,M
Boys,124.74+,3,Jaxson Deaton,Frisco,146.96,192.78,136.08,204.12,532.97,Single-ply,SBD,M
Boys,124.74+,4,Manny Flores,Carrollton Turner,132.81,183.7,122.47,217.72,523.9,Single-ply,SBD,M
Boys,124.74+,5,Mike Grimes,Princeton,149.01,170.1,120.2,192.78,483.08,Single-ply,SBD,M
Boys,124.74+,6,Ray Bennett,Lancaster,128.55,165.56,120.2,190.51,476.27,Single-ply,SBD,M
Boys,124.74+,7,Francisco Quintero,Carrollton Creekview,125.87,179.17,102.06,183.7,464.93,Single-ply,SBD,M
Boys,124.74+,8,Tristin Price,Lancaster,132.36,172.37,104.33,185.97,462.66,Single-ply,SBD,M
Boys,124.74+,9,Tyler Loftin,Aubrey,133.08,163.29,88.45,170.1,421.84,Single-ply,SBD,M
Boys,124.74+,10,Max Hahn,Carrollton Ranchview,127.23,149.69,74.84,181.44,405.97,Single-ply,SBD,M
Boys,124.74+,11,David Palmore,Sherman,154.22,147.42,97.52,161.03,405.97,Single-ply,SBD,M
Boys,,NS,Will Perry,Frisco Wakeland,,,,,,Single-ply,SBD,M
Boys,,NS,Jeremiah Devereaux,Pilot Point,,,,,,Single-ply,SBD,M
