Event,Sex,Name,State,WeightClassKg,Division,Best3SquatKg,Best3BenchKg,Best3DeadliftKg,TotalKg,Equipment,Place
SBD,M,D Cormier,NF,90,Masters 1,235,147.5,185,567.5,Single-ply,2
SBD,M,B. Monster,NF,90,Masters 1,222.5,132.5,220,575,Single-ply,1
SBD,M,T Strickland,NF,140+,Juniors,210,187.5,205,602.5,Single-ply,1
SBD,M,M Thorne,NF,125,Juniors,120,110,182.5,412.5,Single-ply,1
B,M,J Companion,NF,60,SO,,40,,40,Single-ply,1
B,M,Greg Hardy,NF,75,Open,,137.5,,137.5,Single-ply,1
B,F,Sandy Willams,NF,67.5,Open,,55,,55,Single-ply,1
B,M,B. Monster,NF,90,Masters 1,,132.5,,132.5,Single-ply,1
