Place,Name,Country,BodyweightKg,Squat1Kg,Squat2Kg,Squat3Kg,Squat4Kg,Bench1Kg,Bench2Kg,Bench3Kg,Bench4Kg,Deadlift1Kg,Deadlift2Kg,Deadlift3Kg,Deadlift4Kg,TotalKg,WeightClassKg,Division,Sex,Event,Equipment,Best3SquatKg,Best3BenchKg,Best3DeadliftKg,BirthYear
1,Demian Karandeev,Ukraine,47.6,35,45,50,,-25,25,27.5,,45,55,-65,,132.5,48,Amateur Children 11-12,M,SBD,Wraps,50,27.5,55,2005
1,Erik Levonyan,Armenia,54.95,130,140,145,,-60,60,-65,,140,150,-160,,355,56,Amateur Teen 13-15,M,SBD,Wraps,145,60,150,2000
1,Oleksandr Tymoshchuk,Ukraine,66.8,90,100,110,,60,65,70,,112.5,120,125,,305,67.5,Amateur Teen 13-15,M,SBD,Wraps,110,70,125,2002
1,Volodymyr Kuzmenko,Ukraine,64.55,150,-165,-165,,-80,80,-100,,150,160,-192.5,,390,67.5,Amateur Teen 16-17,M,SBD,Wraps,150,80,160,2000
DQ,Mykhailo Yurchenko,Ukraine,74.55,-205.5,-210,-210,,-123,,,,-240,,,,,75,Amateur Teen 16-17,M,SBD,Wraps,,,,1999
DD,Volodymyr Kuzma,Ukraine,80.45,-210,-215,-220,,-115,-120,-125,,-210,-215,-225,,,82.5,Amateur Teen 18-19,M,SBD,Wraps,,,,1997
1,Vladyslav Shevchenko,Ukraine,95.4,100,,,,125,135,-140,,130,160,-180,,395,100,Amateur Teen 18-19,M,SBD,Wraps,100,135,160,1997
1,Vitalii Senko,Ukraine,67.5,-160,160,-175,,110,-115,-120,,180,-195,-207.5,,450,67.5,Amateur Juniors 20-23,M,SBD,Wraps,160,110,180,1994
1,Artem Margaryan,Armenia,78.5,130,150,170,,80,85,,,-180,180,-190,,435,82.5,Amateur Juniors 20-23,M,SBD,Wraps,170,85,180,1994
1,Nazar Korzhak,Ukraine,95.6,150,160,170,,150,-160,-160,,-200,200,-220,,520,100,Amateur Juniors 20-23,M,SBD,Wraps,170,150,200,1993
1,Vitalii Senko,Ukraine,67.5,-160,160,-175,,110,-115,-120,,180,-195,-207.5,,450,67.5,Amateur Open,M,SBD,Wraps,160,110,180,1994
2,Volodymyr Korostil,Ukraine,62.3,100,,,,90,,,,150,-175,,,340,67.5,Amateur Open,M,SBD,Wraps,100,90,150,1986
DQ,Mykhailo Yurchenko,Ukraine,74.55,-205.5,-210,-210,,-123,,,,-240,,,,,75,Amateur Open,M,SBD,Wraps,,,,1999
1,Oleksandr Volkov,Ukraine,75.95,190,-200,-200,,160,170,-175,,225,-232.5,-232.5,,585,82.5,Amateur Open,M,SBD,Wraps,190,170,225,1985
2,Ivan Kozyr,Ukraine,82.4,170,-180,180,,162.5,167.5,172.5,,195,200,205,,557.5,82.5,Amateur Open,M,SBD,Wraps,180,172.5,205,1986
3,Vadym Doroshenko,Ukraine,76.45,165,175,182.5,,97.5,102.5,-110,,175,185,200,,485,82.5,Amateur Open,M,SBD,Wraps,182.5,102.5,200,1989
1,Oleg Pustovyy,Ukraine,89.7,-225,230,237.5,,140,147.5,152.5,,190,200,210,,600,90,Amateur Open,M,SBD,Wraps,237.5,152.5,210,1977
2,Stefan Sochaňski,Poland,89.8,-170,170,180,,92.5,-100,-100,,195,-215,215,,487.5,90,Amateur Open,M,SBD,Wraps,180,92.5,215,1948
DQ,Andrii Muntian,Ukraine,88.05,-190,-190,-190,,-125,,,,-210,,,,,90,Amateur Open,M,SBD,Wraps,,,,1992
1,Mariusz Snarski,Poland,99.9,250,270,280,,165,175,182.5,,270,290,-300,,752.5,100,Amateur Open,M,SBD,Wraps,280,182.5,290,1984
2,Sergii Krokhmalnyy,Ukraine,97.55,195,-210,210,,142.5,-150,-150,,200,210,220,,572.5,100,Amateur Open,M,SBD,Wraps,210,142.5,220,1985
3,Vladyslav Shevchenko,Ukraine,95.4,100,,,,125,135,-140,,130,160,-180,,395,100,Amateur Open,M,SBD,Wraps,100,135,160,1997
1,Pavlo Mishchuk,Ukraine,107.9,250,260,-265,,185,190,-195,,260,272.5,-275,,722.5,110,Amateur Open,M,SBD,Wraps,260,190,272.5,1998
DQ,Pavlo Kipnyak,Ukraine,106,-190,-190,-190,,-150,-150,-150,,-190,-190,-190,,,110,Amateur Open,M,SBD,Wraps,,,,1969
1,Mateusz Skrzat,Poland,121.5,205,215,-222.5,,160,170,175,,215,225,-232.5,,615,125,Amateur Open,M,SBD,Wraps,215,175,225,1992
2,Oleksandr Kalkutin,Ukraine,124.8,190,-210,215,,135,145,150,,190,210,220,,585,125,Amateur Open,M,SBD,Wraps,215,150,220,1965
1,Oleg Brazhnyk,Ukraine,158.6,-160,160,185,,115,122.5,-127.5,,180,-200,,,487.5,140+,Amateur Open,M,SBD,Wraps,185,122.5,180,1970
1,Karen Hovhannisyan,Armenia,80.35,120,130,-135,,95,105,-110,,-160,160,-180,,395,82.5,Amateur Submasters 33-39,M,SBD,Wraps,130,105,160,1978
1,Dmytro Strelnikov,Ukraine,99.6,140,150,-160,,115,120,125,,160,180,190,,465,100,Amateur Masters 40-44,M,SBD,Wraps,150,125,190,1975
1,Yurii Sysoiev,Ukraine,107.9,240,252.5,-262.5,,-180,185,-195,,215,225,-230,,662.5,110,Amateur Masters 40-44,M,SBD,Wraps,252.5,185,225,1975
DQ,Pavlo Kipnyak,Ukraine,106,-190,-190,-190,,-150,-150,-150,,-190,-190,-190,,,110,Amateur Masters 45-49,M,SBD,Wraps,,,,1969
1,Oleg Brazhnyk,Ukraine,158.6,-160,160,185,,115,122.5,-127.5,,180,-200,,,487.5,140+,Amateur Masters 45-49,M,SBD,Wraps,185,122.5,180,1970
1,Ararat Shainyan,Armenia,82,-120,120,130,,90,100,105,,160,180,-190,,415,82.5,Amateur Masters 50-54,M,SBD,Wraps,130,105,180,1963
1,Gennadii Torubarov,Ukraine,96.9,140,150,160,,-145,145,-150,,140,160,170,,475,100,Amateur Masters 50-54,M,SBD,Wraps,160,145,170,1963
1,Oleksandr Kalkutin,Ukraine,124.8,190,-210,215,,135,145,150,,190,210,220,,585,125,Amateur Masters 50-54,M,SBD,Wraps,215,150,220,1965
1,Stefan Sochaňski,Poland,89.8,-170,170,180,,92.5,-100,-100,,195,-215,215,,487.5,90,Amateur Masters 65-69,M,SBD,Wraps,180,92.5,215,1948
1,Igor Zubarev,Ukraine,74.5,50,62.5,70,,35,40,-42.5,,-80,80,102.5,,212.5,75,Amateur Masters 75-79,M,SBD,Wraps,70,40,102.5,1941
1,Mykola Lebedyuk,Ukraine,91.9,70,-80,80,,40,50,-60,,110,,,,240,100,Amateur Masters 75-79,F,SBD,Wraps,80,50,110,1941
1,Mariya Soltysyak,Ukraine,54.5,90,100,-102.5,,47.5,-52.5,-52.5,,105,-117.5,117.5,,265,56,Amateur Teen 18-19,F,SBD,Wraps,100,47.5,117.5,1998
1,Lidiia Grygorashchuk,Ukraine,58.25,-70,70,80,,35,37.5,40,,70,80,90,,210,60,Amateur Juniors 20-23,F,SBD,Wraps,80,40,90,1993
1,Yulia Manko,Ukraine,63.2,95,-105,107.5,,50,55,-60,,95,102.5,110,,272.5,67.5,Amateur Juniors 20-23,F,SBD,Wraps,107.5,55,110,1993
1,Anna Tarasenko,Ukraine,48,80,90,100,,67.5,70,-72.5,,100,110,115,,285,48,Amateur Open,F,SBD,Wraps,100,70,115,1989
1,Oksana Prikhodko,Ukraine,52,135,-142.5,142.5,,85,-87.5,87.5,,150,160,,,390,52,Amateur Open,F,SBD,Wraps,142.5,87.5,160,1991
2,Iryna Kornelyuk,Ukraine,52,90,-95,-95,,50,52.5,-55,,100,-105,-105,,242.5,52,Amateur Open,F,SBD,Wraps,90,52.5,100,1984
1,Svitlana Glatman,Ukraine,59,110,117.5,-120,,50,55,-60,,112.5,120,125,,297.5,60,Amateur Open,F,SBD,Wraps,117.5,55,125,1981
2,Yuliya Malinovska,Ukraine,56.9,92.5,102.5,112.5,,47.5,50,52.5,,112.5,117.5,122.5,,287.5,60,Amateur Open,F,SBD,Wraps,112.5,52.5,122.5,1984
1,Tetyana Khomyak,Ukraine,75,75,85,90,,50,60,65,,80,90,100,,255,75,Amateur Open,F,SBD,Wraps,90,65,100,1979
1,Svitlana Glatman,Ukraine,59,110,117.5,-120,,50,55,-60,,112.5,120,125,,297.5,60,Amateur Submasters 33-39,F,SBD,Wraps,117.5,55,125,1981
1,Andrii Muravskyy,Ukraine,97.3,-210,210,-225,,140,150,-152.5,,210,230,240,,600,100,Pro Teen 18-19,M,SBD,Wraps,210,150,240,1998
1,Vladyslav Surov,Ukraine,88.2,240,-250,-250,,130,-140,-140,,-200,200,240,,610,90,Pro Juniors 20-23,M,SBD,Wraps,240,130,240,1993
DQ,Roman Moroz,Ukraine,87.95,-220,-220,-220,,-125,,,,-200,,,,,90,Pro Juniors 20-23,M,SBD,Wraps,,,,1994
1,Patryk Łazor,Poland,120.15,240,-255,255,,155,165,170,,270,290,300,,725,125,Pro Juniors 20-23,M,SBD,Wraps,255,170,300,1993
1,Arkadiy Shalokha,Ukraine,82.5,260,-280,300,,160,170,180,,270,285,295,,775,82.5,Pro Open,M,SBD,Wraps,300,180,295,1983
2,Evgen Buynovskyy,Ukraine,75.3,160,-180,-180,,-115,115,-130,,170,-185,-190,,445,82.5,Pro Open,M,SBD,Wraps,160,115,170,1992
DQ,Mark Bezborodov,Ukraine,81.79,-230,-230,-240,,-150,,,,-210,,,,,82.5,Pro Open,M,SBD,Wraps,,,,1989
1,Vladyslav Surov,Ukraine,88.2,240,-250,-250,,130,-140,-140,,-200,200,240,,610,90,Pro Open,M,SBD,Wraps,240,130,240,1993
2,Dmytro Kuzmenko,Ukraine,83.35,190,-215,-215,,140,150,-175,,170,200,-220,,540,90,Pro Open,M,SBD,Wraps,190,150,200,1992
DQ,Taras Ganzha,Ukraine,86.5,-217.5,-227.5,-235,,-137.5,,,,-222.5,,,,,90,Pro Open,M,SBD,Wraps,,,,1987
1,Viktor Rublyov,Ukraine,97.95,-240,250,265,,170,180,-185,,240,250,255,,700,100,Pro Open,M,SBD,Wraps,265,180,255,1975
DQ,Yurii Khilchuk,Ukraine,99.1,230,-240,-245,,-160,-160,-160,,-230,,,,,100,Pro Open,M,SBD,Wraps,230,,,1986
1,Viktor Rublyov,Ukraine,97.95,-240,250,265,,170,180,-185,,240,250,255,,700,100,Pro Masters 40-44,M,SBD,Wraps,265,180,255,1975
1,Gasan Garumov,Ukraine,73.4,115,122.5,127.5,,90,-102.5,-102.5,,150,160,-170,,377.5,75,Pro Masters 50-54,M,SBD,Wraps,127.5,90,160,1963
1,Shalva Bebiashvili,Georgia,116.5,-190,190,,,160,170,-180,,240,250,-260,,610,125,Pro Military/Fire/Police,M,SBD,Wraps,190,170,250,1987
1,Mariusz Snarski,Poland,99.9,250,270,280,,165,175,182.5,,270,290,-300,,752.5,100,Amateur Open,M,SBD,Multi-ply,280,182.5,290,1984
1,Stefan Sochaňski,Poland,89.8,220,242.5,,,115,125,,,225,245,252.5,,620,90,Amateur Masters 65-69,M,SBD,Multi-ply,242.5,125,252.5,1948
1,Igor Povazhniuk,Ukraine,77.55,275,285,,,220,230,-242.5,,250,275,300,,815,82.5,Pro Open,M,SBD,Multi-ply,285,230,300,1974
2,Vitalii Kiyanenko,Ukraine,81.75,305,-335,335,,-170,170,-195,,250,-270,-270,,755,82.5,Pro Open,M,SBD,Multi-ply,335,170,250,1992
1,David Yeghiarazyan,Armenia,37.2,,,,,40,45,-51,,,,,,45,44,Amateur Children 11-12,M,B,Raw,,45,,2004
1,Alan Kviatkovskii,Ukraine,47.8,,,,,37.5,-40,40,,,,,,40,48,Amateur Children 11-12,M,B,Raw,,40,,2005
2,Demian Karandeev,Ukraine,47.6,,,,,-25,25,27.5,,,,,,27.5,48,Amateur Children 11-12,M,B,Raw,,27.5,,2005
1,Vitalii Dragushchak,Ukraine,51.5,,,,,57.5,62.5,-67.5,,,,,,62.5,52,Amateur Teen 13-15,M,B,Raw,,62.5,,2001
1,Rudik Avdalyan,Armenia,56,,,,,100,110,120,,,,,,120,56,Amateur Teen 13-15,M,B,Raw,,120,,2001
1,Oleksandr Tymoshchuk,Ukraine,66.8,,,,,60,65,70,,,,,,70,67.5,Amateur Teen 13-15,M,B,Raw,,70,,2002
1,Igor Starchenko,Ukraine,83.9,,,,,100,105,107.5,,,,,,107.5,90,Amateur Teen 13-15,M,B,Raw,,107.5,,2001
1,Volodymyr Kuzmenko,Ukraine,64.55,,,,,-80,80,-100,,,,,,80,67.5,Amateur Teen 16-17,M,B,Raw,,80,,2000
1,Pavlo Pidtoptaniy,Ukraine,71.65,,,,,120,125,-127.5,,,,,,125,75,Amateur Teen 18-19,M,B,Raw,,125,,1997
2,Michal Stasiak,Poland,70,,,,,100,107.5,112.5,,,,,,112.5,75,Amateur Teen 18-19,M,B,Raw,,112.5,,1998
1,Vladyslav Shevchenko,Ukraine,95.4,,,,,125,135,-140,,,,,,135,100,Amateur Teen 18-19,M,B,Raw,,135,,1997
1,Mykhaylo Malkush,Ukraine,58.65,,,,,120,-127.5,-127.5,,,,,,120,60,Amateur Juniors 20-23,M,B,Raw,,120,,1996
1,Patryk Kaczmarek,Poland,81.5,,,,,125,130,135,,,,,,135,82.5,Amateur Juniors 20-23,M,B,Raw,,135,,1995
1,Volodymyr Nazarko,Ukraine,88.75,,,,,135,145,157.5,,,,,,157.5,90,Amateur Juniors 20-23,M,B,Raw,,157.5,,1993
1,Nazar Korzhak,Ukraine,95.6,,,,,155,160,162.5,,,,,,162.5,100,Amateur Juniors 20-23,M,B,Raw,,162.5,,1993
2,Anton Orlov,Ukraine,99.5,,,,,150,155,-162.5,,,,,,155,100,Amateur Juniors 20-23,M,B,Raw,,155,,1993
1,Vahan Saroyan,Armenia,101,,,,,80,-90,-90,,,,,,80,110,Amateur Juniors 20-23,M,B,Raw,,80,,1993
1,Mykhaylo Malkush,Ukraine,58.65,,,,,120,-127.5,-127.5,,,,,,120,60,Amateur Open,M,B,Raw,,120,,1996
1,Denys Makarov,Ukraine,65.15,,,,,125,-130,-130,,,,,,125,67.5,Amateur Open,M,B,Raw,,125,,1985
2,Dmytro Kotovych,Ukraine,67.5,,,,,120,125,,,,,,,125,67.5,Amateur Open,M,B,Raw,,125,,1989
3,Volodymyr Korostil,Ukraine,62.3,,,,,90,,,,,,,,90,67.5,Amateur Open,M,B,Raw,,90,,1986
1,Oleksandr Romaschenko,Ukraine,75,,,,,140,150,-155,,,,,,150,75,Amateur Open,M,B,Raw,,150,,1989
2,Maksym Obertas,Ukraine,75,,,,,140,-145,-145,,,,,,140,75,Amateur Open,M,B,Raw,,140,,1988
3,Volodymyr Krainyk,Ukraine,73,,,,,130,-137.5,137.5,,,,,,137.5,75,Amateur Open,M,B,Raw,,137.5,,1991
4,Pavlo Pidtoptaniy,Ukraine,71.65,,,,,120,125,-127.5,,,,,,125,75,Amateur Open,M,B,Raw,,125,,1997
5,Dmytro Saguichenko,Ukraine,74.6,,,,,115,-120,-125,,,,,,115,75,Amateur Open,M,B,Raw,,115,,1990
1,Oleksandr Volkov,Ukraine,75.95,,,,,160,172.5,175,,,,,,175,82.5,Amateur Open,M,B,Raw,,175,,1985
2,Viktor Blakytnyy,Ukraine,80.95,,,,,155,165,172.5,,,,,,172.5,82.5,Amateur Open,M,B,Raw,,172.5,,1981
3,Ivan Kozyr,Ukraine,82.4,,,,,162.5,167.5,172.5,,,,,,172.5,82.5,Amateur Open,M,B,Raw,,172.5,,1986
4,Volodymyr Lagoda,Ukraine,81,,,,,160,-165,-167.5,,,,,,160,82.5,Amateur Open,M,B,Raw,,160,,1968
DQ,Volodymyr Stetsii,Ukraine,80.6,,,,,-140,-140,-140,,,,,,,82.5,Amateur Open,M,B,Raw,,,,1990
1,Danylo Shmatovskyy,Ukraine,86.6,,,,,152.5,-162.5,167.5,,,,,,167.5,90,Amateur Open,M,B,Raw,,167.5,,1983
2,Yurii Pets,Ukraine,84.2,,,,,155,160,-165,,,,,,160,90,Amateur Open,M,B,Raw,,160,,1988
3,Volodymyr Nazarko,Ukraine,88.75,,,,,135,145,157.5,,,,,,157.5,90,Amateur Open,M,B,Raw,,157.5,,1993
4,Bogdan Sidoruk,Ukraine,84.1,,,,,150,-155,-155,,,,,,150,90,Amateur Open,M,B,Raw,,150,,1992
5,Vitalii Demediuk,Ukraine,87.45,,,,,145,-150,150,,,,,,150,90,Amateur Open,M,B,Raw,,150,,1989
6,Valentyn Slutskyy,Ukraine,89,,,,,-135,135,-157.5,,,,,,135,90,Amateur Open,M,B,Raw,,135,,1973
7,Andriy Sokolov,Ukraine,85.65,,,,,120,-130,-130,,,,,,120,90,Amateur Open,M,B,Raw,,120,,1987
8,Stefan Sochaňski,Poland,89,,,,,92.5,-100,-100,,,,,,92.5,90,Amateur Open,M,B,Raw,,92.5,,1948
1,Andrii Petruk,Ukraine,95.55,,,,,-165,170,180,,,,,,180,100,Amateur Open,M,B,Raw,,180,,1975
2,Mykola Gorbachov,Ukraine,91.05,,,,,155,162.5,-170,,,,,,162.5,100,Amateur Open,M,B,Raw,,162.5,,1962
3,Vladyslav Shevchenko,Ukraine,95.4,,,,,125,135,-140,,,,,,135,100,Amateur Open,M,B,Raw,,135,,1997
DQ,Dmytro Lyashuk,Ukraine,99.15,,,,,-190,-190,-190,,,,,,,100,Amateur Open,M,B,Raw,,,,1989
1,Oleksandr Tertychnyy,Ukraine,108.6,,,,,190,195,-200,,,,,,195,110,Amateur Open,M,B,Raw,,195,,1968
2,Andriy Mazanovych,Ukraine,105.4,,,,,180,190,-200,,,,,,190,110,Amateur Open,M,B,Raw,,190,,1987
3,Pavlo Mishchuk,Ukraine,107.9,,,,,185,190,-195,,,,,,190,110,Amateur Open,M,B,Raw,,190,,1998
4,Pavlo Kipnyak,Ukraine,106,,,,,150,-160,160,,,,,,160,110,Amateur Open,M,B,Raw,,160,,1969
1,Oleksandr Slutskyy,Ukraine,113.4,,,,,170,180,-185,,,,,,180,125,Amateur Open,M,B,Raw,,180,,1975
2,Viktor Bozhukha,Ukraine,115.85,,,,,172.5,177.5,-185,,,,,,177.5,125,Amateur Open,M,B,Raw,,177.5,,1978
3,Oleksandr Kalkutin,Ukraine,124.8,,,,,135,145,150,,,,,,150,125,Amateur Open,M,B,Raw,,150,,1965
1,Igor Klim,Ukraine,127.3,,,,,115,-122.5,-122.5,,,,,,115,140,Amateur Open,M,B,Raw,,115,,1971
1,Oleg Brazhnyk,Ukraine,158.6,,,,,115,122.5,-127.5,,,,,,122.5,140+,Amateur Open,M,B,Raw,,122.5,,1970
1,Danylo Shmatovskyy,Ukraine,86.6,,,,,152.5,-162.5,167.5,,,,,,167.5,90,Amateur Submasters 33-39,M,B,Raw,,167.5,,1983
2,Oleksandr Gavrylyuk,Ukraine,89.1,,,,,152.5,157.5,-160,,,,,,157.5,90,Amateur Submasters 33-39,M,B,Raw,,157.5,,1980
1,Viktor Bozhukha,Ukraine,115.85,,,,,172.5,177.5,-185,,,,,,177.5,125,Amateur Submasters 33-39,M,B,Raw,,177.5,,1978
1,Gurhan Gurler,Turkey,172.6,,,,,140,155,-172.5,,,,,,155,140+,Amateur Submasters 33-39,M,B,Raw,,155,,1983
1,Valentyn Slutskyy,Ukraine,89,,,,,-135,135,-157.5,,,,,,135,90,Amateur Masters 40-44,M,B,Raw,,135,,1973
1,Andrii Petruk,Ukraine,95.55,,,,,-165,170,180,,,,,,180,100,Amateur Masters 40-44,M,B,Raw,,180,,1975
2,Dmytro Strelnikov,Ukraine,99.6,,,,,115,120,125,,,,,,125,100,Amateur Masters 40-44,M,B,Raw,,125,,1975
1,Yurii Sysoiev,Ukraine,107.9,,,,,-180,185,-195,,,,,,185,110,Amateur Masters 40-44,M,B,Raw,,185,,1975
2,Artem Sokolov,Ukraine,107.9,,,,,145,150,155,,,,,,155,110,Amateur Masters 40-44,M,B,Raw,,155,,1976
1,Oleksandr Slutskyy,Ukraine,113.4,,,,,170,180,-185,,,,,,180,125,Amateur Masters 40-44,M,B,Raw,,180,,1975
2,Tomasz Prętkiewicz,Poland,112.5,,,,,140,150,-152.5,,,,,,150,125,Amateur Masters 40-44,M,B,Raw,,150,,1973
1,Volodymyr Lagoda,Ukraine,81,,,,,160,-165,-167.5,,,,,,160,82.5,Amateur Masters 45-49,M,B,Raw,,160,,1968
1,Viacheslav Bulgakov,Ukraine,84.8,,,,,130,140,142.5,,,,,,142.5,90,Amateur Masters 45-49,M,B,Raw,,142.5,,1966
1,Yurii Shcherbina,Ukraine,95.7,,,,,-150,155,160,,,,,,160,100,Amateur Masters 45-49,M,B,Raw,,160,,1968
2,Mykola Grygorovych,Ukraine,93,,,,,120,-130,-130,,,,,,120,100,Amateur Masters 45-49,M,B,Raw,,120,,1969
1,Oleksandr Tertychnyy,Ukraine,108.6,,,,,190,195,-200,,,,,,195,110,Amateur Masters 45-49,M,B,Raw,,195,,1968
2,Pavlo Kipnyak,Ukraine,106,,,,,150,-160,160,,,,,,160,110,Amateur Masters 45-49,M,B,Raw,,160,,1969
1,Igor Klim,Ukraine,127.3,,,,,115,-122.5,-122.5,,,,,,115,140,Amateur Masters 45-49,M,B,Raw,,115,,1971
2,Gagik Saroyan,Armenia,126,,,,,100,-120,-120,,,,,,100,140,Amateur Masters 45-49,M,B,Raw,,100,,1967
1,Oleg Brazhnyk,Ukraine,158.6,,,,,115,122.5,-127.5,,,,,,122.5,140+,Amateur Masters 45-49,M,B,Raw,,122.5,,1970
1,Viktor Polovko,Ukraine,80.1,,,,,112.5,115,-117.5,,,,,,115,82.5,Amateur Masters 50-54,M,B,Raw,,115,,1962
1,Gennadiy Ivanchenko,Ukraine,84.6,,,,,90,95,100,,,,,,100,90,Amateur Masters 50-54,M,B,Raw,,100,,1966
1,Mykola Gorbachov,Ukraine,91.05,,,,,155,162.5,-170,,,,,,162.5,100,Amateur Masters 50-54,M,B,Raw,,162.5,,1962
2,Gennadii Torubarov,Ukraine,96.9,,,,,-145,145,-150,,,,,,145,100,Amateur Masters 50-54,M,B,Raw,,145,,1963
3,Vitaliy Filonenko,Ukraine,96.95,,,,,130,135,-137.5,,,,,,135,100,Amateur Masters 50-54,M,B,Raw,,135,,1964
1,Anatolii Tiroshko,Ukraine,108.3,,,,,145,150,152.5,,,,,,152.5,110,Amateur Masters 50-54,M,B,Raw,,152.5,,1966
1,Oleksandr Kalkutin,Ukraine,124.8,,,,,135,145,150,,,,,,150,125,Amateur Masters 50-54,M,B,Raw,,150,,1965
1,Yuriy Filonenko,Ukraine,88.7,,,,,130,135,137.5,140,,,,,137.5,90,Amateur Masters 60-64,M,B,Raw,,137.5,,1954
1,Jan Łuka,Poland,80.9,,,,,80,90,-100,,,,,,90,82.5,Amateur Masters 65-69,M,B,Raw,,90,,1949
1,Stefan Sochaňski,Poland,89,,,,,92.5,-100,-100,,,,,,92.5,90,Amateur Masters 65-69,M,B,Raw,,92.5,,1948
1,Igor Zubarev,Ukraine,74.5,,,,,35,40,-42.5,,,,,,40,75,Amateur Masters 75-79,M,B,Raw,,40,,1941
1,Ruslan Markiv,Ukraine,79.8,,,,,127.5,132.5,135,,,,,,135,82.5,Amateur Military/Fire/Police,M,B,Raw,,135,,1986
1,Sviatoslav Pavliuk,Ukraine,91.3,,,,,140,147.5,150,,,,,,150,100,Amateur Military/Fire/Police,M,B,Raw,,150,,1987
1,Weronika Mikołajczyk,Poland,77.15,,,,,51,-55,-57.5,,,,,,51,82.5,Amateur Teen 16-17,F,B,Raw,,51,,1998
1,Karina Malinovska,Ukraine,46.7,,,,,62.5,-65,-65,,,,,,62.5,48,Amateur Teen 18-19,F,B,Raw,,62.5,,1996
1,Yuliia Gychka,Ukraine,51.75,,,,,47.5,52.5,55,,,,,,55,52,Amateur Teen 18-19,F,B,Raw,,55,,1996
1,Katerina Protolyuk,Ukraine,54.05,,,,,50,52.5,-60,,,,,,52.5,56,Amateur Teen 18-19,F,B,Raw,,52.5,,1996
2,Mariya Soltysyak,Ukraine,54.5,,,,,47.5,-52.5,-52.5,,,,,,47.5,56,Amateur Teen 18-19,F,B,Raw,,47.5,,1998
1,Khrystyna Kashuba,Ukraine,47.65,,,,,45,50,-52.5,,,,,,50,48,Amateur Juniors 20-23,F,B,Raw,,50,,1996
1,Alina Samuilova,Ukraine,51.2,,,,,-47.5,47.5,50,,,,,,50,52,Amateur Juniors 20-23,F,B,Raw,,50,,1994
1,Anna Tarasenko,Ukraine,48,,,,,67.5,70,-72.5,,,,,,70,48,Amateur Open,F,B,Raw,,70,,1989
2,Olga Morozovska,Ukraine,47.45,,,,,67.5,-70,-70,,,,,,67.5,48,Amateur Open,F,B,Raw,,67.5,,1991
3,Karina Malinovska,Ukraine,46.7,,,,,62.5,-65,-65,,,,,,62.5,48,Amateur Open,F,B,Raw,,62.5,,1996
1,Oksana Prikhodko,Ukraine,52,,,,,85,-87.5,87.5,,,,,,87.5,52,Amateur Open,F,B,Raw,,87.5,,1991
2,Nataliya Melnychuk,Ukraine,52,,,,,67.5,-72.5,-72.5,,,,,,67.5,52,Amateur Open,F,B,Raw,,67.5,,1975
3,Alina Samuilova,Ukraine,51.2,,,,,-47.5,47.5,50,,,,,,50,52,Amateur Open,F,B,Raw,,50,,1994
1,Katerina Protolyuk,Ukraine,54.05,,,,,50,52.5,-60,,,,,,52.5,56,Amateur Open,F,B,Raw,,52.5,,1996
1,Krystyna Kasyanova,Ukraine,58.05,,,,,55,60,-65,,,,,,60,60,Amateur Open,F,B,Raw,,60,,1990
1,Iryna Koropets,Ukraine,67.4,,,,,-72.5,75,77.5,,,,,,77.5,67.5,Amateur Open,F,B,Raw,,77.5,,1981
1,Marzena Janzer,Poland,73.35,,,,,82.5,87.5,90,,,,,,90,75,Amateur Open,F,B,Raw,,90,,1974
1,Tetyana Khomyak,Ukraine,75,,,,,50,60,65,,,,,,65,75,Amateur Submasters 33-39,F,B,Raw,,65,,1979
1,Nataliya Melnychuk,Ukraine,52,,,,,67.5,-72.5,-72.5,,,,,,67.5,52,Amateur Masters 40-44,F,B,Raw,,67.5,,1975
1,Yulia Nikitina,Ukraine,63.4,,,,,47.5,-50,50,,,,,,50,67.5,Amateur Masters 40-44,F,B,Raw,,50,,1973
1,Marzena Janzer,Poland,73.35,,,,,82.5,87.5,90,,,,,,90,75,Amateur Masters 40-44,F,B,Raw,,90,,1974
1,Oleg Mykhalskyy,Ukraine,35.6,,,,,42.5,45,47.5,,,,,,47.5,44,Pro Children 11-12,M,B,Raw,,47.5,,2004
1,Vladyslav Pavlov,Ukraine,54.9,,,,,-65,-65,65,-70,,,,,65,56,Pro Children 11-12,M,B,Raw,,65,,2004
1,Vladyslav Sivak,Ukraine,71.05,,,,,67.5,72.5,75,,,,,,75,75,Pro Teen 13-15,M,B,Raw,,75,,2000
1,Bogdan Golod,Ukraine,73.9,,,,,75,-80,80,,,,,,80,75,Pro Teen 16-17,M,B,Raw,,80,,1999
2,Oleksandr Sukhynyuk,Ukraine,68.2,,,,,65,70,-72.5,,,,,,70,75,Pro Teen 16-17,M,B,Raw,,70,,1999
1,Roman Bomk,Ukraine,92,,,,,90,100,102.5,,,,,,102.5,100,Pro Teen 16-17,M,B,Raw,,102.5,,1999
1,Mateusz Czarnecki,Poland,82.5,,,,,165,176,180,,,,,,180,82.5,Pro Teen 18-19,M,B,Raw,,180,,1998
1,Oleksandr Klokov,Ukraine,102,,,,,152.5,160,165,,,,,,165,110,Pro Teen 18-19,M,B,Raw,,165,,1997
1,Viktor Smychuk,Ukraine,55.5,,,,,90,97.5,-100,,,,,,97.5,56,Pro Juniors 20-23,M,B,Raw,,97.5,,1994
1,Demna Kalakurashvili,Georgia,66.2,,,,,100,-120,-120,,,,,,100,67.5,Pro Juniors 20-23,M,B,Raw,,100,,1995
1,Sergiy Kovalchuk,Ukraine,95.7,,,,,-190,-195,195,,,,,,195,100,Pro Juniors 20-23,M,B,Raw,,195,,1993
2,Ivan Anokolov,Ukraine,97.8,,,,,165,-180,185,,,,,,185,100,Pro Juniors 20-23,M,B,Raw,,185,,1994
3,Arkadiusz Redzynia,Poland,100,,,,,180,-185,-187.5,,,,,,180,100,Pro Juniors 20-23,M,B,Raw,,180,,1993
4,Adomel Badurashvili,Georgia,95.7,,,,,-140,140,-150,,,,,,140,100,Pro Juniors 20-23,M,B,Raw,,140,,1994
1,Igor Trofymchuk,Ukraine,66.6,,,,,120,125,130,,,,,,130,67.5,Pro Open,M,B,Raw,,130,,1978
1,Mateusz Pawelak,Poland,80.35,,,,,200,205,-210,,,,,,205,82.5,Pro Open,M,B,Raw,,205,,1990
2,Dovlet Bekinyazov,Ukraine,81.25,,,,,140,150,-160,,,,,,150,82.5,Pro Open,M,B,Raw,,150,,1985
1,Mariusz Borczyk,Poland,89.85,,,,,210,215,-220,,,,,,215,90,Pro Open,M,B,Raw,,215,,1989
2,Jaroslaw Buczko,Poland,88.1,,,,,200,-205,-205,,,,,,200,90,Pro Open,M,B,Raw,,200,,1992
3,Volodymyr Galyga,Ukraine,90,,,,,190,200,-202.5,,,,,,200,90,Pro Open,M,B,Raw,,200,,1983
4,Dmytro Kuzmenko,Ukraine,83.35,,,,,140,150,-175,,,,,,150,90,Pro Open,M,B,Raw,,150,,1992
5,Sergii Zhukotskyy,Ukraine,88.5,,,,,130,140,-145,,,,,,140,90,Pro Open,M,B,Raw,,140,,1966
1,Illia Kiktev,Ukraine,97.5,,,,,220,-230,-230,,,,,,220,100,Pro Open,M,B,Raw,,220,,1993
2,Hovhannes Yazichyan,Armenia,94.5,,,,,200,205,210,,,,,,210,100,Pro Open,M,B,Raw,,210,,1971
3,Patryk Kozieł,Poland,90.1,,,,,200,205,-210,,,,,,205,100,Pro Open,M,B,Raw,,205,,1987
4,Oleksandr Karnaukh,Ukraine,99.75,,,,,-190,-190,190,,,,,,190,100,Pro Open,M,B,Raw,,190,,1980
5,Viktor Rublyov,Ukraine,97.95,,,,,170,180,-185,,,,,,180,100,Pro Open,M,B,Raw,,180,,1975
DQ,Hani Lazam,Poland,100,,,,,-185,-185,-185,,,,,,,100,Pro Open,M,B,Raw,,,,1988
1,Oleg Palamarchuk,Ukraine,109.7,,,,,200,205,210,,,,,,210,110,Pro Open,M,B,Raw,,210,,1972
2,Adam Slawnikowski,Poland,106.1,,,,,180,187.5,195,,,,,,195,110,Pro Open,M,B,Raw,,195,,1986
3,Andriy Prykhodko,Ukraine,108.3,,,,,185,-195,-202.5,,,,,,185,110,Pro Open,M,B,Raw,,185,,1981
4,Oleksandr Klokov,Ukraine,102,,,,,152.5,160,165,,,,,,165,110,Pro Open,M,B,Raw,,165,,1997
1,Michał Tybora,Poland,116.45,,,,,232.5,240,-245,,,,,,240,125,Pro Open,M,B,Raw,,240,,2007
2,Vitalii Pokinchereda,Ukraine,116.35,,,,,200,207.5,210,,,,,,210,125,Pro Open,M,B,Raw,,210,,1976
3,Ruslan Gutnev,Ukraine,111,,,,,175,180,-185,,,,,,180,125,Pro Open,M,B,Raw,,180,,1991
4,Andriy Voloshynenko,Ukraine,114,,,,,152.5,160,167.5,,,,,,167.5,125,Pro Open,M,B,Raw,,167.5,,1980
1,Tomasz Andrzejczak,Poland,126.1,,,,,190,200,,,,,,,200,140,Pro Open,M,B,Raw,,200,,1978
1,Robert Wrzawiński,Poland,88,,,,,212.5,221,-225,,,,,,221,90,Pro Submasters 33-39,M,B,Raw,,221,,1982
2,Volodymyr Galyga,Ukraine,90,,,,,190,200,-202.5,,,,,,200,90,Pro Submasters 33-39,M,B,Raw,,200,,1983
1,Andriy Prykhodko,Ukraine,108.3,,,,,185,-195,-202.5,,,,,,185,110,Pro Submasters 33-39,M,B,Raw,,185,,1981
2,Andriy Tomashevych,Ukraine,109.3,,,,,180,-187.5,-187.5,,,,,,180,110,Pro Submasters 33-39,M,B,Raw,,180,,1978
1,Andriy Voloshynenko,Ukraine,114,,,,,152.5,160,167.5,,,,,,167.5,125,Pro Submasters 33-39,M,B,Raw,,167.5,,1980
1,Tomasz Andrzejczak,Poland,126.1,,,,,190,200,,,,,,,200,140,Pro Submasters 33-39,M,B,Raw,,200,,1978
1,Oleksandr Zhariy,Ukraine,60,,,,,120,125,130,-135,,,,,130,60,Pro Masters 40-44,M,B,Raw,,130,,1972
1,Oleksandr Ploskyy,Ukraine,89.75,,,,,152.5,157.5,-162.5,,,,,,157.5,90,Pro Masters 40-44,M,B,Raw,,157.5,,1974
1,Eugene Aleksienko,Ukraine,93.75,,,,,-190,190,200,,,,,,200,100,Pro Masters 40-44,M,B,Raw,,200,,1976
2,Viktor Rublyov,Ukraine,97.95,,,,,170,180,-185,,,,,,180,100,Pro Masters 40-44,M,B,Raw,,180,,1975
3,Vitalii Konarchuk,Ukraine,95.95,,,,,140,145,-150,,,,,,145,100,Pro Masters 40-44,M,B,Raw,,145,,1975
1,Oleg Palamarchuk,Ukraine,109.7,,,,,200,205,210,,,,,,210,110,Pro Masters 40-44,M,B,Raw,,210,,1972
1,Vitalii Pokinchereda,Ukraine,116.35,,,,,200,207.5,210,,,,,,210,125,Pro Masters 40-44,M,B,Raw,,210,,1976
1,Zbigniew Drewniak,Poland,129,,,,,170,180,190,,,,,,190,140,Pro Masters 40-44,M,B,Raw,,190,,1973
1,Andrii Khantil,Ukraine,87.3,,,,,130,135,142.5,,,,,,142.5,90,Pro Masters 45-49,M,B,Raw,,142.5,,1968
2,Sergii Zhukotskyy,Ukraine,88.5,,,,,130,140,-145,,,,,,140,90,Pro Masters 45-49,M,B,Raw,,140,,1966
1,Hovhannes Yazichyan,Armenia,94.5,,,,,200,205,210,,,,,,210,100,Pro Masters 45-49,M,B,Raw,,210,,1971
1,Oleksandr Fedorov,Ukraine,107.5,,,,,120,-125,-125,,,,,,120,110,Pro Masters 45-49,M,B,Raw,,120,,1969
1,Igor Chumak,Ukraine,72.95,,,,,105,-115,,,,,,,105,75,Pro Masters 50-54,M,B,Raw,,105,,1965
1,Sergii Deniak,Ukraine,103.5,,,,,152.5,160,167.5,,,,,,167.5,110,Pro Masters 50-54,M,B,Raw,,167.5,,1966
2,Mykhailo Geienko,Ukraine,108.5,,,,,167.5,-172.5,-172.5,,,,,,167.5,110,Pro Masters 50-54,M,B,Raw,,167.5,,1963
1,Mirosław Orłowski,Poland,96.75,,,,,135,137.5,140,-141,,,,,140,100,Pro Masters 70-74,M,B,Raw,,140,,1943
1,Oleksandr Ploskyy,Ukraine,89.75,,,,,152.5,157.5,-162.5,,,,,,157.5,90,Pro Military/Fire/Police,M,B,Raw,,157.5,,1974
1,Sergii Deniak,Ukraine,103.5,,,,,152.5,160,167.5,,,,,,167.5,110,Pro Military/Fire/Police,M,B,Raw,,167.5,,1966
1,Bettina Razzouki-Korkis,Poland,56,,,,,61,65,67.5,-69,,,,,67.5,56,Pro Open,F,B,Raw,,67.5,,1965
1,Olena Shcherbinina,Ukraine,58.45,,,,,-60,60,65,,,,,,65,60,Pro Open,F,B,Raw,,65,,1982
1,Honorata Kaczorowska,Poland,63.3,,,,,110,117.5,120,,,,,,120,67.5,Pro Open,F,B,Raw,,120,,1985
2,Adriana Bończak,Poland,62.4,,,,,87.5,91,92.5,-95,,,,,92.5,67.5,Pro Open,F,B,Raw,,92.5,,1973
1,Olena Shcherbinina,Ukraine,58.45,,,,,-60,60,65,,,,,,65,60,Pro Submasters 33-39,F,B,Raw,,65,,1982
2,Alla Kasyanyuk,Ukraine,57.9,,,,,45,-50,50,,,,,,50,60,Pro Submasters 33-39,F,B,Raw,,50,,1978
1,Adriana Bończak,Poland,62.4,,,,,87.5,91,92.5,-95,,,,,92.5,67.5,Pro Masters 40-44,F,B,Raw,,92.5,,1973
1,Bettina Razzouki-Korkis,Poland,56,,,,,61,65,67.5,-69,,,,,67.5,56,Pro Masters 50-54,F,B,Raw,,67.5,,1965
1,Mykhaylo Malkush,Ukraine,58.65,,,,,145,151,157.5,-160,,,,,157.5,60,Amateur Juniors 20-23,M,B,Multi-ply,,157.5,,1996
1,Mykhaylo Malkush,Ukraine,58.65,,,,,145,151,157.5,-160,,,,,157.5,60,Amateur Open,M,B,Multi-ply,,157.5,,1996
1,Stefan Sochaňski,Poland,89,,,,,115,125,,,,,,,125,90,Amateur Open,M,B,Multi-ply,,125,,1943
1,Irakli Tskhovrebashvili,Georgia,90.5,,,,,190,205,-220,,,,,,205,100,Amateur Open,M,B,Multi-ply,,205,,1981
1,Viktor Bozhukha,Ukraine,115.85,,,,,200,207.5,212.5,,,,,,212.5,125,Amateur Open,M,B,Multi-ply,,212.5,,1978
2,Oleksandr Shvab,Ukraine,119.65,,,,,170,200,,,,,,,200,125,Amateur Open,M,B,Multi-ply,,200,,1976
1,Irakli Tskhovrebashvili,Georgia,90.5,,,,,190,205,-220,,,,,,205,100,Amateur Submasters 33-39,M,B,Multi-ply,,205,,1981
1,Viktor Bozhukha,Ukraine,115.85,,,,,200,207.5,212.5,,,,,,212.5,125,Amateur Submasters 33-39,M,B,Multi-ply,,212.5,,1978
1,Oleksandr Shvab,Ukraine,119.65,,,,,170,200,,,,,,,200,125,Amateur Masters 40-44,M,B,Multi-ply,,200,,1976
1,Yuriy Malygin,Ukraine,100,,,,,100,-160,-165,,,,,,100,100,Amateur Masters 45-49,M,B,Multi-ply,,100,,1967
1,Stefan Sochaňski,Poland,89,,,,,115,125,,,,,,,125,90,Amateur Masters 65-69,M,B,Multi-ply,,125,,1943
1,Sergiy Naleykin,Ukraine,78,,,,,250,-260,260,,,,,,260,82.5,Pro Open,M,B,Multi-ply,,260,,1981
2,Igor Povazhniuk,Ukraine,76.65,,,,,230,240,-250,,,,,,240,82.5,Pro Open,M,B,Multi-ply,,240,,1974
1,Volodymyr Galyga,Ukraine,90,,,,,240,-250,250,,,,,,250,90,Pro Open,M,B,Multi-ply,,250,,1983
2,Patryk Kozieł,Poland,90,,,,,215,225,-242.5,,,,,,225,90,Pro Open,M,B,Multi-ply,,225,,1987
3,Vitaliy Sobkovskiy,Ukraine,86.8,,,,,200,-207.5,-212.5,,,,,,200,90,Pro Open,M,B,Multi-ply,,200,,1991
DQ,Dmytro Kuzmenko,Ukraine,83.35,,,,,-200,-200,-200,,,,,,,90,Pro Open,M,B,Multi-ply,,,,1992
1,Franciszek Szabluk,Poland,95.45,,,,,200,210,-230,,,,,,210,100,Pro Open,M,B,Multi-ply,,210,,1956
1,Sergiy Ivanov,Ukraine,106.05,,,,,330,-350,-355,,,,,,330,110,Pro Open,M,B,Multi-ply,,330,,1990
2,Sebastjan Balner,Poland,105.15,,,,,200,220,-230,,,,,,220,110,Pro Open,M,B,Multi-ply,,220,,1973
3,Adam Slawnikowski,Poland,106.1,,,,,-200,200,,,,,,,200,110,Pro Open,M,B,Multi-ply,,200,,1986
1,Łukasz Jałowiecki,Poland,115.4,,,,,210,220,-230,,,,,,220,125,Pro Open,M,B,Multi-ply,,220,,1985
1,Tomasz Andrzejczak,Poland,126.1,,,,,230,-261,-261,,,,,,230,140,Pro Open,M,B,Multi-ply,,230,,1978
1,Volodymyr Galyga,Ukraine,90,,,,,240,-250,250,,,,,,250,90,Pro Submasters 33-39,M,B,Multi-ply,,250,,1983
1,Tomasz Andrzejczak,Poland,126.1,,,,,230,-261,-261,,,,,,230,140,Pro Submasters 33-39,M,B,Multi-ply,,230,,1978
1,Sebastjan Balner,Poland,105.15,,,,,200,220,-230,,,,,,220,110,Pro Masters 40-44,M,B,Multi-ply,,220,,1973
1,Franciszek Szabluk,Poland,95.45,,,,,200,210,-230,,,,,,210,100,Pro Masters 60-64,M,B,Multi-ply,,210,,1956
1,Mirosław Orłowski,Poland,96.75,,,,,-165,165,-170,,,,,,165,100,Pro Masters 70-74,M,B,Multi-ply,,165,,1943
1,Alan Kviatkovskii,Ukraine,47.8,,,,,,,,,75,80,-85,,80,48,Amateur Children 11-12,M,D,Raw,,,80,2005
2,Demian Karandeev,Ukraine,47.6,,,,,,,,,45,55,-65,,55,48,Amateur Children 11-12,M,D,Raw,,,55,2005
1,Hovik Babadjanayan,Armenia,44,,,,,,,,,95,100,-105,,100,44,Amateur Teen 13-15,M,D,Raw,,,100,2002
1,Hayk Bozinyan,Armenia,59,,,,,,,,,140,145,150,,150,60,Amateur Teen 13-15,M,D,Raw,,,150,2001
1,Oleksandr Tymoshchuk,Ukraine,66.8,,,,,,,,,112.5,120,125,,125,67.5,Amateur Teen 13-15,M,D,Raw,,,125,2002
1,Mykhailo Yurchenko,Ukraine,74.55,,,,,,,,,240,252.5,-260.5,,252.5,75,Amateur Teen 16-17,M,D,Raw,,,252.5,1999
1,Vladyslav Shevchenko,Ukraine,95.4,,,,,,,,,130,160,-180,,160,100,Amateur Teen 18-19,M,D,Raw,,,160,1997
1,Samvel Pogosyan,Armenia,55.9,,,,,,,,,130,150,-160,,150,56,Amateur Juniors 20-23,M,D,Raw,,,150,1995
1,Sergii Denysevych,Ukraine,66.3,,,,,,,,,195,210,222.5,,222.5,67.5,Amateur Juniors 20-23,M,D,Raw,,,222.5,1994
2,Yuri Mayilyan,Armenia,67.05,,,,,,,,,195,205,222.5,,222.5,67.5,Amateur Juniors 20-23,M,D,Raw,,,222.5,1994
3,Vitalii Senko,Ukraine,67.5,,,,,,,,,180,-195,-207.5,,180,67.5,Amateur Juniors 20-23,M,D,Raw,,,180,1994
1,Mykhailo Kravchenya,Ukraine,88.55,,,,,,,,,220,230,-240,,230,90,Amateur Juniors 20-23,M,D,Raw,,,230,1992
2,Arkadiy Boldyrev,Ukraine,87.2,,,,,,,,,195,210,220,,220,90,Amateur Juniors 20-23,M,D,Raw,,,220,1994
1,Nazar Korzhak,Ukraine,95.6,,,,,,,,,210,215,220,,220,100,Amateur Juniors 20-23,M,D,Raw,,,220,1993
1,Serhii Haidrykh,Ukraine,105.4,,,,,,,,,260,270,-282.5,,270,110,Amateur Juniors 20-23,M,D,Raw,,,270,1993
1,Sergii Denysevych,Ukraine,66.3,,,,,,,,,195,210,222.5,,222.5,67.5,Amateur Open,M,D,Raw,,,222.5,1994
2,Vitalii Senko,Ukraine,67.5,,,,,,,,,180,-195,-207.5,,180,67.5,Amateur Open,M,D,Raw,,,180,1994
3,Volodymyr Korostil,Ukraine,62.3,,,,,,,,,150,-175,,,150,67.5,Amateur Open,M,D,Raw,,,150,1986
1,Mykhailo Yurchenko,Ukraine,74.55,,,,,,,,,240,252.5,-260.5,,252.5,75,Amateur Open,M,D,Raw,,,252.5,1999
1,Viktor Blakytnyy,Ukraine,80.95,,,,,,,,,215,225,-235,,225,82.5,Amateur Open,M,D,Raw,,,225,1981
2,Vadym Doroshenko,Ukraine,76.45,,,,,,,,,175,185,200,,200,82.5,Amateur Open,M,D,Raw,,,200,1989
1,Sergey Alvanyan,Armenia,89.65,,,,,,,,,235,250,260,,260,90,Amateur Open,M,D,Raw,,,260,1985
2,Stefan Sochaňski,Poland,89,,,,,,,,,195,-215,215,,215,90,Amateur Open,M,D,Raw,,,215,1948
3,Andrii Muntian,Ukraine,88.05,,,,,,,,,190,-215,-215,,190,90,Amateur Open,M,D,Raw,,,190,1992
1,Nver Gharibyan,Armenia,99.1,,,,,,,,,250,-260,260,,260,100,Amateur Open,M,D,Raw,,,260,1987
2,Oleksandr Lisovskiy,Ukraine,91.4,,,,,,,,,250,-262.5,-262.5,,250,100,Amateur Open,M,D,Raw,,,250,1990
3,Vladyslav Shevchenko,Ukraine,95.4,,,,,,,,,130,160,-180,,160,100,Amateur Open,M,D,Raw,,,160,1997
1,Pavlo Mishchuk,Ukraine,107.9,,,,,,,,,260,272.5,-275,,272.5,110,Amateur Open,M,D,Raw,,,272.5,1998
2,Serhii Haidrykh,Ukraine,105.4,,,,,,,,,260,270,-282.5,,270,110,Amateur Open,M,D,Raw,,,270,1993
3,Pavlo Kipnyak,Ukraine,106,,,,,,,,,190,210,-230,,210,110,Amateur Open,M,D,Raw,,,210,1969
1,Oleksandr Kalkutin,Ukraine,124.8,,,,,,,,,190,210,220,,220,125,Amateur Open,M,D,Raw,,,220,1965
1,Oleg Brazhnyk,Ukraine,158.6,,,,,,,,,180,-200,,,180,140+,Amateur Open,M,D,Raw,,,180,1970
1,Dmytro Strelnikov,Ukraine,99.6,,,,,,,,,160,180,190,,190,100,Amateur Masters 40-44,M,D,Raw,,,190,1975
1,Viacheslav Bulgakov,Ukraine,84.8,,,,,,,,,160,170,180,,180,90,Amateur Masters 45-49,M,D,Raw,,,180,1966
1,Pavlo Kipnyak,Ukraine,106,,,,,,,,,190,210,-230,,210,110,Amateur Masters 45-49,M,D,Raw,,,210,1969
1,Oleg Brazhnyk,Ukraine,158.6,,,,,,,,,180,-200,,,180,140+,Amateur Masters 45-49,M,D,Raw,,,180,1970
1,Andrzej Stasiak,Poland,78.25,,,,,,,,,160,180,190,,190,82.5,Amateur Masters 50-54,M,D,Raw,,,190,1965
2,Ararat Shainyan,Armenia,82,,,,,,,,,160,180,-190,,180,82.5,Amateur Masters 50-54,M,D,Raw,,,180,1963
1,Gennadiy Ivanchenko,Ukraine,84.6,,,,,,,,,95,105,120,,120,90,Amateur Masters 50-54,M,D,Raw,,,120,1966
1,Vitaliy Filonenko,Ukraine,96.95,,,,,,,,,-150,150,160,,160,100,Amateur Masters 50-54,M,D,Raw,,,160,1964
1,Oleksandr Kalkutin,Ukraine,124.8,,,,,,,,,190,210,220,,220,125,Amateur Masters 50-54,M,D,Raw,,,220,1965
1,Stefan Sochaňski,Poland,89,,,,,,,,,195,-215,215,,215,90,Amateur Masters 65-69,M,D,Raw,,,215,1948
1,Igor Zubarev,Ukraine,74.5,,,,,,,,,-80,80,102.5,,102.5,75,Amateur Masters 75-79,M,D,Raw,,,102.5,1941
1,Vitaliy Filonenko,Ukraine,96.95,,,,,,,,,-150,150,160,,160,100,Amateur Military/Fire/Police,M,D,Raw,,,160,1964
1,Mariya Soltysyak,Ukraine,54.5,,,,,,,,,105,-117.5,117.5,,117.5,56,Amateur Teen 18-19,F,D,Raw,,,117.5,1998
1,Nadiya Osaenko,Ukraine,43,,,,,,,,,70,75,80,,80,44,Amateur Open,F,D,Raw,,,80,1990
1,Vitaliya Tonysheva,Ukraine,47.35,,,,,,,,,85,97.5,-107.5,,97.5,48,Amateur Open,F,D,Raw,,,97.5,1990
1,Svitlana Melnychuk,Ukraine,51.65,,,,,,,,,102.5,110,115,,115,52,Amateur Open,F,D,Raw,,,115,1991
1,Olga Yarmolyuk,Ukraine,55.85,,,,,,,,,135,145,-150,,145,56,Amateur Open,F,D,Raw,,,145,1989
1,Yuliya Malinovska,Ukraine,56.9,,,,,,,,,112.5,117.5,122.5,,122.5,60,Amateur Open,F,D,Raw,,,122.5,1984
1,Armine Sargsyan,Ukraine,55.55,,,,,,,,,115,117.5,120,,120,56,Amateur Submasters 33-39,F,D,Raw,,,120,1981
1,Nazar Sokol,Ukraine,73.5,,,,,,,,,160,170,177.5,,177.5,75,Pro Teen 18-19,M,D,Raw,,,177.5,1998
1,Oleksandr Klokov,Ukraine,102,,,,,,,,,260,270,280,,280,110,Pro Teen 18-19,M,D,Raw,,,280,1997
1,Oleksandr Fedoriv,Ukraine,88.7,,,,,,,,,230,242.5,250,,250,90,Pro Juniors 20-23,M,D,Raw,,,250,1993
1,Elguja Koberidze,Georgia,95.2,,,,,,,,,230,250,-262.5,,250,100,Pro Juniors 20-23,M,D,Raw,,,250,1995
1,Ulaş Maden,Turkey,107.6,,,,,,,,,260,270,280,-301,280,110,Pro Juniors 20-23,M,D,Raw,,,280,1996
1,Patryk Łazor,Poland,120.15,,,,,,,,,270,290,300,,300,125,Pro Juniors 20-23,M,D,Raw,,,300,1993
1,Arkadiy Shalokha,Ukraine,82.5,,,,,,,,,270,285,295,,295,82.5,Pro Open,M,D,Raw,,,295,1983
2,Sergii Ostapchuk,Ukraine,77.7,,,,,,,,,180,195,205,,205,82.5,Pro Open,M,D,Raw,,,205,1983
1,Pavlo Ishchenko,Ukraine,85.6,,,,,,,,,285,302.5,-311,,302.5,90,Pro Open,M,D,Raw,,,302.5,1991
2,Taras Ganzha,Ukraine,86.5,,,,,,,,,222.5,235,-242.5,,235,90,Pro Open,M,D,Raw,,,235,1987
3,Vadim Omelchuk,Ukraine,88.75,,,,,,,,,180,200,215,,215,90,Pro Open,M,D,Raw,,,215,1989
1,Viktor Rublyov,Ukraine,97.95,,,,,,,,,240,250,255,,255,100,Pro Open,M,D,Raw,,,255,1975
2,Michał Szaszkowski,Poland,90.3,,,,,,,,,-150,150,160,,160,100,Pro Open,M,D,Raw,,,160,1988
1,Oleksandr Klokov,Ukraine,102,,,,,,,,,260,270,280,,280,110,Pro Open,M,D,Raw,,,280,1997
1,Andriy Voloshynenko,Ukraine,114,,,,,,,,,180,200,220,,220,125,Pro Open,M,D,Raw,,,220,1980
1,Oleksandr Gensitskyy,Ukraine,138.55,,,,,,,,,280,-300,-300,,280,140,Pro Open,M,D,Raw,,,280,1975
1,Andriy Voloshynenko,Ukraine,114,,,,,,,,,180,200,220,,220,125,Pro Submasters 33-39,M,D,Raw,,,220,1980
1,Viktor Rublyov,Ukraine,97.95,,,,,,,,,240,250,255,,255,100,Pro Masters 40-44,M,D,Raw,,,255,1975
2,Sedrettin Ozbahçeci,Turkey,97.7,,,,,,,,,200,215,-222.5,,215,100,Pro Masters 40-44,M,D,Raw,,,215,1976
1,Oleksandr Gensitskyy,Ukraine,138.55,,,,,,,,,280,-300,-300,,280,140,Pro Masters 40-44,M,D,Raw,,,280,1975
1,Gasan Garumov,Ukraine,73.4,,,,,,,,,150,160,-170,,160,75,Pro Masters 50-54,M,D,Raw,,,160,1963
1,Michał Musiński,Poland,95.35,,,,,,,,,220,235,250.5,-260,250.5,100,Pro Military/Fire/Police,M,D,Raw,,,250.5,1988
1,Bettina Razzouki-Korkis,Poland,56,,,,,,,,,105,115,122.5,-125,122.5,56,Pro Open,F,D,Raw,,,122.5,1965
1,Olena Shcherbinina,Ukraine,58.45,,,,,,,,,117.5,122.5,125,,125,60,Pro Open,F,D,Raw,,,125,1982
1,Olena Shcherbinina,Ukraine,58.45,,,,,,,,,117.5,122.5,125,,125,60,Pro Submasters 33-39,F,D,Raw,,,125,1982
1,Bettina Razzouki-Korkis,Poland,56,,,,,,,,,105,115,122.5,-125,122.5,56,Pro Masters 50-54,F,D,Raw,,,122.5,1965
1,Oleksii Tkachuk,Ukraine,110,,,,,,,,,260,275,290,,290,110,Amateur Juniors 20-23,M,D,Multi-ply,,,290,1996
1,Stefan Sochaňski,Poland,89,,,,,,,,,225,245,252.5,,252.5,90,Amateur Masters 65-69,M,D,Multi-ply,,,252.5,1948
