Place,Name,WeightClassKg,Division,Squat1Kg,Squat2Kg,Squat3Kg,Best3SquatKg,Bench1Kg,Bench2Kg,Bench3Kg,Best3BenchKg,Deadlift1Kg,Deadlift2Kg,Deadlift3Kg,Best3DeadliftKg,TotalKg,Sex,Event,Equipment
1,Deb Hairston,52,M3,30,35,45,45,-62.5,62.5,-65,62.5,60,-62.5,-62.5,60,167.5,F,SBD,Single-ply
DQ,Jennifer Hollier,52,OP,25,27.5,30,30,-77.5,-85,-92.5,,,,,,,F,SBD,Single-ply
1,Jennifer Thompson #1,60,OP,-125,125,-137.5,125,-130,-130,130,130,125,137.5,142.5,142.5,397.5,F,SBD,Single-ply
1,Priscilla Ribic,67.5,OP,215,230,235,235,127.5,-140,142.5,142.5,225,237.5,-250,237.5,615,F,SBD,Single-ply
1,Katie Ford,75,OP,-170,170,-185,170,-107.5,107.5,-110,107.5,182.5,-197.5,-197.5,182.5,460,F,SBD,Single-ply
2,Gilly Martinez,75,OP,-162.5,162.5,182.5,182.5,85,90,-95,90,130,-140,-140,130,402.5,F,SBD,Single-ply
DQ,Christy Newman,75,OP,75,80,-200,80,-132.5,-132.5,-132.5,,,,,,,F,SBD,Single-ply
DQ,Liz Willett,90+,OP,-272.5,-292.5,300,300,-182.5,-192.5,-192.5,,,,,,,F,SBD,Single-ply
