Division,WeightClassKg,Place,Name,Team,BodyweightKg,Best3SquatKg,Best3BenchKg,Best3DeadliftKg,TotalKg,Equipment,Event,Sex
Boys,51.71,1,Gabriel Spikes,Lago Vista,49.62,106.59,70.31,122.47,299.37,Single-ply,SBD,M
Boys,51.71,2,Seth Kerchville,Liberty Hill,50.71,111.13,61.23,111.13,283.5,Single-ply,SBD,M
Boys,51.71,3,Austin Hobson,Bremond,51.71,74.84,49.9,74.84,199.58,Single-ply,SBD,M
Boys,55.79,1,Trey Fuller,Jarrell,54.98,158.76,81.65,154.22,394.63,Single-ply,SBD,M
Boys,55.79,2,Clay Stamper,Lago Vista,55.43,99.79,61.23,104.33,265.35,Single-ply,SBD,M
Boys,59.87,1,Kaden Trice,Salado,57.97,117.93,68.04,136.08,322.05,Single-ply,SBD,M
Boys,67.13,2,David Bushong,Austin Anderson,60.1,88.45,54.43,120.2,263.08,Single-ply,SBD,M
Boys,59.87,DQ,Steven Bravo,Jarrell,59.87,,,,,Single-ply,SBD,M
Boys,59.87,DQ,Will Meng,Liberty Hill,57.97,,,,,Single-ply,SBD,M
Boys,67.13,1,Scott Zufelt,Lago Vista,66.77,174.63,92.99,226.8,494.42,Single-ply,SBD,M
Boys,67.13,2,Jesse Berry,Bremond,65.5,172.37,97.52,181.44,451.32,Single-ply,SBD,M
Boys,67.13,3,Seth Lozano,Lago Vista,65.77,158.76,90.72,172.37,421.84,Single-ply,SBD,M
Boys,67.13,4,Austin Stamper,Lago Vista,64.5,142.88,88.45,165.56,396.89,Single-ply,SBD,M
Boys,67.13,5,Eduardo Loma,Jarrell,64.41,156.49,102.06,124.74,383.29,Single-ply,SBD,M
Boys,67.13,6,River Wylie,Lago Vista,63.96,142.88,79.38,142.88,365.14,Single-ply,SBD,M
Boys,67.13,7,Angel Gonzales,Lago Vista,62.23,142.88,81.65,138.35,362.87,Single-ply,SBD,M
Boys,67.13,8,Steven Maddux,Lago Vista,63.41,145.15,65.77,151.95,362.87,Single-ply,SBD,M
Boys,67.13,9,Ivan Cardenas,Jarrell,65.77,149.69,81.65,131.54,362.87,Single-ply,SBD,M
Boys,67.13,10,Keylan Herman,Liberty Hill,65.14,124.74,74.84,136.08,335.66,Single-ply,SBD,M
Boys,67.13,11,Justin Becker,Liberty Hill,65.95,113.4,83.91,129.27,326.59,Single-ply,SBD,M
Boys,67.13,12,Israel Ruiz,Liberty Hill,62.14,117.93,68.04,129.27,315.25,Single-ply,SBD,M
Boys,67.13,13,Clayton Engelke,Austin Anderson,65.59,92.99,63.5,117.93,274.42,Single-ply,SBD,M
Boys,67.13,14,Tyler Stairs,Salado,63.14,97.52,63.5,81.65,242.67,Single-ply,SBD,M
Boys,74.84,1,Zachary Riola,Cameron Yoe,74.03,185.97,136.08,190.51,512.56,Single-ply,SBD,M
Boys,74.84,2,Colton Cunningham,Liberty Hill,73.21,151.95,86.18,172.37,410.5,Single-ply,SBD,M
Boys,74.84,3,Josue Garcia,Jarrell,68.67,142.88,102.06,163.29,408.23,Single-ply,SBD,M
Boys,74.84,4,Alex Guardado,Lago Vista,69.94,140.61,79.38,163.29,383.29,Single-ply,SBD,M
Boys,82.1,5,Lance Spakes,Salado,75.07,140.61,79.38,138.35,358.34,Single-ply,SBD,M
Boys,82.1,6,Caleb Zene,Austin Anderson,75.02,106.59,77.11,140.61,324.32,Single-ply,SBD,M
Boys,74.84,7,Holland Wiler,Austin Anderson,73.94,83.91,56.7,131.54,272.16,Single-ply,SBD,M
Boys,74.84,DQ,Michael Gutierrez,Lago Vista,74.84,,,,,Single-ply,SBD,M
Boys,82.1,DQ,Josh Steinhardt,Salado,75.02,,,,,Single-ply,SBD,M
Boys,82.1,1,David Cortes,Jarrell,82.01,204.12,127.01,197.31,528.44,Single-ply,SBD,M
Boys,82.1,2,Evan Wotipka,Lago Vista,81.01,197.31,122.47,204.12,523.9,Single-ply,SBD,M
Boys,82.1,3,Victor Moya,Jarrell,77.11,195.04,131.54,183.7,510.29,Single-ply,SBD,M
Boys,89.81,4,Chaseland Taylor,Lago Vista,82.19,174.63,104.33,204.12,483.08,Single-ply,SBD,M
Boys,82.1,5,Dakota Corbut,Liberty Hill,80.56,163.29,88.45,181.44,433.18,Single-ply,SBD,M
Boys,82.1,6,Cody Windham,Bremond,80.29,161.03,83.91,158.76,403.7,Single-ply,SBD,M
Boys,89.81,7,Justin Wilson,Liberty Hill,82.28,136.08,97.52,145.15,378.75,Single-ply,SBD,M
Boys,82.1,DQ,Damian Kozak,Bremond,80.29,258.55,165.56,,,Single-ply,SBD,M
Boys,82.1,DQ,Marcos Cardenas,Jarrell,82.1,,,,,Single-ply,SBD,M
Boys,82.1,DQ,Ricky Sampson,Salado,81.56,,,,,Single-ply,SBD,M
Boys,89.81,1,John Beebe,Lago Vista,87.72,206.38,129.27,254.01,589.67,Single-ply,SBD,M
Boys,89.81,2,Jacob Covington,Liberty Hill,85.64,181.44,117.93,167.83,467.2,Single-ply,SBD,M
Boys,89.81,3,Caleb McGee,Cameron Yoe,86.82,145.15,86.18,188.24,419.57,Single-ply,SBD,M
Boys,89.81,4,Matt McLeod,Liberty Hill,86.91,154.22,95.25,170.1,419.57,Single-ply,SBD,M
Boys,89.81,5,Kenny Alexander,Liberty Hill,88.09,142.88,83.91,192.78,419.57,Single-ply,SBD,M
Boys,89.81,DQ,Ernie Jaime,Jarrell,89.81,,,,,Single-ply,SBD,M
Boys,99.79,1,Colby Smith,Jarrell,94.8,181.44,124.74,185.97,492.15,Single-ply,SBD,M
Boys,99.79,2,Ryan Bode,Lago Vista,94.89,172.37,111.13,197.31,480.81,Single-ply,SBD,M
Boys,109.77,3,Tommy Harville,Jarrell,100.02,183.7,102.06,176.9,462.66,Single-ply,SBD,M
Boys,99.79,4,Josh McGee,Cameron Yoe,98.43,147.42,102.06,190.51,439.98,Single-ply,SBD,M
Boys,99.79,5,Van Shamblin,Liberty Hill,92.71,172.37,88.45,165.56,426.38,Single-ply,SBD,M
Boys,99.79,6,James Collins,Salado,97.07,147.42,92.99,151.95,392.36,Single-ply,SBD,M
Boys,99.79,7,Jonathan Pety,Lago Vista,93.26,149.69,74.84,145.15,369.68,Single-ply,SBD,M
Boys,109.77,1,Peyton Womack,Salado,101.24,244.94,124.74,219.99,589.67,Single-ply,SBD,M
Boys,109.77,2,Will Smith,Liberty Hill,103.42,226.8,145.15,197.31,569.26,Single-ply,SBD,M
Boys,109.77,3,Mitchell Grimm,Liberty Hill,101.06,226.8,113.4,192.78,532.97,Single-ply,SBD,M
Boys,109.77,4,Robert Salvatierra,Liberty Hill,107.59,210.92,108.86,181.44,501.22,Single-ply,SBD,M
Boys,109.77,5,Cameron Mueck,Cameron Yoe,104.51,192.78,124.74,181.44,498.95,Single-ply,SBD,M
Boys,109.77,6,Miyah Woolven,Austin Anderson,103.6,127.01,68.04,127.01,322.05,Single-ply,SBD,M
Boys,109.77,7,Brian McDonald,Cameron Yoe,106.41,90.72,63.5,113.4,267.62,Single-ply,SBD,M
Boys,124.74,1,Billy Golding,Salado,110.86,312.98,176.9,254.01,743.89,Single-ply,SBD,M
Boys,124.74,2,Jody Hodges,Salado,114.03,242.67,122.47,199.58,564.72,Single-ply,SBD,M
Boys,124.74,3,Dj Cook,Jarrell,122.74,161.03,104.33,181.44,446.79,Single-ply,SBD,M
Boys,124.74+,1,Jacob Sanders,Liberty Hill,130.36,244.94,111.13,210.92,566.99,Single-ply,SBD,M
Boys,124.74+,2,Rajab Rajab,Austin Anderson,135.26,215.46,102.06,215.46,532.97,Single-ply,SBD,M
Boys,124.74+,3,Jarrett Hodges,Salado,128,124.74,72.57,136.08,333.39,Single-ply,SBD,M
Boys,124.74+,DQ,Joseph Flores,Lago Vista,131.54,,,,,Single-ply,SBD,M
