Division,WeightClassKg,Place,Name,Team,BodyweightKg,Best3SquatKg,Best3BenchKg,Best3DeadliftKg,TotalKg,Equipment,Event,Sex
Boys,51.71,1,Jose Sanchez,Gilmer,48.99,142.88,81.65,140.61,365.14,Single-ply,SBD,M
Boys,51.71,2,Jeremiah Carino,Ladonia Fannindel,49.9,124.74,61.23,136.08,322.05,Single-ply,SBD,M
Boys,51.71,3,Alex Rodriguez,Sulphur Springs,51.62,113.4,68.04,136.08,317.51,Single-ply,SBD,M
Boys,51.71,4,Jayden Brown,Paris North Lamar,51.07,106.59,52.16,142.88,301.64,Single-ply,SBD,M
Boys,51.71,5,Patrick Dreesen,Linden-Kildare,51.44,108.86,61.23,127.01,297.1,Single-ply,SBD,M
Boys,51.71,6,Oscar Yanez,Sulphur Springs,51.71,115.67,68.04,113.4,297.1,Single-ply,SBD,M
Boys,51.71,7,Jose Lopez,Kaufman,46.9,117.93,63.5,113.4,294.84,Single-ply,SBD,M
Boys,51.71,8,Felix Espinoza,Crandall,50.71,111.13,65.77,117.93,294.84,Single-ply,SBD,M
Boys,55.79,1,Richard Lowrie,Kemp,55.79,183.7,106.59,176.9,467.2,Single-ply,SBD,M
Boys,55.79,2,Nate Mendoza,Kemp,54.98,140.61,72.57,170.1,383.29,Single-ply,SBD,M
Boys,55.79,3,Evelio Mendoza,Gilmer,55.79,124.74,74.84,142.88,342.46,Single-ply,SBD,M
Boys,55.79,4,Blayce Lassiter,Paris North Lamar,54.7,127.01,65.77,145.15,337.93,Single-ply,SBD,M
Boys,55.79,5,Osvaldo Dela Rosa,Crandall,54.07,108.86,56.7,106.59,272.16,Single-ply,SBD,M
Boys,59.87,1,Isaiah Payne,Crandall,59.15,199.58,102.06,204.12,505.76,Single-ply,SBD,M
Boys,59.87,2,Josh Bolton,Paris North Lamar,59.15,176.9,106.59,181.44,464.93,Single-ply,SBD,M
Boys,59.87,3,Gage Dollins,Paris North Lamar,59.06,147.42,90.72,161.03,399.16,Single-ply,SBD,M
Boys,59.87,4,Cason Goodson,Sulphur Springs,58.51,156.49,81.65,147.42,385.55,Single-ply,SBD,M
Boys,59.87,5,Bryce Evans,Paris North Lamar,59.42,142.88,83.91,138.35,365.14,Single-ply,SBD,M
Boys,59.87,6,River Chaney,Quitman,59.78,142.88,70.31,149.69,362.87,Single-ply,SBD,M
Boys,59.87,7,Dayton Hamilton,Linden-Kildare,59.87,113.4,68.04,131.54,312.98,Single-ply,SBD,M
Boys,59.87,8,Jonathan Martin,Kaufman,58.33,127.01,61.23,117.93,306.17,Single-ply,SBD,M
Boys,59.87,9,Jace Herman,Emory Rains,58.42,111.13,68.04,115.67,294.84,Single-ply,SBD,M
Boys,59.87,10,Tyler Mandrell,Emory Rains,58.97,102.06,65.77,124.74,292.57,Single-ply,SBD,M
Boys,67.13,1,Christian Garcia,Emory Rains,67.13,172.37,95.25,183.7,451.32,Single-ply,SBD,M
Boys,67.13,2,Zach Wilson,Kemp,65.32,163.29,92.99,176.9,433.18,Single-ply,SBD,M
Boys,67.13,3,David Price,Queen City,66.04,158.76,92.99,170.1,421.84,Single-ply,SBD,M
Boys,67.13,4,George Greenway,Sulphur Springs,67.13,170.1,83.91,163.29,417.3,Single-ply,SBD,M
Boys,67.13,5,Lukas Enloe,Gilmer,66.41,156.49,90.72,158.76,405.97,Single-ply,SBD,M
Boys,67.13,6,Gilbert Garcia,Longview Spring Hill,61.42,158.76,95.25,149.69,403.7,Single-ply,SBD,M
Boys,67.13,7,Mason Brady,Queen City,66.77,136.08,77.11,170.1,383.29,Single-ply,SBD,M
Boys,67.13,8,Malik Cannon,Jefferson,65.41,142.88,79.38,151.95,374.21,Single-ply,SBD,M
Boys,67.13,9,Caleb Veler,Bishop Lynch,67.13,131.54,81.65,154.22,367.41,Single-ply,SBD,M
Boys,67.13,10,Josh Archer,Celeste,62.6,147.42,70.31,142.88,360.61,Single-ply,SBD,M
Boys,67.13,11,Tyler Junior,Emory Rains,65.86,120.2,79.38,124.74,324.32,Single-ply,SBD,M
Boys,67.13,12,Deuce Schuler,Linden-Kildare,62.23,111.13,58.97,127.01,297.1,Single-ply,SBD,M
Boys,67.13,13,Johnnie Giron,Emory Rains,63.68,124.74,54.43,117.93,297.1,Single-ply,SBD,M
Boys,67.13,14,Walker Kennedy,Queen City,62.78,108.86,65.77,117.93,292.57,Single-ply,SBD,M
Boys,67.13,15,Johnny Knighton,Emory Rains,67.13,106.59,70.31,106.59,283.5,Single-ply,SBD,M
Boys,67.13,DQ,Eric Fowler,Linden-Kildare,62.87,117.93,,,,Single-ply,SBD,M
Boys,67.13,DQ,Dylan Dillehay,Ladonia Fannindel,66.13,108.86,,,,Single-ply,SBD,M
Boys,67.13,DQ,Hayden Keller,Sulphur Springs,60.42,108.86,74.84,,,Single-ply,SBD,M
Boys,67.13,DQ,Truitt Freeman,Longview Spring Hill,63.87,102.06,,,,Single-ply,SBD,M
Boys,74.84,1,Eric Pheng,Paris North Lamar,73.39,210.92,129.27,204.12,544.31,Single-ply,SBD,M
Boys,74.84,2,Jeremiah Guenther,Paris North Lamar,74.03,192.78,117.93,213.19,523.9,Single-ply,SBD,M
Boys,74.84,3,Carson Bridges,Sulphur Springs,73.84,181.44,106.59,197.31,485.34,Single-ply,SBD,M
Boys,74.84,4,Cameron Wisdom,Gilmer,74.84,174.63,97.52,190.51,462.66,Single-ply,SBD,M
Boys,74.84,5,Michael Broyles,Canton,72.48,170.1,83.91,185.97,439.98,Single-ply,SBD,M
Boys,74.84,6,Carson Barber,Gilmer,70.31,158.76,90.72,188.24,437.72,Single-ply,SBD,M
Boys,74.84,7,Will Leslie,Diana New Diana,72.85,161.03,83.91,181.44,426.38,Single-ply,SBD,M
Boys,74.84,8,Zane Freeman,Diana New Diana,70.85,172.37,90.72,158.76,421.84,Single-ply,SBD,M
Boys,74.84,9,Nate Holloway,Linden-Kildare,68.4,181.44,74.84,158.76,415.04,Single-ply,SBD,M
Boys,74.84,10,Landry Tyson,Sulphur Springs,73.66,149.69,92.99,165.56,408.23,Single-ply,SBD,M
Boys,74.84,11,Colby Smith,Ladonia Fannindel,67.59,136.08,74.84,181.44,392.36,Single-ply,SBD,M
Boys,74.84,12,Jake Mayham,Gilmer,72.3,140.61,90.72,151.95,383.29,Single-ply,SBD,M
Boys,74.84,13,Matthew Davenport,Queen City,74.3,156.49,70.31,149.69,376.48,Single-ply,SBD,M
Boys,74.84,14,Devin Jacks,Emory Rains,74.39,161.03,83.91,129.27,374.21,Single-ply,SBD,M
Boys,74.84,15,Chase McCasland,Overton,70.85,124.74,61.23,124.74,310.71,Single-ply,SBD,M
Boys,74.84,16,Hunter Brannon,Queen City,69.4,120.2,61.23,120.2,301.64,Single-ply,SBD,M
Boys,74.84,17,Braydon Miller,Quitman,71.76,113.4,65.77,122.47,301.64,Single-ply,SBD,M
Boys,74.84,18,Caleb Freeman,Longview Spring Hill,71.85,99.79,54.43,138.35,292.57,Single-ply,SBD,M
Boys,74.84,19,Luke Mock,Bishop Lynch,67.77,83.91,52.16,127.01,263.08,Single-ply,SBD,M
Boys,74.84,DQ,Michael McAllister,Emory Rains,72.85,113.4,,,,Single-ply,SBD,M
Boys,82.1,1,Aron Jahr,Diana New Diana,82.1,233.6,136.08,222.26,591.94,Single-ply,SBD,M
Boys,82.1,2,Cor'tavius Pruitt,Sulphur Springs,76.2,235.87,129.27,192.78,557.92,Single-ply,SBD,M
Boys,82.1,3,Presley Luce,Bishop Lynch,81.19,192.78,117.93,224.53,535.24,Single-ply,SBD,M
Boys,82.1,4,Vincent Morales,Sulphur Springs,78.93,188.24,117.93,217.72,523.9,Single-ply,SBD,M
Boys,82.1,5,Naim Diego,Emory Rains,78.29,192.78,102.06,217.72,512.56,Single-ply,SBD,M
Boys,82.1,6,Isaiah Neal,Sulphur Springs,79.56,204.12,113.4,195.04,512.56,Single-ply,SBD,M
Boys,82.1,7,Dylan Mosley,Emory Rains,81.28,179.17,102.06,192.78,474,Single-ply,SBD,M
Boys,82.1,8,Adam Kirk,Crandall,80.74,176.9,99.79,172.37,449.06,Single-ply,SBD,M
Boys,82.1,9,Kody Nichols,Queen City,80.47,158.76,97.52,181.44,437.72,Single-ply,SBD,M
Boys,82.1,10,Jeremy Lambert,Canton,80.65,165.56,92.99,179.17,437.72,Single-ply,SBD,M
Boys,82.1,11,Harley Manders,Kemp,76.02,165.56,99.79,158.76,424.11,Single-ply,SBD,M
Boys,82.1,12,Colton Davis,Queen City,78.93,149.69,92.99,176.9,419.57,Single-ply,SBD,M
Boys,82.1,13,Oscar Gallegos,Longview Spring Hill,76.75,149.69,81.65,170.1,401.43,Single-ply,SBD,M
Boys,82.1,14,Hudson Rogers,Overton,75.93,136.08,92.99,163.29,392.36,Single-ply,SBD,M
Boys,82.1,15,Kaleb Mills,Sulphur Springs,77.56,142.88,90.72,149.69,383.29,Single-ply,SBD,M
Boys,82.1,16,Malik Williams,Gilmer,81.19,145.15,81.65,142.88,369.68,Single-ply,SBD,M
Boys,82.1,17,Matthew Acton,Canton,81.01,147.42,70.31,124.74,342.46,Single-ply,SBD,M
Boys,82.1,18,Bryce Shaffer,Ladonia Fannindel,75.39,97.52,77.11,151.95,326.59,Single-ply,SBD,M
Boys,82.1,19,Bryan Fritz,Longview Spring Hill,75.57,106.59,77.11,131.54,315.25,Single-ply,SBD,M
Boys,82.1,DQ,Bryce Manning,Emory Rains,82.1,,,,,Single-ply,SBD,M
Boys,89.81,1,Alan Quezada,Kemp,87.63,240.4,154.22,217.72,612.35,Single-ply,SBD,M
Boys,89.81,2,Jaxon Hevron,Paris North Lamar,85.73,233.6,142.88,217.72,594.21,Single-ply,SBD,M
Boys,89.81,3,Xavier Hughey,Crandall,86.09,240.4,131.54,210.92,582.87,Single-ply,SBD,M
Boys,89.81,4,Taylor Little,Kemp,88.09,231.33,115.67,213.19,560.19,Single-ply,SBD,M
Boys,89.81,5,Searn Rodgers,Sulphur Springs,88.36,181.44,115.67,176.9,474,Single-ply,SBD,M
Boys,89.81,6,Jeremiah Bradway,Canton,86.82,172.37,97.52,183.7,453.59,Single-ply,SBD,M
Boys,89.81,7,Copeland Keener,Queen City,86.09,170.1,97.52,158.76,426.38,Single-ply,SBD,M
Boys,89.81,8,Drayden Delese,Linden-Kildare,88.72,158.76,92.99,158.76,410.5,Single-ply,SBD,M
Boys,89.81,9,Dylan Dodson,Gilmer,84.55,156.49,83.91,154.22,394.63,Single-ply,SBD,M
Boys,89.81,10,Ivan Rushing,Sulphur Springs,82.74,154.22,72.57,149.69,376.48,Single-ply,SBD,M
Boys,89.81,11,Nic Kunzee,Linden-Kildare,88.36,117.93,65.77,142.88,326.59,Single-ply,SBD,M
Boys,89.81,DQ,Houston Ivey,Emory Rains,85.28,108.86,,,,Single-ply,SBD,M
Boys,89.81,DQ,Gunner Land,Emory Rains,86.82,,,,,Single-ply,SBD,M
Boys,99.79,1,D'Idrec Dugan,Sulphur Springs,98.52,226.8,131.54,235.87,594.21,Single-ply,SBD,M
Boys,99.79,2,Hunter Moore,Paris North Lamar,95.44,229.06,127.01,204.12,560.19,Single-ply,SBD,M
Boys,99.79,3,Cole Freeman,Diana New Diana,92.35,222.26,115.67,201.85,539.77,Single-ply,SBD,M
Boys,99.79,4,Ignacio Guerrero,Sulphur Springs,99.43,204.12,136.08,190.51,530.7,Single-ply,SBD,M
Boys,99.79,5,Kenneth Randall,Kaufman,91.44,195.04,97.52,192.78,485.34,Single-ply,SBD,M
Boys,99.79,6,Jon Paye,Gilmer,91.26,188.24,108.86,185.97,483.08,Single-ply,SBD,M
Boys,99.79,7,Dq Armstrong,Longview Spring Hill,98.61,181.44,113.4,181.44,476.27,Single-ply,SBD,M
Boys,99.79,8,Gage Dillon,Crandall,99.79,201.85,95.25,172.37,469.47,Single-ply,SBD,M
Boys,99.79,9,Isaiah Martinez,Diana New Diana,93.53,174.63,106.59,176.9,458.13,Single-ply,SBD,M
Boys,99.79,10,Daniel Keene,Queen City,98.79,183.7,102.06,170.1,455.86,Single-ply,SBD,M
Boys,99.79,11,Tanner Boggess,Ladonia Fannindel,98.25,151.95,97.52,204.12,453.59,Single-ply,SBD,M
Boys,99.79,12,Brendon Mooney,Hawkins,96.43,161.03,90.72,165.56,417.3,Single-ply,SBD,M
Boys,99.79,13,Austin Boehm,Overton,94.98,142.88,95.25,172.37,410.5,Single-ply,SBD,M
Boys,99.79,14,Drace Mizell,Quinlan Boles,94.98,158.76,83.91,165.56,408.23,Single-ply,SBD,M
Boys,99.79,15,Calob Davis,Crandall,97.16,149.69,86.18,154.22,390.09,Single-ply,SBD,M
Boys,99.79,16,Hunter Huggins,Quitman,97.43,158.76,74.84,151.95,385.55,Single-ply,SBD,M
Boys,99.79,17,Jeremy Hankins,Linden-Kildare,95.8,151.95,79.38,142.88,374.21,Single-ply,SBD,M
Boys,99.79,18,Max Armada,Emory Rains,97.7,120.2,63.5,102.06,285.76,Single-ply,SBD,M
Boys,99.79,19,Erik Garcia,Ladonia Fannindel,93.17,81.65,56.7,136.08,274.42,Single-ply,SBD,M
Boys,99.79,DQ,Gage Duvall,Celeste,96.8,165.56,,,,Single-ply,SBD,M
Boys,109.77,1,Jose Rodriguez,Gilmer,102.87,260.82,117.93,256.28,635.03,Single-ply,SBD,M
Boys,109.77,2,Matt Brunson,Diana New Diana,109.59,235.87,124.74,219.99,580.6,Single-ply,SBD,M
Boys,109.77,3,Colton Chamberlain,Paris North Lamar,109.04,226.8,131.54,206.38,564.72,Single-ply,SBD,M
Boys,109.77,4,Landon Green,Gilmer,107.41,226.8,106.59,229.06,562.45,Single-ply,SBD,M
Boys,109.77,5,Dylan Savage,Queen City,100.33,199.58,113.4,226.8,539.77,Single-ply,SBD,M
Boys,109.77,6,Alex Hernandez,Bishop Lynch,103.24,206.38,117.93,183.7,508.02,Single-ply,SBD,M
Boys,109.77,7,Keelan Clark,Diana New Diana,105.05,176.9,92.99,195.04,464.93,Single-ply,SBD,M
Boys,109.77,8,Jose Rodriguez,Sulphur Springs,104.24,181.44,113.4,165.56,460.4,Single-ply,SBD,M
Boys,109.77,9,Dustin Wallace,Emory Rains,103.51,176.9,95.25,183.7,455.86,Single-ply,SBD,M
Boys,109.77,10,Bladen Collum,Gilmer,102.15,172.37,88.45,181.44,442.25,Single-ply,SBD,M
Boys,109.77,11,Josh Caruso,Hawkins,100.88,158.76,86.18,181.44,426.38,Single-ply,SBD,M
Boys,109.77,12,Kaleb Zimmer,Quinlan Boles,108.68,163.29,88.45,165.56,417.3,Single-ply,SBD,M
Boys,109.77,13,Cayden Saffel,Canton,103.33,127.01,58.97,142.88,328.85,Single-ply,SBD,M
Boys,109.77,14,Luke Rogers,Linden-Kildare,109.77,111.13,70.31,122.47,303.91,Single-ply,SBD,M
Boys,109.77,DQ,Rocky Cunningham,Jefferson,101.88,154.22,,,,Single-ply,SBD,M
Boys,109.77,DQ,Jamey McAlister,Gilmer,105.41,104.33,,,,Single-ply,SBD,M
Boys,124.74,1,Ian Blanch,Sulphur Springs,114.58,263.08,142.88,235.87,641.83,Single-ply,SBD,M
Boys,124.74,2,Joey Haley,Paris North Lamar,113.13,204.12,124.74,249.48,578.33,Single-ply,SBD,M
Boys,124.74,3,Christian Little,Queen City,113.67,204.12,124.74,242.67,571.53,Single-ply,SBD,M
Boys,124.74,4,Dylan Hicks,Celeste,116.48,231.33,124.74,192.78,548.85,Single-ply,SBD,M
Boys,124.74,5,Blake Olivares,Gilmer,118.66,215.46,113.4,215.46,544.31,Single-ply,SBD,M
Boys,124.74,6,Ashton King,Overton,118.84,199.58,113.4,204.12,517.1,Single-ply,SBD,M
Boys,124.74,7,Elian Perea,Kaufman,123.38,190.51,120.2,195.04,505.76,Single-ply,SBD,M
Boys,124.74,8,Coty Neugin,Crandall,117.21,204.12,111.13,185.97,501.22,Single-ply,SBD,M
Boys,124.74,9,Andrew Nunn,Canton,124.47,195.04,95.25,201.85,492.15,Single-ply,SBD,M
Boys,124.74,10,Dre'Shawn Williams,Linden-Kildare,113.4,179.17,83.91,183.7,446.79,Single-ply,SBD,M
Boys,124.74,11,Adrian Salzman,Bishop Lynch,113.94,170.1,102.06,174.63,446.79,Single-ply,SBD,M
Boys,124.74,12,Anthony Turango,Celeste,122.02,156.49,106.59,170.1,433.18,Single-ply,SBD,M
Boys,124.74,13,Ryan Hammons,Sulphur Springs,120.38,149.69,95.25,145.15,390.09,Single-ply,SBD,M
Boys,124.74,DQ,Jesus Olivio,Sulphur Springs,118.75,226.8,117.93,,,Single-ply,SBD,M
Boys,124.74+,1,Dakota Smith,Canton,134.17,272.16,145.15,208.65,625.96,Single-ply,SBD,M
Boys,124.74+,2,Joseph Lopez,Kemp,158.49,242.67,151.95,226.8,621.42,Single-ply,SBD,M
Boys,124.74+,3,Grant Farley,Quinlan Boles,126.19,249.48,136.08,226.8,612.35,Single-ply,SBD,M
Boys,124.74+,4,Cole Garcia,Bishop Lynch,141.88,235.87,142.88,229.06,607.81,Single-ply,SBD,M
Boys,124.74+,5,Kyle Box,Kemp,132,217.72,147.42,226.8,591.94,Single-ply,SBD,M
Boys,124.74+,6,Richard Gallegos,Longview Spring Hill,131.36,249.48,115.67,192.78,557.92,Single-ply,SBD,M
Boys,124.74+,7,Norris English,Sulphur Springs,150.41,249.48,127.01,176.9,553.38,Single-ply,SBD,M
Boys,124.74+,8,Issac Sims,Quitman,139.98,192.78,115.67,217.72,526.17,Single-ply,SBD,M
Boys,124.74+,9,Colton Chandler,Longview Spring Hill,125.46,204.12,124.74,170.1,498.95,Single-ply,SBD,M
Boys,124.74+,10,Noah Lewelling,Quitman,128.82,183.7,124.74,183.7,492.15,Single-ply,SBD,M
Boys,124.74+,11,Camden Bowles,Gilmer,128.91,188.24,120.2,172.37,480.81,Single-ply,SBD,M
Boys,124.74+,12,Jason Boone,Hawkins,158.94,170.1,102.06,179.17,451.32,Single-ply,SBD,M
Boys,124.74+,13,Demaree Gay,Crandall,138.16,172.37,90.72,167.83,430.91,Single-ply,SBD,M
Boys,124.74+,DQ,Devon King,Gilmer,132.09,226.8,124.74,,,Single-ply,SBD,M
Boys,124.74+,DQ,Christian Sapp,Diana New Diana,128.64,,,,,Single-ply,SBD,M
