Name,Sex,Equipment,Division,BodyweightKg,WeightClassKg,Age,Squat1Kg,Squat2Kg,Squat3Kg,Best3SquatKg,Bench1Kg,Bench2Kg,Bench3Kg,Best3BenchKg,Deadlift1Kg,Deadlift2Kg,Deadlift3Kg,Best3DeadliftKg,TotalKg,Place,Event,BirthDate
Worathida Theopanich,F,Raw,Juniors,45,47,22,-75,80,85,85,40,45,50,50,105,115,120,120,255,1,SBD,1997-01-15
Nutthaporn Fueangsukon,F,Raw,Juniors,46.9,47,21,80,85,-87.5,85,35,37.5,40,40,-92.5,92.5,95,95,220,2,SBD,1997-03-04
Jiravan Sakamanee,F,Raw,Juniors,48.1,52,18,82.5,87.5,92.5,92.5,35,-40,-40,35,100,107.5,115,115,242.5,1,SBD,2000-03-14
Patcha Nitiahpapand,F,Raw,Juniors,50,52,21,77.5,82.5,85,85,35,37.5,-40,37.5,107.5,112.5,-117.5,112.5,235,2,SBD,1997-02-20
Aleen Tan,F,Raw,Juniors,56.3,57,22,95,102.5,-105,102.5,65,70,-72.5,70,132.5,142.5,-147.5,142.5,315,1,SBD,1996-10-04
Flo Napasab,F,Raw,Juniors,59.3,63,22,100,-107.5,-110,100,60,65,-67.5,65,117.5,125,-135,125,290,1,SBD,1996-11-02
Pornchita Wongkhasum,F,Raw,Juniors,60.2,63,21,90,95,100,100,-40,42.5,47.5,47.5,110,-120,-120,110,257.5,2,SBD,1997-07-18
Kay Amattayakul,F,Raw,Masters 1,57.5,63,46,85,-97.5,97.5,97.5,32.5,37.5,-42.5,37.5,95,105,115,115,250,1,SBD,1972-02-24
Sara Soto Guzman,F,Raw,Masters 2,60,63,52,70,-80,80,80,40,45,50,50,110,120,130,130,260,1,SBD,1966-10-09
Luksamon Srirasan,F,Raw,Open,44.5,47,29,55,60,-65,60,30,32.5,-35,32.5,60,65,72.5,72.5,165,1,SBD,1990-01-20
Filipa Vicente,F,Raw,Open,50.1,52,35,92.5,97.5,102.5,102.5,-60,60,65,65,105,115,125,125,292.5,1,SBD,1983-12-14
Nopparat Rerkpisut,F,Raw,Open,49,52,34,-82.5,87.5,-95,87.5,35,-37.5,-37.5,35,122.5,130,140,140,262.5,2,SBD,1984-09-01
Perada Dulyapiradis,F,Raw,Open,51,52,26,52.5,60,67.5,67.5,-25,25,27.5,27.5,65,70,80,80,175,3,SBD,1992-09-16
Nurki Gurung,F,Raw,Open,55.6,57,28,97.5,105,-112.5,105,47.5,-52.5,-52.5,47.5,102.5,-107.5,-107.5,102.5,255,1,SBD,1990-10-26
Jenai Faulk,F,Raw,Open,62.9,63,37,80,90,92.5,92.5,45,50,52.5,52.5,100,110,115,115,260,1,SBD,1981-03-05
Emma Thomas,F,Raw,Open,58,63,30,57.5,60,65,65,37.5,40,-45,40,85,87.5,90,90,195,2,SBD,1988-08-31
Patsakrit Nualnim,F,Raw,Open,71.8,72,35,135,-145,145,145,-55,55,60,60,165,-175,-175,165,370,1,SBD,1983-04-07
Monica Zeppetello,F,Raw,Open,90.6,84+,33,135,140,145,145,72.5,77.5,-80,77.5,152.5,157.5,165,165,387.5,1,SBD,1985-04-07
Wongsatorn Angchaibunsrisuk,M,Raw,Juniors,72.65,74,22,175,185,-195,185,122.5,132.5,-141,132.5,200,210,215,215,532.5,1,SBD,1996-07-12
Neno Ittikraichareon,M,Raw,Juniors,71.55,74,18,95,110,130,130,70,80,-95,80,145,165,-180,165,375,2,SBD,2000-03-27
Phuripat Yimserhthi,M,Raw,Juniors,78.05,83,18,210,220,230,230,107.5,112.5,-117.5,112.5,200,215,220,220,562.5,1,SBD,2000-07-19
Loe Baoo Jia,M,Raw,Juniors,87,93,22,-197.5,197.5,210,210,120,127.5,132.5,132.5,247.5,262.5,-280,262.5,605,1,SBD,1996-12-21
Jin Hyuk Choi,M,Raw,Juniors,124.4,120+,22,-185,200,210,210,100,110,-115,110,180,190,200,200,520,1,SBD,1996-07-28
Andre Sonnekus,M,Raw,Masters 3,98.85,105,59,155,165,175,175,85,92.5,95,95,165,175,185,185,455,1,SBD,1959-07-16
Roman Fomichev,M,Raw,Open,59,59,33,155,170,-180,170,115,-125,125,125,200,-210,,200,495,1,SBD,1985-05-02
Ang Wei Cong,M,Raw,Open,65.85,66,25,172.5,182.5,190,190,112.5,117.5,-120,117.5,190,-205,-205,190,497.5,1,SBD,1993-09-27
Warot Saengsawangwattana,M,Raw,Open,73.45,74,27,155,167.5,-172.5,167.5,100,-107.5,107.5,107.5,180,195,202.5,202.5,477.5,1,SBD,1991-09-02
Noravidhya Tanapura,M,Raw,Open,66.95,74,32,140,150,155,155,72.5,80,-85,80,172.5,180,185,185,420,2,SBD,1987-01-21
Thanakom Buranapim,M,Raw,Open,72.9,74,23,110,-120,-120,110,70,72.5,-75,72.5,125,130,140,140,322.5,3,SBD,1995-08-18
Clinton Lee #1,M,Raw,Open,76.45,83,25,235,250,260,260,157.5,165,172.5,172.5,270,-282.5,-282.5,270,702.5,1,SBD,1993-03-08
Putchong Dispanurat,M,Raw,Open,81.4,83,31,195,210,-220,210,130,142.5,145,145,235,250,260,260,615,2,SBD,1988-01-15
Tom Imanishi,M,Raw,Open,81.7,83,28,152.5,165,172.5,172.5,130,137.5,142.5,142.5,195,212.5,227.5,227.5,542.5,3,SBD,1990-07-30
Peter Lucey,M,Raw,Open,81.15,83,31,130,140,150,150,127.5,132.5,-135,132.5,200,212.5,225,225,507.5,4,SBD,1987-03-14
Mehdi Hadim,M,Raw,Open,75.4,83,38,167.5,177.5,182.5,182.5,-97.5,102.5,-107.5,102.5,200,210,220,220,505,5,SBD,1981-01-16
Jonus Ong,M,Raw,Open,80.45,83,27,140,152.5,160,160,120,127.5,132.5,132.5,185,197.5,210,210,502.5,6,SBD,1991-12-05
Pawin Sundarathiti,M,Raw,Open,75.45,83,27,150,160,-165,160,105,115,-122.5,115,205,215,225,225,500,7,SBD,1991-08-14
Patiparn Thipvaroros,M,Raw,Open,76.2,83,25,145,-155,-162.5,145,110,117.5,-125,117.5,180,190,200,200,462.5,8,SBD,1993-10-13
Gustavo John D del Castillo,M,Raw,Open,91.7,93,32,190,200,205,205,137.5,142.5,147.5,147.5,260,267.5,270,270,622.5,1,SBD,1986-11-30
Brent Calderon,M,Raw,Open,88.5,93,29,210,-215,-215,210,145,155,-160,155,245,255,-260,255,620,2,SBD,1989-05-26
Chester Jeeraphong,M,Raw,Open,90.6,93,32,187.5,-195,200,200,125,132.5,-135,132.5,220,235,-240,235,567.5,3,SBD,1986-10-25
Conner Joyce,M,Raw,Open,92.7,93,31,175,180,182.5,182.5,137.5,-142.5,-142.5,137.5,205,210,-217.5,210,530,4,SBD,1987-02-21
Jason Deknatel,M,Raw,Open,85.65,93,23,162.5,172.5,-180,172.5,120,130,135,135,190,200,-210,200,507.5,5,SBD,1995-05-16
Alexander Nathasid Widler,M,Raw,Open,84.3,93,24,162.5,170,-175,170,117.5,-125,-125,117.5,200,210,215,215,502.5,6,SBD,1994-12-16
Nonpawit Nakthae,M,Raw,Open,90.65,93,26,-145,150,160,160,-100,100,110,110,190,-205,-205,190,460,7,SBD,1992-04-14
Nate Giuffre,M,Raw,Open,102.25,105,30,210,220,225,225,145,152.5,-155,152.5,205,217.5,225,225,602.5,1,SBD,1988-12-05
Michael Lee,M,Raw,Open,102.3,105,38,-225,-225,,,-165,,,,-225,,,,,DQ,SBD,1980-05-29
James Hanham,M,Raw,Open,119.65,120,28,260,270,272.5,272.5,150,160,165,165,220,230,-235,230,667.5,1,SBD,1990-03-06
Simon Timpson,M,Raw,Open,118.8,120,44,200,225,-245,225,150,165,,165,240,260,-270,260,650,2,SBD,1974-05-10
Aleksei Rudenko,M,Raw,Open,122.35,120+,46,270,280,290,290,170,185,-195,185,-290,290,320,320,795,1,SBD,1972-07-07
Aziah Manolas,M,Raw,Sub-Juniors,50.8,53,12,47.5,52.5,57.5,57.5,32.5,37.5,40,40,70,75,80,80,177.5,1,SBD,2006-03-13
Worakamol Napaworakul,M,Raw,Sub-Juniors,65.05,66,17,-90,100,-110,100,60,-70,-70,60,140,150,170,170,330,1,SBD,2001-07-30
Supawish Jantawong,M,Raw,Sub-Juniors,60.05,66,15,65,70,75,75,35,40,-47.5,40,80,85,90,90,205,2,SBD,2003-09-16
