Place,Name,WeightClassKg,Sex,Division,BirthYear,BodyweightKg,Squat1Kg,Squat2Kg,Squat3Kg,Best3SquatKg,Bench1Kg,Bench2Kg,Bench3Kg,Best3BenchKg,Deadlift1Kg,Deadlift2Kg,Deadlift3Kg,Best3DeadliftKg,TotalKg,Equipment,Event,State
1,Beate Normann-Escher,57,F,Masters 2,1960,55.85,40,50,55,55,40,,,40,70,80,90,90,185,Raw,SBD,BB
3,Celine Alperstedt,72,F,Sub-Juniors,2000,64.95,60,67.5,-70,67.5,30,32.5,-37.5,32.5,70,82.5,92.5,92.5,192.5,Raw,SBD,BB
2,Melanie Hausdörfer,72,F,Juniors,1995,66.97,55,62.5,72.5,72.5,32.5,37.5,-42.5,37.5,70,80,90,90,200,Raw,SBD,BB
3,Patrizia Giuliani,72,F,Juniors,1993,67,62.5,70,-75,70,42.5,47.5,-50,47.5,72.5,82.5,-87.5,82.5,200,Raw,SBD,BB
1,Jessica Markus,84,F,Sub-Juniors,2000,79.5,50,57.5,65,65,35,40,-42.5,40,85,97.5,-105.5,97.5,202.5,Raw,SBD,BB
3,Madita Koch,84,F,Open,1987,79,65,72.5,-77.5,72.5,45,-50,-50,45,85,97.5,-107.5,97.5,215,Raw,SBD,BB
1,Ali Alkan,66,M,Masters 3,1950,65.65,35,40,45,45,62.5,67.5,70,70,80,90,100,100,215,Raw,SBD,BB
1,Celine Hein,57,F,Sub-Juniors,2000,55.75,70,77.5,80,80,42.5,45,-47.5,45,100,110,-115,110,235,Raw,SBD,BB
2,Joe-Ann Kammer,72,F,Sub-Juniors,2000,64.15,70,80,90,90,45,-50,-50,45,80,90,100,100,235,Raw,SBD,BB
1,Sabine Bommersbach,63,F,Masters 2,1964,57.35,65,72.5,80,80,42.5,45,47.5,47.5,100,110,115,115,242.5,Raw,SBD,BB
G,Lisa Wiegand,72,F,Juniors,1992,68.5,70,77.5,85,85,45,-50,-50,45,95,105,115,115,245,Raw,SBD,BB
1,Viet Ha Pham,63,F,Juniors,1994,60.85,90,-100,-100,90,47.5,52.5,-57.5,52.5,115,-127.5,-127.5,115,257.5,Raw,SBD,BB
1,Hanna Sophie Reuter,72,F,Sub-Juniors,1998,70.7,85,95,105,105,45,52.5,-57.5,52.5,90,100,107.5,107.5,265,Raw,SBD,BB
1,Jonathan Bertuch,59,M,Juniors,1995,58.35,90,97.5,,97.5,82.5,87.5,90,90,100,,,100,287.5,Raw,SBD,BB
1,Anne-Jasmin Scholz,72,F,Juniors,1996,65,75,85,92.5,92.5,50,55,-60,55,125,135,143,143,290.5,Raw,SBD,BB
1,Cindy Habermann,84,F,Juniors,1996,82.5,92.5,100,105,105,52.5,57.5,-60,57.5,130,-142.5,-142.5,130,292.5,Raw,SBD,BB
1,Klaus Feldmann,105,M,Masters 4,1936,96.1,-80,-80,80,80,85,90,95,95,130,135,-145,135,310,Raw,SBD,BB
1,Ludwig Werner,59,M,Masters 4,1938,59,-90,90,100,100,70,72.5,-75,72.5,130,140,-150,140,312.5,Raw,SBD,BB
1,Sonja Stefanie Krüger,72,F,Sub-Juniors,1999,63.45,112.5,117.5,-123,117.5,60,70.5,-75.5,70.5,117.5,132.5,-145,132.5,320.5,Raw,SBD,BB
2,Hjördis Dietrich,72,F,Open,1989,65.5,100,110,120,120,60,65,70,70,135,-145,-147.5,135,325,Raw,SBD,BB
1,Anja Wanninger,84+,F,Open,1986,86.45,95,102.5,107.5,107.5,65,70,-72.5,70,-122.5,122.5,147.5,147.5,325,Raw,SBD,BB
2,Bianca Rottschy,84+,F,Open,1982,89.85,115,122.5,125,125,55,62.5,-65,62.5,125,137.5,-145,137.5,325,Raw,SBD,BB
1,Katja Broxtermann,72,F,Open,1986,70.05,105,112.5,120,120,65,70,72.5,72.5,125,135,-147.5,135,327.5,Raw,SBD,BB
2,Jannes Wendlandt,66,M,Sub-Juniors,2001,61.75,100,110,120,120,70,75,80,80,122.5,130,135,135,335,Raw,SBD,BB
1,Michele Anaid Cevallos Valverde,57,F,Open,1988,56.8,110,117.5,125,125,70,75,77.5,77.5,120,130,137.5,137.5,340,Raw,SBD,BB
1,Pascal Geweniger,66,M,Sub-Juniors,1999,63.4,95,105,107.5,107.5,80,85,,85,135,140,147.5,147.5,340,Raw,SBD,BB
2,Veronika Kondraschow,84,F,Open,1989,78.95,110,125,-132.5,125,65,70,75,75,125,135,150,150,350,Raw,SBD,BB
1,Susanne Küttler,72,F,Masters 1,1966,70.4,130,137.5,-140,137.5,62.5,65,67.5,67.5,140,146,150,150,355,Raw,SBD,BB
1,Adrian Montag,74,M,Sub-Juniors,1999,73.85,90,100,-112.5,100,90,100,105,105,130,140,150,150,355,Raw,SBD,BB
2,Egon Escher,74,M,Masters 3,1954,73.25,90,100,110,110,100,105,,105,130,140,,140,355,Raw,SBD,BB
1,Sebastian Czekanski,59,M,Open,1986,57.85,117.5,-120,120,120,87.5,95,-100,95,135,145,-157.5,145,360,Raw,SBD,BB
4,Krüger Detlef,93,M,Masters 3,1953,83.15,115,-122.5,-122.5,115,95,102.5,-105,102.5,135,145,-150,145,362.5,Raw,SBD,BB
1,Wilfried Häusler,74,M,Masters 4,1942,73.05,120,130,-140,130,80,90,95,95,100,120,140,140,365,Raw,SBD,BB
2,Florian Noerenberg,74,M,Sub-Juniors,1998,73.45,115,125,135,135,85,-90,92.5,92.5,130,150,162.5,162.5,390,Raw,SBD,BB
1,Andreas Anipkin,83,M,Sub-Juniors,1999,82.7,112.5,-122.5,122.5,122.5,100,-107.5,-107.5,100,155,170,-175,170,392.5,Raw,SBD,BB
1,Sylvia Szarvas,84,F,Open,1984,82.4,125,135,-145,135,100,105,-110,105,130,145,160,160,400,Raw,SBD,BB
1,Michael Wimmer,66,M,Masters 2,1961,64.05,110,120,130,130,85,90,95,95,140,160,175,175,400,Raw,SBD,BB
3,Josef Weiß,93,M,Masters 3,1954,87.6,110,125,135,135,70,75,82.5,82.5,170,182.5,-190,182.5,400,Raw,SBD,BB
1,Daniel Kotzot,66,M,Sub-Juniors,1998,62,122.5,130,140,140,80,87.5,92.5,92.5,160,170,-180,170,402.5,Raw,SBD,BB
1,Tamara Thomsen,63,F,Open,1982,62.7,150,155.5,-160.5,155.5,80,82.5,-85,82.5,162.5,172.5,-180.5,172.5,410.5,Raw,SBD,BB
2,Karl-Heinz May,120+,M,Masters 3,1953,124.5,80,,,80,155,,,155,180,,,180,415,Raw,SBD,BB
6,Frank Wojahn,105,M,Masters 1,1964,103.95,130,140,147.5,147.5,115,120,-125,120,150,-160,-160,150,417.5,Raw,SBD,BB
6,Markus Wessel,83,M,Sub-Juniors,1997,82.4,130,140,152.5,152.5,90,100,-107.5,100,150,170,-190,170,422.5,Raw,SBD,BB
1,Alexander Voigt,93,M,Sub-Juniors,1999,91.3,110,120,127.5,127.5,110,120,-125,120,160,170,175,175,422.5,Raw,SBD,BB
1,Eric Helbig,74,M,Sub-Juniors,1997,69.85,125,132.5,140,140,92.5,97.5,100,100,165,175,185,185,425,Raw,SBD,BB
12,Nikolaos Rizidis,83,M,Juniors,1992,81.4,130,137.5,142.5,142.5,95,102.5,-107.5,102.5,160,172.5,180,180,425,Raw,SBD,BB
3,Jürgen Stütz,83,M,Masters 2,1959,82.25,130,142.5,150,150,115,-125,125,125,140,150,-165,150,425,Raw,SBD,BB
1,Lion Jens Lowag,105,M,Sub-Juniors,1998,93.8,130,145,150,150,85,95,-100,95,165,175,185,185,430,Raw,SBD,BB
3,Thomas Lange,120,M,Masters 1,1967,105.8,130,142.5,150,150,115,120,125,125,130,145,155,155,430,Raw,SBD,BB
5,Ergjan Pushkolli,83,M,Sub-Juniors,1998,79.45,125,135,-150,135,100,107.5,-110,107.5,170,190,-205,190,432.5,Raw,SBD,BB
3,Huu Phuoc Le,66,M,Juniors,1993,63.9,135,145,155,155,95,102.5,-107.5,102.5,165,175,-182.5,175,432.5,Raw,SBD,BB
2,Benjamin Mauske,120,M,Sub-Juniors,1998,107.15,-130,130,150,150,85,90,95,95,150,180,190,190,435,Raw,SBD,BB
5,Alexander Bondarenko,105,M,Masters 1,1958,93.55,135,140,145,145,125,130,-132.5,130,150,-160,160,160,435,Raw,SBD,BB
11,Benedikt Kramer,83,M,Juniors,1994,78.9,120,130,140,140,95,102.5,107.5,107.5,160,180,190,190,437.5,Raw,SBD,BB
2,Max Lüder,66,M,Juniors,1993,64.7,115,125,135,135,105,110,115,115,165,175,187.5,187.5,437.5,Raw,SBD,BB
4,Silas Geiß,83,M,Sub-Juniors,1997,76.85,150,160,-167.5,160,90,92.5,95,95,170,180,192.5,192.5,447.5,Raw,SBD,BB
10,Simon Hornauer,83,M,Juniors,1996,82.3,-150,150,,150,92.5,97.5,102.5,102.5,175,185,195,195,447.5,Raw,SBD,BB
2,Ulrich Guttenberger,83,M,Masters 2,1962,81.35,-140,140,150,150,105,110,-112.5,110,-170,180,190,190,450,Raw,SBD,BB
4,Stefan Kapplinghaus,105,M,Masters 1,1956,100,130,140,-145,140,115,120,122.5,122.5,180,190,-195,190,452.5,Raw,SBD,BB
1,Tristan Wendlandt,66,M,Juniors,1996,64.65,-155,155,165,165,105,110,-112.5,110,170,180,187.5,187.5,462.5,Raw,SBD,BB
3,Domenik Mierzwa,120,M,Juniors,1993,105.55,120,140,160,160,100,110,-120,110,180,190,200,200,470,Raw,SBD,BB
3,Friedhelm Mandel,105,M,Masters 1,1961,99.6,160,-172.5,-172.5,160,120,127.5,-130,127.5,165,175,182.5,182.5,470,Raw,SBD,BB
7,Simon Stickl,74,M,Open,1987,70.4,142.5,150,152.5,152.5,105,115,120,120,190,200,-205,200,472.5,Raw,SBD,BB
1,Horst Echtner,74,M,Masters 3,1952,72.95,150,160,165,165,100,105,107.5,107.5,190,200,205,205,477.5,Raw,SBD,BB
9,Pascal Jöris,83,M,Juniors,1993,80.65,155,167.5,-172.5,167.5,100,-105,-105,100,190,205,215,215,482.5,Raw,SBD,BB
3,Wolf-Peter Springstein,83,M,Masters 3,1951,82.3,130,140,155,155,125,130,137.5,137.5,170,180,190,190,482.5,Raw,SBD,BB
5,Max Hampel,74,M,Juniors,1993,67.95,170,177.5,,177.5,105,110,117.5,117.5,180,192.5,,192.5,487.5,Raw,SBD,BB
9,Daniel Reichel,105,M,Open,1978,104.75,160,-180,180,180,110,115,-120,115,160,180,195,195,490,Raw,SBD,BB
8,Erik Ristov,83,M,Juniors,1995,79.1,155,165,175,175,100,105,-110,105,200,210,-220,210,490,Raw,SBD,BB
8,Sascha Flake,83,M,Open,1984,81.95,137.5,150,160,160,107.5,115,120,120,195,210,-220,210,490,Raw,SBD,BB
6,Clemens Lück,74,M,Open,1991,68.05,150,-165,165,165,110,120,125,125,180,200,-205,200,490,Raw,SBD,BB
3,Eugen Schwabauer,83,M,Masters 1,1974,81.5,160,-175,-175,160,140,150,-152.5,150,170,180,-185,180,490,Raw,SBD,BB
9,Tobias Beuche,105,M,Juniors,1993,97.95,160,-180,180,180,105,115,-120,115,175,187.5,200,200,495,Raw,SBD,BB
7,Luca Kloeters,83,M,Juniors,1992,82.3,160,-170,-170,160,110,120,125,125,200,210,-215,210,495,Raw,SBD,BB
5,Peter Herteux,105,M,Masters 1,1968,103.35,160,170,180,180,120,-130,-130,120,180,190,200,200,500,Raw,SBD,BB
2,Thomas Markewitz,83,M,Masters 1,1973,80.35,170,180,187.5,187.5,110,115,-120,115,180,190,200,200,502.5,Raw,SBD,BB
3,Christopher Diete,83,M,Sub-Juniors,1997,82.95,160,170,-180,170,120,125,-130,125,205,212.5,-215,212.5,507.5,Raw,SBD,BB
4,Andy Urbrock,74,M,Juniors,1996,72.65,170,182.5,190,190,105,-112.5,112.5,112.5,195,-205,205,205,507.5,Raw,SBD,BB
5,Myrco Griesch,74,M,Open,1980,69.6,160,170,-177.5,170,120,127.5,-130,127.5,200,210,-215,210,507.5,Raw,SBD,BB
2,Hans-Joachim Hook,83,M,Masters 3,1954,81.2,152.5,160,165,165,120,125,-130,125,202.5,212.5,217.5,217.5,507.5,Raw,SBD,BB
1,Klaus Griesch,74,M,Masters 2,1959,73.8,160,180,192.5,192.5,120,130,137.5,137.5,150,180,-190,180,510,Raw,SBD,BB
2,Gustav Waidmann,93,M,Masters 3,1953,91,-190,-190,190,190,110,120,-125,120,180,200,,200,510,Raw,SBD,BB
2,Martin Verhoff,105,M,Masters 1,1963,99.75,155,170,177.5,177.5,120,125,-130,125,180,200,210,210,512.5,Raw,SBD,BB
6,Florian Ghanizada,83,M,Juniors,1992,82.5,150,160,172.5,172.5,130,140,142.5,142.5,180,195,200,200,515,Raw,SBD,BB
6,Pascal Esterl,83,M,Open,1991,79.05,170,180,190,190,115,125,-132.5,125,180,190,200,200,515,Raw,SBD,BB
7,Dirk Lyzwa,83,M,Open,1991,82.75,-180,190,-202.5,190,125,-130,-130,125,200,-212.5,,200,515,Raw,SBD,BB
10,Max Leichner,120,M,Open,1987,105.25,160,170,182.5,182.5,120,130,135,135,185,200,-215,200,517.5,Raw,SBD,BB
2,Michel Ehrlicher,74,M,Open,1985,72.4,160,172.5,185,185,90,100,105,105,195,215,230,230,520,Raw,SBD,BB
3,Sebastian Kienast,74,M,Open,1981,73.6,182.5,192.5,-200,192.5,107.5,112.5,-115,112.5,200,212.5,215,215,520,Raw,SBD,BB
4,Raik Günterberg,74,M,Open,1989,74,145,155,162.5,162.5,145,155,-162.5,155,190,202.5,-210,202.5,520,Raw,SBD,BB
9,Daniel Schneider,120,M,Open,1988,114,-140,140,160,160,125,132.5,-137.5,132.5,210,220,230,230,522.5,Raw,SBD,BB
1,Moritz Johnen,93,M,Sub-Juniors,1997,89.95,167.5,180,192.5,192.5,-130,-135,135,135,177.5,190,195,195,522.5,Raw,SBD,BB
2,Ivan Machlay,83,M,Sub-Juniors,1997,81.5,170,-190,190,190,110,120,-130,120,200,215,-220,215,525,Raw,SBD,BB
1,Juri Makuschkin,83,M,Masters 2,1963,82,160,170,180,180,120,130,135,135,200,210,-215,210,525,Raw,SBD,BB
1,Dieter Hundertmark,83,M,Masters 3,1954,82.3,175,185,-195,185,127.5,132.5,135,135,190,205,-210,205,525,Raw,SBD,BB
8,Björn Grochotzki,93,M,Open,1988,89,175,187.5,195,195,125,135,,135,200,-220,-230,200,530,Raw,SBD,BB
5,Marcel Schaar,93,M,Juniors,1995,87.25,185,195,-205,195,115,120,125,125,190,202.5,210,210,530,Raw,SBD,BB
2,Thomas Berger,120+,M,Masters 2,1964,120.15,165,180,-190,180,142.5,-147.5,147.5,147.5,185,202.5,-210,202.5,530,Raw,SBD,BB
7,Toni Scharf,93,M,Open,1987,88.5,145,157.5,165,165,140,147.5,-152.5,147.5,190,-210,220,220,532.5,Raw,SBD,BB
5,Christopher Görns,83,M,Open,1988,81.35,160,170,-180,170,127.5,140,147.5,147.5,195,207.5,215,215,532.5,Raw,SBD,BB
4,Thomas Krziwda,105,M,Masters 1,1973,98.9,170,180,190,190,115,120,125,125,200,210,220,220,535,Raw,SBD,BB
3,Marius Milla,74,M,Juniors,1993,73.6,162.5,170,180,180,115,120,-122.5,120,222.5,-240,240,240,540,Raw,SBD,BB
2,Hendrik Pflug,120,M,Masters 1,1971,110.6,160,180,-195,180,120,-127.5,-127.5,120,220,235,242.5,242.5,542.5,Raw,SBD,BB
1,Uwe Dörfert,120+,M,Masters 2,1959,120.05,165,185,195,195,130,140,145,145,170,195,205,205,545,Raw,SBD,BB
1,Lutz Schuricht,93,M,Masters 3,1951,91.3,200,205,208,208,130,137.5,-140,137.5,200,-207.5,-207.5,200,545.5,Raw,SBD,BB
8,Robert Raeck,120,M,Open,1987,113.35,165,-175,180,180,120,130,135,135,205,225,235,235,550,Raw,SBD,BB
8,Eduard Kehr,105,M,Open,1991,104.1,170,180,190,190,107.5,115,-117.5,115,225,240,245,245,550,Raw,SBD,BB
8,Eric Stockdreher,105,M,Juniors,1996,104.6,195,205,-210,205,125,132.5,140,140,190,200,205,205,550,Raw,SBD,BB
1,Florian Dorfner,74,M,Open,1978,71.65,187.5,197.5,202.5,202.5,120,127.5,132.5,132.5,205,215,-220,215,550,Raw,SBD,BB
1,Sebastian Preine,74,M,Juniors,1995,71.95,190,200,-210.5,200,110,115,-120,115,222.5,-237.5,237.5,237.5,552.5,Raw,SBD,BB
2,Angelos Hoikas,74,M,Juniors,1992,73.4,180,195,-202.5,195,140,152.5,-157.5,152.5,190,205,-210,205,552.5,Raw,SBD,BB
4,Matthias Stach,83,M,Open,1979,82.95,170,182.5,187.5,187.5,112.5,120,125,125,215,230,240,240,552.5,Raw,SBD,BB
7,Marko Hirt,105,M,Open,1980,94.75,160,175,187.5,187.5,140,150,-155,150,200,220,-235,220,557.5,Raw,SBD,BB
7,Philipp Karbstein,105,M,Juniors,1996,93.9,-180,180,-200,180,125,-132.5,-132.5,125,240,252.5,-263,252.5,557.5,Raw,SBD,BB
3,Andreas Schmid,83,M,Open,1991,82,180,-190,190,190,125,132.5,137.5,137.5,220,230,-240,230,557.5,Raw,SBD,BB
1,Harald Paul,120+,M,Masters 3,1954,120.45,172.5,187.5,-200,187.5,152.5,157.5,-161.5,157.5,185,200,212.5,212.5,557.5,Raw,SBD,BB
6,Julian Bäckmann,105,M,Juniors,1992,95.6,190,200,-210,200,110,120,-125,120,220,230,240,240,560,Raw,SBD,BB
2,Mateusz Volk,120,M,Juniors,1992,116.95,-120,140,160,160,105,120,125,125,255,275,-282.5,275,560,Raw,SBD,BB
1,Andreas Pöhls,83,M,Open,1968,76.8,165,175,185,185,142.5,150,155.5,155.5,215,225,-232.5,225,565.5,Raw,SBD,BB
5,Ken Gildner,93,M,Open,1984,88.8,165,180,185,185,125,132.5,-137.5,132.5,225,240,250,250,567.5,Raw,SBD,BB
6,Aaron Weiß,93,M,Open,1991,92.35,185,200,207.5,207.5,130,137.5,-140,137.5,205,222.5,-235,222.5,567.5,Raw,SBD,BB
5,Daniel Wettlaufer,105,M,Juniors,1995,104.15,170,182.5,197.5,197.5,135,145,-152.5,145,200,217.5,230,230,572.5,Raw,SBD,BB
6,Matthias Scholz,120+,M,Open,1983,131,185,195,202.5,202.5,135,-142.5,147.5,147.5,-205,205,225,225,575,Raw,SBD,BB
3,Thomas Ziegler,105,M,Masters 1,1967,100.8,190,200,-205,200,150,157.5,160,160,215,-225,-225,215,575,Raw,SBD,BB
5,Sebastian Gronschel,83,M,Juniors,1992,83,190,-200,-200,190,140,150,-160,150,222.5,240,-250,240,580,Raw,SBD,BB
2,Sascha Stern,83,M,Open,1979,82.05,185,195,205,205,135,142.5,-150,142.5,-220,220,240,240,587.5,Raw,SBD,BB
4,Markus Stolorz,105,M,Juniors,1992,100.9,190,202.5,-210,202.5,140,145,147.5,147.5,225,240,-250,240,590,Raw,SBD,BB
1,Viktor Beilmann,83,M,Sub-Juniors,1997,77.4,190,205.5,211,211,125,-135.5,-135.5,125,225,245,255,255,591,Raw,SBD,BB
6,Kevin Blivier,105,M,Open,1991,103.5,200,210,217.5,217.5,125,-130,-130,125,242.5,252.5,-260,252.5,595,Raw,SBD,BB
3,Jan Kobek,105,M,Juniors,1995,94.2,195,205,-215,205,125,130,135,135,240,260,-270,260,600,Raw,SBD,BB
4,Christian Horn,83,M,Juniors,1993,80.75,195,205,212.5,212.5,110,120,125,125,240,252.5,262.5,262.5,600,Raw,SBD,BB
3,Stefan Pagelsen,83,M,Juniors,1992,78.6,185,195,200,200,140,150,152.5,152.5,230,240,250,250,602.5,Raw,SBD,BB
1,Martin Lux,83,M,Open,1989,82.65,190,202.5,205,205,145,152.5,-157.5,152.5,230,245,-252.5,245,602.5,Raw,SBD,BB
2,Hans-Peter Falk,120,M,Masters 3,1951,115.25,200,215.5,217.5,217.5,160,170,175,175,200,210,-215,210,602.5,Raw,SBD,BB
2,Simon Wiese,105,M,Juniors,1992,94.55,195,205,207.5,207.5,150,157.5,162.5,162.5,225,235,-242.5,235,605,Raw,SBD,BB
2,David Stuckatz,93,M,Masters 1,1975,89.95,190,202.5,220,220,135,142.5,150,150,190,205,235,235,605,Raw,SBD,BB
1,Reiner Katzula,120,M,Masters 3,1953,111.2,200,210,217.5,217.5,155,160,162.5,162.5,210,220,227.5,227.5,607.5,Raw,SBD,BB
7,Christoph Seefeld,120,M,Open,1980,112.7,-220,220,-240,220,-150,150,-160,150,205,225,240,240,610,Raw,SBD,BB
4,Christian Flueras,93,M,Juniors,1996,86.8,190,200,-210,200,145,150,,150,220,240,265,265,615,Raw,SBD,BB
1,Andreas Schulz,93,M,Masters 1,1974,90.5,210,230,-250.5,230,140,150,155,155,210,220,230,230,615,Raw,SBD,BB
1,Hannes Lange,120,M,Sub-Juniors,1997,119.55,200,210,220,220,145,152.5,160,160,230,240,,240,620,Raw,SBD,BB
5,Florian Bittorf,120+,M,Open,1985,135.8,-240,240,-252.5,240,125,130,135,135,235,250,-272.5,250,625,Raw,SBD,BB
2,Michael Pyritz,105,M,Masters 1,1971,96,230,-242.5,,230,125,132.5,140,140,240,260.5,-272.5,260.5,630.5,Raw,SBD,BB
3,Oliver Bulla,93,M,Open,1990,92.75,190,202.5,-212.5,202.5,170,-175,-175,170,240,250,260,260,632.5,Raw,SBD,BB
3,Andreas Hass,93,M,Open,1987,90.55,-225,225,230,230,160,165,-170,165,220,232.5,240,240,635,Raw,SBD,BB
6,Marcus Hergenhan,120,M,Open,1984,116.4,200,210,,210,-180,180,-190,180,240,250,-255,250,640,Raw,SBD,BB
5,Mathias Werner,105,M,Open,1984,105,200,210,,210,145,150,155,155,250,267.5,275,275,640,Raw,SBD,BB
2,Jürgen Titz,120,M,Masters 2,1965,118.3,230,245,-255,245,140,152.5,-165,152.5,210,230,245,245,642.5,Raw,SBD,BB
3,Philipp Schweda,93,M,Juniors,1992,91.2,235,245,251,251,135,145,-150,145,235,250,-265,250,646,Raw,SBD,BB
4,Steven Vierig,105,M,Open,1985,98.75,225,240,245,245,130,140,-142.5,140,265,-275,,265,650,Raw,SBD,BB
1,Kevin Vierig,105,M,Juniors,1992,93.6,220,245,-250,245,130,145,-147.5,145,240,260,-262.5,260,650,Raw,SBD,BB
2,Maximilian Eisinger,83,M,Juniors,1992,82,215,227.5,235,235,135,147.5,155,155,225,250,262.5,262.5,652.5,Raw,SBD,BB
1,Kevin Boateng,83,M,Juniors,1992,82.5,200,210,220,220,130,137.5,142.5,142.5,245,255,290.5,290.5,653,Raw,SBD,BB
5,Jan-Philipp Mankel,120,M,Open,1990,112.6,210,220,225,225,160,170,180,180,240,250,-255,250,655,Raw,SBD,BB
1,Richard Kielmann,120,M,Juniors,1994,115.9,220,230,240,240,130,-135,135,135,265,280,-285,280,655,Raw,SBD,BB
1,Peer Hänsicke,105,M,Masters 1,1961,101.4,225,240,255,255,165,177.5,-185.5,177.5,225,-243,-243,225,657.5,Raw,SBD,BB
2,Alexej Zinurov,93,M,Open,1988,90.85,230,-245,-255,230,160,170,180,180,230,250,-270,250,660,Raw,SBD,BB
2,Maxim Schutan,93,M,Juniors,1994,86,220,230,235,235,160,167.5,170,170,230,245,255,255,660,Raw,SBD,BB
1,Friedrich von Hennig,93,M,Juniors,1992,91.65,205,215,227.5,227.5,130,137.5,-145,137.5,275,290,302.5,302.5,667.5,Raw,SBD,BB
1,Torsten Pfeiffer,120,M,Masters 2,1963,116.75,225,240,255,255,120,127.5,-135,127.5,267.5,281,290,290,672.5,Raw,SBD,BB
4,Maik Steinfurth,120,M,Open,1979,111.4,-215,225,232.5,232.5,160,165,,165,260,280,,280,677.5,Raw,SBD,BB
1,Matthias Simpig,105,M,Masters 1,1972,100.1,255,272.5,,272.5,145,155,-162.5,155,250,-272.5,-272.5,250,677.5,Raw,SBD,BB
1,Philipp Bleilinger,120+,M,Juniors,1995,133.95,255,270,275,275,147.5,-160,-160,147.5,237.5,250,261.5,261.5,684,Raw,SBD,BB
3,Malte Fleissner,120,M,Open,1989,112.4,220,-240,-240,220,175,185,-187.5,185,275,285,-302.5,285,690,Raw,SBD,BB
2,Gregor Loosen,120,M,Open,1986,119.4,220,247.5,-252.5,247.5,165,175,-180,175,270,-307.5,-307.5,270,692.5,Raw,SBD,BB
3,René Ullerich,105,M,Open,1978,100.4,245,252.5,-257.5,252.5,170,177.5,-182.5,177.5,255,270,-280,270,700,Raw,SBD,BB
2,Oliver Zamzow,105,M,Open,1978,102.15,245,255,260,260,152.5,155,-157.5,155,290,305,310,310,725,Raw,SBD,BB
4,Thomas Ludwig,120+,M,Open,1989,141.8,230,250,-270,250,160,170,-180,170,280,300,310,310,730,Raw,SBD,BB
1,Paul-Johannes Heddrich,105,M,Open,1991,103.75,-247.5,255,265,265,-150,150,155,155,-300.5,307.5,315,315,735,Raw,SBD,BB
1,Igor Nemtsov,120,M,Open,1982,118.8,265,275,-280,275,170,180,185,185,260,272.5,280,280,740,Raw,SBD,BB
1,Sascha Stendebach,93,M,Open,1991,90.8,240,-252.5,-252.5,240,180,190,-198,190,305.5,325.5,-333,325.5,755.5,Raw,SBD,BB
1,Roman Reinbold,120,M,Masters 1,1972,118.9,247.5,260,270,270,185,200.5,205,205,265,280.5,,280.5,755.5,Raw,SBD,BB
3,Philipp Gramlich,120+,M,Open,1987,132.5,285,-302.5,-302.5,285,190,-200,-200,190,270,290,302.5,302.5,777.5,Raw,SBD,BB
2,Jewgenij Kondraschow,120+,M,Open,1983,139.95,255,277.5,-287.5,277.5,175,187.5,200,200,275,290,322.5,322.5,800,Raw,SBD,BB
1,Kevin Koch,120+,M,Open,1979,159.9,290,305,-310,305,250,255,-260.5,255,285,295,-300,295,855,Raw,SBD,BB
