Place,Name,Country,BodyweightKg,Squat1Kg,Squat2Kg,Squat3Kg,Squat4Kg,Bench1Kg,Bench2Kg,Bench3Kg,Bench4Kg,Deadlift1Kg,Deadlift2Kg,Deadlift3Kg,Deadlift4Kg,TotalKg,WeightClassKg,Division,Sex,Event,Equipment,Best3SquatKg,Best3BenchKg,Best3DeadliftKg,BirthYear
1,Demian Karandeev,Ukraine,43.85,30,40,45,,-25,-25,25,,40,50,60,,130,44,Amateur Children 10,M,SBD,Wraps,45,25,60,2005
1,Dmitro Zaets,Ukraine,53.35,110,120,-130,,55,60,62.5,,125,132.5,140,,322.5,56,Amateur Teen 13-15,M,SBD,Wraps,120,62.5,140,2002
DQ,Oleksandr Ovcharenko,Ukraine,67,-112.5,,,,-75,,,,-120,,,,,67.5,Amateur Teen 13-15,M,SBD,Wraps,,,,2001
DQ,Mykhailo Yurchenko,Ukraine,72.25,-200,-200,-200,,-110,,,,-225,,,,,75,Amateur Teen 16-17,M,SBD,Wraps,,,,1999
1,Vladislav Sklyarov,Ukraine,75.82,135,152.5,175,,107.5,115,-120,,140,170,-185,,460,82.5,Amateur Teen 16-17,M,SBD,Wraps,175,115,170,1998
2,Norbert Simiński,Poland,75.15,-135,135,-145,,-100,110,-112.5,,170,180,185,,430,82.5,Amateur Teen 16-17,M,SBD,Wraps,135,110,185,1999
1,Bogdan Bushtryuk,Ukraine,87.9,140,160,-165,,90,100,105,,160,180,-190,,445,90,Amateur Teen 16-17,M,SBD,Wraps,160,105,180,1998
1,Vladyslav Shpylyovyy,Ukraine,98.6,-210,210,-230,,110,115,,,215,230,250,,575,100,Amateur Teen 16-17,M,SBD,Wraps,210,115,250,1998
2,Piotr Kobita,Poland,97.05,190,200,210,,95,102.5,-105,,205,215,220,,532.5,100,Amateur Teen 16-17,M,SBD,Wraps,210,102.5,220,1999
1,Yevhen Tsybulko,Ukraine,88.2,150,165,-170,,100,115,-122.5,,160,170,180,,460,90,Amateur Teen 18-19,M,SBD,Wraps,165,115,180,1997
1,Yaroslav Kalugin,Ukraine,66.2,155,160,-165,,90,-95,-95,,210,220,-227.5,,470,67.5,Amateur Juniors 20-23,M,SBD,Wraps,160,90,220,1994
2,Vadym Bozhyk,Ukraine,65.3,100,107.5,112.5,,85,95,-102.5,,145,155,-165,,362.5,67.5,Amateur Juniors 20-23,M,SBD,Wraps,112.5,95,155,1993
DQ,Ruslan Chudak,Ukraine,65.65,-170,170,180,,-115,-122.5,-122.5,,-190,,,,,67.5,Amateur Juniors 20-23,M,SBD,Wraps,180,,,1993
1,Sergiy Chalyy,Ukraine,74.55,170,180,-185,,105,110,-115,,190,200,-205,,490,75,Amateur Juniors 20-23,M,SBD,Wraps,180,110,200,1993
2,Anatolii Martseniuk,Ukraine,72.3,130,-140,145,,130,137.5,-140,,165,-175,-175,,447.5,75,Amateur Juniors 20-23,M,SBD,Wraps,145,137.5,165,1995
1,Oleksandr Golovatskiy,Ukraine,79.95,-185,185,200,,130,137.5,142.5,,210,220,232.5,,575,82.5,Amateur Juniors 20-23,M,SBD,Wraps,200,142.5,232.5,1993
2,Oleksandr Mushynskiy,Ukraine,78.7,-160,160,175,,100,107.5,-112.5,,190,200,207.5,,490,82.5,Amateur Juniors 20-23,M,SBD,Wraps,175,107.5,207.5,1993
1,Artem Shytyi,Ukraine,88.4,260,280,-290,,170,180,-185,,250,260,-262.5,,720,90,Amateur Juniors 20-23,M,SBD,Wraps,280,180,260,1992
DQ,Artur Kalynovskyy,Ukraine,85.45,-220,-230,-230,,-150,,,,-210,,,,,90,Amateur Juniors 20-23,M,SBD,Wraps,,,,1995
1,Taras Shevchenko,Ukraine,96.55,180,-190,-190,,115,120,125,,195,-225,,,500,100,Amateur Juniors 20-23,M,SBD,Wraps,180,125,195,1995
1,Nazar Miroshnychenko,Ukraine,109.25,200,220,-230,,140,150,-160,,210,230,242.5,,612.5,110,Amateur Juniors 20-23,M,SBD,Wraps,220,150,242.5,1994
1,Dmitro Zaets,Ukraine,53.35,110,120,-130,,55,60,62.5,,125,132.5,140,,322.5,56,Amateur Open,M,SBD,Wraps,120,62.5,140,2002
1,Dmitro Kondratenko,Ukraine,67.5,190,-200,-200,,110,117.5,-125,,150,170,180,,487.5,67.5,Amateur Open,M,SBD,Wraps,190,117.5,180,1986
2,Roman Golyshev,Ukraine,65.55,110,130,-140,,100,110,-112.5,,120,140,-145,,380,67.5,Amateur Open,M,SBD,Wraps,130,110,140,1991
1,Oleksandr Volkov,Ukraine,72.35,165,175,-182.5,,160,165,-167.5,,210,-220,220,,560,75,Amateur Open,M,SBD,Wraps,175,165,220,1985
2,Viktor Kondratiuk,Ukraine,70.15,165,180,195,,115,122.5,,,190,200,-222.5,,517.5,75,Amateur Open,M,SBD,Wraps,195,122.5,200,1987
1,Sergiy Bogajchuk,Ukraine,81.75,195,210,222.5,,130,140,-142.5,,215,230,-237.5,,592.5,82.5,Amateur Open,M,SBD,Wraps,222.5,140,230,1985
2,Oleg Pustovyy,Ukraine,81.4,-200,200,-210,,130,137.5,-140,,190,-205,-205,,527.5,82.5,Amateur Open,M,SBD,Wraps,200,137.5,190,1977
1,Artem Shytyi,Ukraine,88.4,260,280,-290,,170,180,-185,,250,260,-262.5,,720,90,Amateur Open,M,SBD,Wraps,280,180,260,1992
2,Sergey Alvanyan,Armenia,89.85,180,-200,-200,,135,-145,145,,220,235,-250,,560,90,Amateur Open,M,SBD,Wraps,180,145,235,1985
DQ,Borys Stashuk,Ukraine,86.35,-250,-250,-250,,-140,,,,-200,,,,,90,Amateur Open,M,SBD,Wraps,,,,1985
DQ,Evgen Kytajgorodskii,Ukraine,87.65,150,170,-175,,-130,-130,-130,,-260,,,,,90,Amateur Open,M,SBD,Wraps,170,,,1989
1,George Popov,Ukraine,96.9,220,230,-235,,-150,150,-157.5,,200,220.5,230,,610,100,Amateur Open,M,SBD,Wraps,230,150,230,1976
2,Vladyslav Shpylyovyy,Ukraine,98.6,-210,210,-230,,110,115,,,215,230,250,,575,100,Amateur Open,M,SBD,Wraps,210,115,250,1998
1,Sergiy Bessel,Ukraine,108.25,245,260,270,,175,185,-190,,250,260,-270,,715,110,Amateur Open,M,SBD,Wraps,270,185,260,1984
1,Pavlo Mishchuk,Ukraine,110.1,-240,250,-260,,-180,180,-190,,247.5,265,-272.5,,695,125,Amateur Open,M,SBD,Wraps,250,180,265,1998
1,Stepan Matsipura,Ukraine,88.3,-185,-185,185,,125,130,,,187.5,,,,502.5,90,Amateur Submasters 33-39,M,SBD,Wraps,185,130,187.5,1979
1,George Popov,Ukraine,96.9,220,230,-235,,-150,150,-157.5,,200,220.5,230,,610,100,Amateur Submasters 33-39,M,SBD,Wraps,230,150,230,1976
1,Andrii Zhdanov,Ukraine,87.6,200,212.5,220,,130,-140,-140,,180,200,212.5,,562.5,90,Amateur Masters 40-44,M,SBD,Wraps,220,130,212.5,1975
1,Pavlo Kipnyak,Ukraine,107.1,180,-210,,,150,160,-170,,190,210,,,550,110,Amateur Masters 45-49,M,SBD,Wraps,180,160,210,1969
1,Rafał Klauz,Poland,110.2,180,190,200,,-140,145,-150,,200,215,220,,565,125,Amateur Masters 45-49,M,SBD,Wraps,200,145,220,1971
1,Oleg Brazhnyk,Ukraine,152.6,140,160,180,,105,115,120,,170,190,-200,,490,140+,Amateur Masters 45-49,M,SBD,Wraps,180,120,190,1970
1,Mykhailo Burkov,Ukraine,78.4,160,170,180,,105,112.5,-115,,170,180,-185,,472.5,82.5,Amateur Masters 50-54,M,SBD,Wraps,180,112.5,180,1963
1,Volodymyr Mushchynin,Ukraine,95.05,120,140,150,,70,80,-82.5,,140,150,160,,390,100,Amateur Masters 50-54,M,SBD,Wraps,150,80,160,1961
DQ,Oleksandr Kalkutin,Ukraine,125,-200,-200,-200,,-120,-140,-150,,-200,,,,,125,Amateur Masters 50-54,M,SBD,Wraps,,,,1965
1,Valerii Melnyk,Ukraine,107.9,210,220,-230,,145,152.5,-160,,200,215,220,,592.5,110,Amateur Masters 55-59,M,SBD,Wraps,220,152.5,220,1958
1,Stefan Sochaňski,Poland,88.5,-172.5,172.5,,,-95,95,,,190,212.5,,,480,90,Amateur Masters 65-69,M,SBD,Wraps,172.5,95,212.5,1948
1,Viktor Stefanov,Ukraine,98.6,155,-165,-165,,100,-105,105,,150,160,170,,430,100,Amateur Masters 65-69,M,SBD,Wraps,155,105,170,1948
1,Igor Zubarev,Ukraine,74,50,60,65,,35,42.5,-47.5,,80,92.5,102.5,,210,75,Amateur Masters 70-74,M,SBD,Wraps,65,42.5,102.5,1941
1,Dmitro Kondratenko,Ukraine,67.5,190,-200,-200,,110,117.5,-125,,150,170,180,,487.5,67.5,Amateur Military/Fire/Police,M,SBD,Wraps,190,117.5,180,1986
1,Oleksandr Golovatskiy,Ukraine,79.95,-185,185,200,,130,137.5,142.5,,210,220,232.5,,575,82.5,Amateur Military/Fire/Police,M,SBD,Wraps,200,142.5,232.5,1993
2,Mykhailo Burkov,Ukraine,78.4,160,170,180,,105,112.5,-115,,170,180,-185,,472.5,82.5,Amateur Military/Fire/Police,M,SBD,Wraps,180,112.5,180,1963
1,Valerii Melnyk,Ukraine,107.9,210,220,-230,,145,152.5,-160,,200,215,220,,592.5,110,Amateur Military/Fire/Police,M,SBD,Wraps,220,152.5,220,1958
DQ,Khrystyna Kashuba,Ukraine,51.3,80,90,-100,,-42.5,-47.5,-47.5,,-65,,,,,52,Amateur Teen 18-19,F,SBD,Wraps,90,,,1996
1,Mariya Soltysyak,Ukraine,58.55,-90,90,100,,45,50,-52.5,,80,100,110,,260,60,Amateur Teen 18-19,F,SBD,Wraps,100,50,110,1998
1,Yuliia Gorbunova,Ukraine,48,80,85,90,,37.5,42.5,-45,,100,105,107.5,,240,48,Amateur Juniors 20-23,F,SBD,Wraps,90,42.5,107.5,1993
1,Darya Goretska,Ukraine,59.1,-120,120,-130,,-57.5,57.5,60,,100,-110,-110,,280,60,Amateur Juniors 20-23,F,SBD,Wraps,120,60,100,1995
1,Galyna Chaika,Ukraine,50.6,75,80,85,,40,-45,45,,85,100,102.5,,232.5,52,Amateur Open,F,SBD,Wraps,85,45,102.5,1990
2,Kateryna Vnukova,Ukraine,50.95,-55,55,60,,-30,30,32.5,,55,-60,60,,152.5,52,Amateur Open,F,SBD,Wraps,60,32.5,60,1982
1,Oksana Prikhodko,Ukraine,55,120,-135,-135,,70,-75,75,,135,145,155,,350,56,Amateur Open,F,SBD,Wraps,120,75,155,1991
2,Yuliya Gabelko,Ukraine,53.9,110,-120,-120,,62.5,-67.5,-67.5,,110,120,130,,302.5,56,Amateur Open,F,SBD,Wraps,110,62.5,130,1987
3,Valeriia Sukonkina,Ukraine,53.2,-90,95,100,,40,-45,-45,,110,115,-120,,255,56,Amateur Open,F,SBD,Wraps,100,40,115,1983
4,Uliana Khmelenko-Lepska,Ukraine,54.2,70,85,-90,,40,45,-47.5,,85,95,-100,,225,56,Amateur Open,F,SBD,Wraps,85,45,95,1991
DQ,Darina Kovalova,Ukraine,55.65,-120,-120,-120,,-60,,,,-150,,,,,56,Amateur Open,F,SBD,Wraps,,,,1990
1,Nataliia Kyrylchuk,Ukraine,59.35,95,110,-115,,55,60,-67.5,,110,115,-120,,285,60,Amateur Open,F,SBD,Wraps,110,60,115,1990
2,Darya Goretska,Ukraine,59.1,-120,120,-130,,-57.5,57.5,60,,100,-110,-110,,280,60,Amateur Open,F,SBD,Wraps,120,60,100,1995
3,Svitlana Glatman,Ukraine,57.25,95,105,-110,,45,47.5,50,,100,112.5,-125,,267.5,60,Amateur Open,F,SBD,Wraps,105,50,112.5,1981
1,Katerina Bessel,Ukraine,66.3,135,142.5,150,,72.5,-80,80,,127.5,137.5,-142.5,,367.5,67.5,Amateur Open,F,SBD,Wraps,150,80,137.5,1991
2,Valeriia Razumenko,Ukraine,63.15,120,-130,130,,50,55,-60,,120,-130,-130,,305,67.5,Amateur Open,F,SBD,Wraps,130,55,120,1992
3,Oksana Muzyka,Ukraine,66.4,80,92.5,100,,62.5,67.5,-70,,95,105,112.5,,280,67.5,Amateur Open,F,SBD,Wraps,100,67.5,112.5,1969
DQ,Agnieszka Błońska Sara,Poland,73.1,-90,-90,-90,,-40,,,,-120,,,,,75,Amateur Open,F,SBD,Wraps,,,,1985
1,Kateryna Vnukova,Ukraine,50.95,-55,55,60,,-30,30,32.5,,55,-60,60,,152.5,52,Amateur Submasters 33-39,F,SBD,Wraps,60,32.5,60,1982
1,Svitlana Glatman,Ukraine,57.25,95,105,-110,,45,47.5,50,,100,112.5,-125,,267.5,60,Amateur Submasters 33-39,F,SBD,Wraps,105,50,112.5,1981
1,Oksana Muzyka,Ukraine,66.4,80,92.5,100,,62.5,67.5,-70,,95,105,112.5,,280,67.5,Amateur Masters 45-49,F,SBD,Wraps,100,67.5,112.5,1969
DQ,Oleksandr Kostiuk,Ukraine,80.9,-200,-210,-210,,-150,,,,-210,,,,,82.5,Pro Teen 16-17,M,SBD,Wraps,,,,1998
1,Maksym Boyko,Ukraine,89.5,-300,-300,300,,170,180,-190,,260,-275,-275,,740,90,Pro Teen 18-19,M,SBD,Wraps,300,180,260,1996
1,Andriy Sarazhynskyy,Ukraine,97.85,-300,-310,320,,170,-180,,,255,265,,,755,100,Pro Teen 18-19,M,SBD,Wraps,320,170,265,1996
1,Kostyantin Barkov,Ukraine,107.3,280,295,310,-320,160,-170,-175,,300,320,-330,,790,110,Pro Teen 18-19,M,SBD,Wraps,310,160,320,1996
1,Artem Gaidai,Ukraine,79.15,-210,210,230,,150,155,-160,,215,225,,,610,82.5,Pro Juniors 20-23,M,SBD,Wraps,230,155,225,1996
1,Maksym Rybalka,Ukraine,97.3,255,262.5,267.5,,145,-150,,,265,275,-282.5,-282.5,687.5,100,Pro Juniors 20-23,M,SBD,Wraps,267.5,145,275,1993
1,Kamil Górski,Poland,111.4,-240,-240,240,,200,210,-215,,230,250,270,,720,125,Pro Juniors 20-23,M,SBD,Wraps,240,210,270,1995
1,Arkadiy Shalokha,Ukraine,82.4,275,290,295,,175,185,190,,282.5,-295,-297.5,,767.5,82.5,Pro Open,M,SBD,Wraps,295,190,282.5,1983
2,Artem Gaidai,Ukraine,79.15,-210,210,230,,150,155,-160,,215,225,,,610,82.5,Pro Open,M,SBD,Wraps,230,155,225,1996
1,Oleksii Melnyk,Ukraine,86.95,-320,320,-335,,175,185,-187.5,,-295,300,-307.5,,805,90,Pro Open,M,SBD,Wraps,320,185,300,1990
2,Oleksandr Shapovalov,Ukraine,88.9,290,-300,,,180,192.5,195,,260,270,275,,760,90,Pro Open,M,SBD,Wraps,290,195,275,1990
3,Maksym Boyko,Ukraine,89.5,-300,-300,300,,170,180,-190,,260,-275,-275,,740,90,Pro Open,M,SBD,Wraps,300,180,260,1996
4,Vasyl' Mykhalskyy,Ukraine,89.35,-217.5,225,-235,,145,150,155,,250,260,-267.5,,640,90,Pro Open,M,SBD,Wraps,225,155,260,1980
1,Andriy Sarazhynskyy,Ukraine,97.85,-300,-310,320,,170,-180,,,255,265,,,755,100,Pro Open,M,SBD,Wraps,320,170,265,1996
2,Dmytro Korotych,Ukraine,98.7,250,-260,260,,180,192.5,-197.5,,260,280,-292.5,,732.5,100,Pro Open,M,SBD,Wraps,260,192.5,280,1988
DQ,Viktor Rublyov,Ukraine,99.3,-240,-250,-250,,-170,,,,-250,,,,,100,Pro Open,M,SBD,Wraps,,,,1975
1,Kostyantin Barkov,Ukraine,107.3,280,295,310,-320,160,-170,-175,,300,320,-330,,790,110,Pro Open,M,SBD,Wraps,310,160,320,1996
2,Sergii Iaromenko,Ukraine,108.7,240,-255,255,,145,-155,157.5,,230,250,-272.5,,662.5,110,Pro Open,M,SBD,Wraps,255,157.5,250,1984
1,Szymon Markowski,Poland,115.75,240,255,280,,200,210,-215,,270,285,-295,,775,125,Pro Open,M,SBD,Wraps,280,210,285,1988
2,Rafał Wójcik,Poland,112.9,-230,240,255,,165,-175,175,,285,295,305,,735,125,Pro Open,M,SBD,Wraps,255,175,305,1987
1,Andriy Bykov,Ukraine,70.55,160,175,185,,125,135,140,,170,180,190,,515,75,Pro Submasters 33-39,M,SBD,Wraps,185,140,190,1982
1,Vasyl' Mykhalskyy,Ukraine,89.35,-217.5,225,-235,,145,150,155,,250,260,-267.5,,640,90,Pro Submasters 33-39,M,SBD,Wraps,225,155,260,1980
2,Eugen Korotych,Ukraine,89.5,-175,-175,180,,117.5,125,-130,,195,210,215,,520,90,Pro Submasters 33-39,M,SBD,Wraps,180,125,215,1977
1,Przemyslaw Karwański,Poland,111.55,200,-210,220,,150,160,165,,250,265,275,,660,125,Pro Submasters 33-39,M,SBD,Wraps,220,165,275,1980
1,Oleksandr Popovych,Ukraine,74.9,150,-170,180,,125,135,145,,175,185,195,,520,75,Pro Masters 40-44,M,SBD,Wraps,180,145,195,1972
1,Oleg Fistikan,Moldova,81.25,160,-180,180,,110,120,-127.5,,210,220,-225,,520,82.5,Pro Masters 40-44,M,SBD,Wraps,180,120,220,1973
DQ,Viktor Rublyov,Ukraine,99.3,-240,-250,-250,,-170,,,,-250,,,,,100,Pro Masters 40-44,M,SBD,Wraps,,,,1975
1,Volodymyr Karandeev,Ukraine,109.2,240,260,-270,,160,170,-175,,230,255,262.5,,692.5,110,Pro Masters 40-44,M,SBD,Wraps,260,170,262.5,1974
2,Andriy Golodyuk,Ukraine,103.3,200,-225,-240,,160,170,180,,200,220,240,,620,110,Pro Masters 40-44,M,SBD,Wraps,200,180,240,1973
3,Oleg Kovbasa,Ukraine,100.4,115,-125,135,,115,120,125,,150,-180,,,410,110,Pro Masters 40-44,M,SBD,Wraps,135,125,150,1975
1,Vitaliy Beloborodov,Moldova,107.15,190,210,230,,170,175,-180,,245,260,265,,670,110,Pro Masters 45-49,M,SBD,Wraps,230,175,265,1968
1,Gasan Garumov,Ukraine,74.45,115,-125,125,,95,-100,-102.5,,145,155,165,,385,75,Pro Masters 50-54,M,SBD,Wraps,125,95,165,1963
1,Sergiy Kolesnyk,Ukraine,97.85,175,190,200,,115,120,125,,180,190,,,515,100,Pro Masters 50-54,M,SBD,Wraps,200,125,190,1963
1,Volodymyr Vasylenko,Ukraine,76.35,100,110,120,,60,65,,,130,145,,,330,82.5,Pro Masters 70-74,M,SBD,Wraps,120,65,145,1943
1,Oleksandr Popovych,Ukraine,74.9,150,-170,180,,125,135,145,,175,185,195,,520,75,Pro Military/Fire/Police,M,SBD,Wraps,180,145,195,1972
1,Dmytro Korotych,Ukraine,98.7,250,-260,260,,180,192.5,-197.5,,260,280,-292.5,,732.5,100,Pro Military/Fire/Police,M,SBD,Wraps,260,192.5,280,1988
1,Ilia Kochiashvili,Georgia,105.6,190,220,-235,,140,-160,160,,200,235,-260,,615,110,Pro Military/Fire/Police,M,SBD,Wraps,220,160,235,1991
1,Yulia Shenkarenko,Ukraine,66.4,190,195,200,,125,-127.5,,,-200,200,211.5,,536.5,67.5,Pro Open,F,SBD,Wraps,200,125,211.5,1986
1,Olena Razuvaieva,Ukraine,71.05,-140,150,155,,-72.5,75,80,,135,145,-152.5,,380,75,Pro Open,F,SBD,Wraps,155,80,145,1988
1,Stefan Sochaňski,Poland,88.5,220,240,,,110,-122.5,,,210,230,250,,600,90,Amateur Masters 65-69,M,SBD,Multi-ply,240,110,250,1948
1,Kateryna Alekseienko,Ukraine,56,-105,105,-115,,60,-67.5,-67.5,,105,112.5,-120,,277.5,56,Amateur Teen 18-19,F,SBD,Multi-ply,105,60,112.5,1997
1,Olena Koroeva,Ukraine,58.85,105,112.5,117.5,,65,70,-72.5,,117.5,122.5,,,310,60,Amateur Open,F,SBD,Multi-ply,117.5,70,122.5,1983
1,Pavlo Ishchenko,Ukraine,90,310,320,-330,,-215,215,220,,280,300,-310,,840,90,Pro Open,M,SBD,Multi-ply,320,220,300,1991
1,Dmytro Ilyashenko,Ukraine,98.5,240,255,-270,,190,-200,-200,,230,-240,240,,685,100,Pro Open,M,SBD,Multi-ply,255,190,240,1984
1,Demian Karandeev,Ukraine,43.85,,,,,-25,-25,25,,,,,,25,44,Amateur Children 10,M,B,Raw,,25,,2005
1,Alan Kviatkovskii,Ukraine,48,,,,,37.5,40,-42.5,,,,,,40,48,Amateur Children 10,M,B,Raw,,40,,2005
1,Oleg Mykhalskyy,Ukraine,33.9,,,,,37.5,42.5,-45,,,,,,42.5,44,Amateur Children 11-12,M,B,Raw,,42.5,,2004
1,Igor Starchenko,Ukraine,79.8,,,,,92.5,97.5,-102.5,,,,,,97.5,82.5,Amateur Teen 13-15,M,B,Raw,,97.5,,2001
1,Sergii Basarab,Ukraine,58.25,,,,,90,105,-115,,,,,,105,60,Amateur Teen 16-17,M,B,Raw,,105,,1999
1,Narek Makaryan,Armenia,66.55,,,,,90,105,110,,,,,,110,67.5,Amateur Teen 16-17,M,B,Raw,,110,,1999
1,Lyubomyr Zabramnyy,Ukraine,72.75,,,,,130,140,150,,,,,,150,75,Amateur Teen 16-17,M,B,Raw,,150,,1998
2,Sergey Petrosyan,Armenia,74.7,,,,,-135,145,-152.5,,,,,,145,75,Amateur Teen 16-17,M,B,Raw,,145,,1998
3,Michal Stasiak,Poland,70.55,,,,,115,120,-122.5,,,,,,120,75,Amateur Teen 16-17,M,B,Raw,,120,,1998
4,Norbert Simiński,Poland,71.15,,,,,100,-110,-110,,,,,,100,75,Amateur Teen 16-17,M,B,Raw,,100,,1999
1,Bogdan Bushtryuk,Ukraine,87.9,,,,,90,100,105,,,,,,105,90,Amateur Teen 16-17,M,B,Raw,,105,,1998
1,Ivan Pogrebov,Ukraine,103.35,,,,,80,-90,-90,,,,,,80,110,Amateur Teen 16-17,M,B,Raw,,80,,1998
1,Liubomyr Roka-Padron,Ukraine,87.1,,,,,140,142.5,145,,,,,,145,90,Amateur Teen 18-19,M,B,Raw,,145,,1997
2,Mikheil Pachkoria,Georgia,84.15,,,,,130,135,-142.5,,,,,,135,90,Amateur Teen 18-19,M,B,Raw,,135,,1996
1,Vladyslav Shevchenko,Ukraine,95.2,,,,,120,130,-135,,,,,,130,100,Amateur Teen 18-19,M,B,Raw,,130,,1997
1,Razmik Aleksanayan,Armenia,66.9,,,,,130,135,-145,,,,,,135,67.5,Amateur Juniors 20-23,M,B,Raw,,135,,1993
2,Artur Bykov,Ukraine,65.55,,,,,105,110,-115,,,,,,110,67.5,Amateur Juniors 20-23,M,B,Raw,,110,,1993
3,Vadym Bozhyk,Ukraine,65.3,,,,,85,95,-107.5,,,,,,95,67.5,Amateur Juniors 20-23,M,B,Raw,,95,,1993
1,Anatolii Martseniuk,Ukraine,72.3,,,,,130,137.5,-140,,,,,,137.5,75,Amateur Juniors 20-23,M,B,Raw,,137.5,,1995
2,Vilyam Saroyan,Armenia,72.45,,,,,90,100,-105,,,,,,100,75,Amateur Juniors 20-23,M,B,Raw,,100,,1994
1,Eugene Krivenda,Ukraine,79.6,,,,,-150,150,157.5,,,,,,157.5,82.5,Amateur Juniors 20-23,M,B,Raw,,157.5,,1994
2,Patryk Kaczmarek,Poland,82.5,,,,,110,115,-120,,,,,,115,82.5,Amateur Juniors 20-23,M,B,Raw,,115,,1995
1,Artem Shytyi,Ukraine,88.4,,,,,170,180,-185,,,,,,180,90,Amateur Juniors 20-23,M,B,Raw,,180,,1992
2,Artur Kalynovskyy,Ukraine,85.45,,,,,150,155,-157.5,,,,,,155,90,Amateur Juniors 20-23,M,B,Raw,,155,,1995
1,Anton Orlov,Ukraine,95.9,,,,,145,150,157.5,,,,,,157.5,100,Amateur Juniors 20-23,M,B,Raw,,157.5,,1993
1,Otto Balog,Ukraine,67,,,,,120,-125,-125,,,,,,120,67.5,Amateur Open,M,B,Raw,,120,,1983
1,Oleksandr Chernets,Ukraine,71.4,,,,,160,167.5,170,,,,,,170,75,Amateur Open,M,B,Raw,,170,,1991
2,Oleksandr Volkov,Ukraine,72.35,,,,,160,167.5,-172.5,,,,,,167.5,75,Amateur Open,M,B,Raw,,167.5,,1985
3,Vadym Marynych,Ukraine,74.9,,,,,150,157.5,-160,,,,,,157.5,75,Amateur Open,M,B,Raw,,157.5,,1981
4,Viktor Kondratiuk,Ukraine,70.15,,,,,115,127.5,,,,,,,127.5,75,Amateur Open,M,B,Raw,,127.5,,1987
5,Petro Prystupa,Ukraine,74.2,,,,,100,110,115,,,,,,115,75,Amateur Open,M,B,Raw,,115,,1963
1,Yurii Klymenko,Ukraine,82.45,,,,,-165,172.5,177.5,,,,,,177.5,82.5,Amateur Open,M,B,Raw,,177.5,,1982
2,Volodymyr Lagoda,Ukraine,81.65,,,,,155,160,-167.5,,,,,,160,82.5,Amateur Open,M,B,Raw,,160,,1968
1,Yurii Totskyy,Ukraine,87.2,,,,,190,200,207.5,,,,,,207.5,90,Amateur Open,M,B,Raw,,207.5,,1976
2,Borys Stashuk,Ukraine,86.35,,,,,150,165,170,,,,,,170,90,Amateur Open,M,B,Raw,,170,,1985
3,Oleksandr Klymenko,Ukraine,83.1,,,,,140,150,155,,,,,,155,90,Amateur Open,M,B,Raw,,155,,1990
4,Bogdan Sidoruk,Ukraine,88.6,,,,,150,155,-160,,,,,,155,90,Amateur Open,M,B,Raw,,155,,1992
1,Mykola Gorbachov,Ukraine,92.15,,,,,160,165,170,,,,,,170,100,Amateur Open,M,B,Raw,,170,,1962
2,Vitaliy Chyruk,Ukraine,96.4,,,,,-167.5,167.5,-175,,,,,,167.5,100,Amateur Open,M,B,Raw,,167.5,,1986
3,Oleksandr Vyshnevskii,Ukraine,97.5,,,,,160,-170,-170,,,,,,160,100,Amateur Open,M,B,Raw,,160,,1988
4,George Popov,Ukraine,96.9,,,,,-150,150,-157.5,,,,,,150,100,Amateur Open,M,B,Raw,,150,,1976
5,Andrii Tupchii,Ukraine,93.2,,,,,145,-155,-160,,,,,,145,100,Amateur Open,M,B,Raw,,145,,1987
DQ,Valentyn Slutskyy,Ukraine,99.3,,,,,-160,-160,-160,,,,,,,100,Amateur Open,M,B,Raw,,,,1973
1,Viacheslav Teliura,Ukraine,104,,,,,170,180,-185,,,,,,180,110,Amateur Open,M,B,Raw,,180,,1967
1,Oleksandr Slutskyy,Ukraine,123.15,,,,,-192.5,192.5,200,,,,,,200,125,Amateur Open,M,B,Raw,,200,,1975
2,Pavlo Mishchuk,Ukraine,110.1,,,,,-180,180,-190,,,,,,180,125,Amateur Open,M,B,Raw,,180,,1998
1,Maxim Babanin,Moldova,133.05,,,,,180,190,-192.5,,,,,,190,140,Amateur Open,M,B,Raw,,190,,1979
2,Igor Klim,Ukraine,126,,,,,100,107.5,115,,,,,,115,140,Amateur Open,M,B,Raw,,115,,1971
1,Wiesław Kiwacki,Poland,75,,,,,140,152.5,-155,,,,,,152.5,75,Amateur Submasters 33-39,M,B,Raw,,152.5,,1976
1,Ivan Tymokhin,Ukraine,87.95,,,,,110,120,-125,,,,,,120,90,Amateur Submasters 33-39,M,B,Raw,,120,,1980
1,George Popov,Ukraine,96.9,,,,,-150,150,-157.5,,,,,,150,100,Amateur Submasters 33-39,M,B,Raw,,150,,1976
1,Viktor Bozhukha,Ukraine,112,,,,,175,-177.5,177.5,,,,,,177.5,125,Amateur Submasters 33-39,M,B,Raw,,177.5,,1978
2,Roman Khorkin,Ukraine,119.45,,,,,150,170,-180,,,,,,170,125,Amateur Submasters 33-39,M,B,Raw,,170,,1976
1,Maxim Babanin,Moldova,133.05,,,,,180,190,-192.5,,,,,,190,140,Amateur Submasters 33-39,M,B,Raw,,190,,1979
1,Igor Radets,Ukraine,80.2,,,,,-125,125,-130,,,,,,125,82.5,Amateur Masters 40-44,M,B,Raw,,125,,1974
DQ,Valentyn Slutskyy,Ukraine,99.3,,,,,-160,-160,-160,,,,,,,100,Amateur Masters 40-44,M,B,Raw,,,,1973
1,Tomasz Prętkiewicz,Poland,109.4,,,,,130,140,-145,,,,,,140,110,Amateur Masters 40-44,M,B,Raw,,140,,1973
1,Oleksandr Slutskyy,Ukraine,123.15,,,,,-192.5,192.5,200,,,,,,200,125,Amateur Masters 40-44,M,B,Raw,,200,,1975
1,Igor Klim,Ukraine,126,,,,,100,107.5,115,,,,,,115,140,Amateur Masters 40-44,M,B,Raw,,115,,1971
1,Volodymyr Lagoda,Ukraine,81.65,,,,,155,160,-167.5,,,,,,160,82.5,Amateur Masters 45-49,M,B,Raw,,160,,1968
2,Viacheslav Bulgakov,Ukraine,80.2,,,,,130,140,145,,,,,,145,82.5,Amateur Masters 45-49,M,B,Raw,,145,,1966
1,Eugene Krashanovskyy,Ukraine,100.4,,,,,185,190,-195,,,,,,190,110,Amateur Masters 45-49,M,B,Raw,,190,,1970
2,Viacheslav Teliura,Ukraine,104,,,,,170,180,-185,,,,,,180,110,Amateur Masters 45-49,M,B,Raw,,180,,1967
3,Pavlo Kipnyak,Ukraine,107.1,,,,,150,160,-170,,,,,,160,110,Amateur Masters 45-49,M,B,Raw,,160,,1969
1,Gagik Saroyan,Armenia,126,,,,,100,-170,,,,,,,100,140,Amateur Masters 45-49,M,B,Raw,,100,,1967
1,Oleg Brazhnyk,Ukraine,152.6,,,,,105,115,120,,,,,,120,140+,Amateur Masters 45-49,M,B,Raw,,120,,1970
1,Petro Prystupa,Ukraine,74.2,,,,,100,110,115,,,,,,115,75,Amateur Masters 50-54,M,B,Raw,,115,,1963
1,Gennadiy Ivanchenko,Ukraine,79.75,,,,,95,100,-105,,,,,,100,82.5,Amateur Masters 50-54,M,B,Raw,,100,,1966
1,Mykola Gorbachov,Ukraine,92.15,,,,,160,165,170,,,,,,170,100,Amateur Masters 50-54,M,B,Raw,,170,,1962
1,Oleksandr Kalkutin,Ukraine,125,,,,,120,140,-150,,,,,,140,125,Amateur Masters 50-54,M,B,Raw,,140,,1965
1,Oleksandr Artemiev,Ukraine,90,,,,,85,90,95,,,,,,95,90,Amateur Masters 55-59,M,B,Raw,,95,,1958
1,Yuriy Filonenko,Ukraine,88.2,,,,,125,130,132.5,,,,,,132.5,90,Amateur Masters 60-64,M,B,Raw,,132.5,,1954
1,Viktor Stefanov,Ukraine,98.6,,,,,100,-105,105,,,,,,105,100,Amateur Masters 65-69,M,B,Raw,,105,,1948
1,Igor Zubarev,Ukraine,74,,,,,35,42.5,-47.5,,,,,,42.5,75,Amateur Masters 75-79,M,B,Raw,,42.5,,1941
1,Ruslan Markiv,Ukraine,81.95,,,,,125,132.5,-135,,,,,,132.5,82.5,Amateur Military/Fire/Police,M,B,Raw,,132.5,,1986
1,Sviatoslav Pavliuk,Ukraine,93.95,,,,,-130,140,-147.5,,,,,,140,100,Amateur Military/Fire/Police,M,B,Raw,,140,,1987
1,Alina Klimchuk,Ukraine,51.6,,,,,40,45,47.5,,,,,,47.5,52,Amateur Teen 13-15,F,B,Raw,,47.5,,2000
1,Karina Malinovska,Ukraine,46.35,,,,,62.5,-65,-65,,,,,,62.5,48,Amateur Teen 18-19,F,B,Raw,,62.5,,1996
1,Karina Aleshnikova,Ukraine,50.6,,,,,55,-60,-60,,,,,,55,52,Amateur Teen 18-19,F,B,Raw,,55,,1996
1,Mariya Soltysyak,Ukraine,58.55,,,,,45,50,-52.5,,,,,,50,60,Amateur Teen 18-19,F,B,Raw,,50,,1998
DQ,Irina Galayda,Ukraine,51,,,,,-60,-60,-60,,,,,,,52,Amateur Juniors 20-23,F,B,Raw,,,,1994
1,Iola Belka,Ukraine,58.05,,,,,72.5,75,-77.5,,,,,,75,60,Amateur Juniors 20-23,F,B,Raw,,75,,1995
1,Olga Morozovska,Ukraine,46.75,,,,,62.5,67.5,-70,,,,,,67.5,48,Amateur Open,F,B,Raw,,67.5,,1991
2,Karina Malinovska,Ukraine,46.35,,,,,62.5,-65,-65,,,,,,62.5,48,Amateur Open,F,B,Raw,,62.5,,1996
1,Nataliya Melnychuk,Ukraine,51.4,,,,,67.5,70,72.5,,,,,,72.5,52,Amateur Open,F,B,Raw,,72.5,,1975
2,Karina Aleshnikova,Ukraine,50.6,,,,,55,-60,-60,,,,,,55,52,Amateur Open,F,B,Raw,,55,,1996
1,Daryna Prysyazhna,Ukraine,52.2,,,,,62.5,67.5,70,,,,,,70,56,Amateur Open,F,B,Raw,,70,,1989
2,Krystyna Kasyanova,Ukraine,55.1,,,,,-62.5,65,-70,,,,,,65,56,Amateur Open,F,B,Raw,,65,,1990
3,Sofiya Fedorovych,Ukraine,55.25,,,,,55,-60,-60,,,,,,55,56,Amateur Open,F,B,Raw,,55,,1982
1,Inna Yudina,Ukraine,75,,,,,70,72.5,75,,,,,,75,75,Amateur Open,F,B,Raw,,75,,1978
1,Viktoria Solntseva,Ukraine,83.9,,,,,95,-102.5,-102.5,,,,,,95,90,Amateur Open,F,B,Raw,,95,,1991
1,Tetyana Panevina,Ukraine,59.65,,,,,55,60,65,,,,,,65,60,Amateur Submasters 33-39,F,B,Raw,,65,,1980
1,Olena Melnyk,Ukraine,65.5,,,,,62.5,67.5,70,,,,,,70,67.5,Amateur Submasters 33-39,F,B,Raw,,70,,1977
1,Nataliya Melnychuk,Ukraine,51.4,,,,,67.5,70,72.5,,,,,,72.5,52,Amateur Masters 40-44,F,B,Raw,,72.5,,1975
1,Aleksandr Scherbakov,Moldova,57.5,,,,,60,67.5,-70,,,,,,67.5,60,Pro Teen 13-15,M,B,Raw,,67.5,,2003
1,Vladyslav Sivak,Ukraine,68.5,,,,,65,72.5,75,,,,,,75,75,Pro Teen 13-15,M,B,Raw,,75,,2000
1,Vladyslav Bondarenko,Ukraine,52.7,,,,,80,90,-92.5,,,,,,90,56,Pro Teen 16-17,M,B,Raw,,90,,1999
1,Oleksandr Sukhynyuk,Ukraine,67.45,,,,,62.5,67.5,70,,,,,,70,67.5,Pro Teen 16-17,M,B,Raw,,70,,1999
1,Bogdan Golod,Ukraine,76.5,,,,,75,80,-82.5,,,,,,80,82.5,Pro Teen 16-17,M,B,Raw,,80,,1999
1,Roman Bomk,Ukraine,90,,,,,90,95,100,,,,,,100,90,Pro Teen 16-17,M,B,Raw,,100,,1999
1,Denys Kuchmystyy,Ukraine,94.9,,,,,125,135,140,,,,,,140,100,Pro Teen 18-19,M,B,Raw,,140,,1997
1,Marcin Sokołowski,Poland,115.5,,,,,135,145,-160,,,,,,145,125,Pro Teen 18-19,M,B,Raw,,145,,1997
1,Orkhan Maisarov,Azerbaijan,70.95,,,,,150,-155,155,,,,,,155,75,Pro Juniors 20-23,M,B,Raw,,155,,1994
1,Uladzislau Ilyushchyts,Belarus,86.9,,,,,185,197.5,205,-210,,,,,205,90,Pro Juniors 20-23,M,B,Raw,,205,,1992
2,Giorgi Kartvelishvili,Georgia,89.3,,,,,175,180,-200,,,,,,180,90,Pro Juniors 20-23,M,B,Raw,,180,,1993
DQ,Illia Kiktev,Ukraine,98.15,,,,,-210,-220,-230,,,,,,,100,Pro Juniors 20-23,M,B,Raw,,,,1993
1,Stanislav Schastnyy,Belarus,108.55,,,,,241,251,-255,,,,,,251,110,Pro Juniors 20-23,M,B,Raw,,251,,1993
2,Sergiy Kovalchuk,Ukraine,100.2,,,,,187.5,195,-200,,,,,,195,110,Pro Juniors 20-23,M,B,Raw,,195,,1993
3,Dariusz Lis,Poland,100.9,,,,,175,182.5,-187.5,,,,,,182.5,110,Pro Juniors 20-23,M,B,Raw,,182.5,,1993
1,Kamil Górski,Poland,111.4,,,,,200,210,-215,,,,,,210,125,Pro Juniors 20-23,M,B,Raw,,210,,1995
1,Pavlo Kozak,Ukraine,56,,,,,130,135,140,142.5,,,,,140,56,Pro Open,M,B,Raw,,140,,1983
1,Roman Burguvan,Moldova,58.85,,,,,92.5,-100,100,,,,,,100,60,Pro Open,M,B,Raw,,100,,1988
1,Roman Eremashvili,Belarus,73.1,,,,,212.5,-222.5,-222.5,,,,,,212.5,75,Pro Open,M,B,Raw,,212.5,,1981
2,Orkhan Maisarov,Azerbaijan,70.95,,,,,150,-155,155,,,,,,155,75,Pro Open,M,B,Raw,,155,,1994
3,Dominik Winiarski,Poland,74.1,,,,,-120,120,-130,,,,,,120,75,Pro Open,M,B,Raw,,120,,1991
1,Jaroslaw Buczko,Poland,82.25,,,,,180,190,,,,,,,190,82.5,Pro Open,M,B,Raw,,190,,1992
2,Sergii Zakhariev,Ukraine,81.45,,,,,135,142.5,150,,,,,,150,82.5,Pro Open,M,B,Raw,,150,,1982
3,Vitalii Demediuk,Ukraine,82,,,,,145,150,-155,,,,,,150,82.5,Pro Open,M,B,Raw,,150,,1989
1,Oleksandr Onishchenko,Ukraine,88.55,,,,,210,215,220,,,,,,220,90,Pro Open,M,B,Raw,,220,,1980
2,Aleksandr Scherbakov,Moldova,89.6,,,,,220,-230,-230,,,,,,220,90,Pro Open,M,B,Raw,,220,,1966
3,Patryk Szypuła,Poland,89.6,,,,,205,210,217.5,,,,,,217.5,90,Pro Open,M,B,Raw,,217.5,,1979
4,Siarhei Khamitsevich,Belarus,88.15,,,,,-200,200,-207.5,,,,,,200,90,Pro Open,M,B,Raw,,200,,1987
5,Volodymyr Galyga,Ukraine,89.5,,,,,190,200,-202.5,,,,,,200,90,Pro Open,M,B,Raw,,200,,1983
6,Viacheslav Kazantsev,Ukraine,89,,,,,160,-170,175,,,,,,175,90,Pro Open,M,B,Raw,,175,,1988
DQ,Vyacheslav Perekhrest,Ukraine,90,,,,,-185,-185,-192.5,,,,,,,90,Pro Open,M,B,Raw,,,,1984
1,Oleg Bazilevich,Ukraine,92,,,,,240,-250,250,,,,,,250,100,Pro Open,M,B,Raw,,250,,1982
2,Roman Tsauk,Ukraine,95.5,,,,,215,225,-235,,,,,,225,100,Pro Open,M,B,Raw,,225,,1983
3,Hovhannes Yazichyan,Armenia,93,,,,,205,210,215,,,,,,215,100,Pro Open,M,B,Raw,,215,,1971
4,Roman Matiuk,Ukraine,98.1,,,,,185,190,-195,,,,,,190,100,Pro Open,M,B,Raw,,190,,1990
5,Grzegorz Rompalski,Poland,99.4,,,,,170,180,190,,,,,,190,100,Pro Open,M,B,Raw,,190,,1982
6,Maksim Filatov,Belarus,98.9,,,,,160,-167.5,-167.5,,,,,,160,100,Pro Open,M,B,Raw,,160,,1979
1,Stanislav Schastnyy,Belarus,108.55,,,,,241,251,-255,,,,,,251,110,Pro Open,M,B,Raw,,251,,1993
2,Oleksiy Solovyov,Ukraine,108.75,,,,,215,230,-240,,,,,,230,110,Pro Open,M,B,Raw,,230,,1975
3,Paweł Liszcz,Poland,108.5,,,,,215,225,-235,,,,,,225,110,Pro Open,M,B,Raw,,225,,1978
4,Andriy Tomashevych,Ukraine,106.7,,,,,170,177.5,182.5,,,,,,182.5,110,Pro Open,M,B,Raw,,182.5,,1978
1,Zbigniew Drewniak,Poland,125,,,,,190,200,,,,,,,200,125,Pro Open,M,B,Raw,,200,,1973
2,Rafał Wójcik,Poland,112.9,,,,,165,-175,175,,,,,,175,125,Pro Open,M,B,Raw,,175,,1987
1,Oleksandr Gensitskyy,Ukraine,137.7,,,,,220,230,237.5,,,,,,237.5,140,Pro Open,M,B,Raw,,237.5,,1975
2,Krzysztof Drozdowski,Poland,127.05,,,,,225,230,235,,,,,,235,140,Pro Open,M,B,Raw,,235,,1983
3,Vasilij Mazur,Moldova,127,,,,,212.5,222.5,-235,,,,,,222.5,140,Pro Open,M,B,Raw,,222.5,,1984
1,Sergii Zakhariev,Ukraine,81.45,,,,,135,142.5,150,,,,,,150,82.5,Pro Submasters 33-39,M,B,Raw,,150,,1982
1,Oleksandr Onishchenko,Ukraine,88.55,,,,,210,215,220,,,,,,220,90,Pro Submasters 33-39,M,B,Raw,,220,,1980
2,Patryk Szypuła,Poland,89.6,,,,,205,210,217.5,,,,,,217.5,90,Pro Submasters 33-39,M,B,Raw,,217.5,,1979
3,Gocha Batsiashvili,Georgia,87.9,,,,,170,175,-185,,,,,,175,90,Pro Submasters 33-39,M,B,Raw,,175,,1981
1,Roman Tsauk,Ukraine,95.5,,,,,215,225,-235,,,,,,225,100,Pro Submasters 33-39,M,B,Raw,,225,,1983
2,Grzegorz Rompalski,Poland,99.4,,,,,170,180,190,,,,,,190,100,Pro Submasters 33-39,M,B,Raw,,190,,1982
3,Maksim Filatov,Belarus,98.9,,,,,160,-167.5,-167.5,,,,,,160,100,Pro Submasters 33-39,M,B,Raw,,160,,1979
1,Paweł Liszcz,Poland,108.5,,,,,215,225,-235,,,,,,225,110,Pro Submasters 33-39,M,B,Raw,,225,,1978
2,Andriy Tomashevych,Ukraine,106.7,,,,,170,177.5,182.5,,,,,,182.5,110,Pro Submasters 33-39,M,B,Raw,,182.5,,1978
1,Paweł Krakowiak,Poland,110.9,,,,,195,200,-210,,,,,,200,125,Pro Submasters 33-39,M,B,Raw,,200,,1978
1,Oleksandr Zhariy,Ukraine,59.9,,,,,122.5,127.5,132.5,,,,,,132.5,60,Pro Masters 40-44,M,B,Raw,,132.5,,1972
1,Paweł Niewiadomski,Poland,74.35,,,,,125,-130,,,,,,,125,75,Pro Masters 40-44,M,B,Raw,,125,,1974
1,Rostyslav Bondarenko,Ukraine,87.3,,,,,170,180,,,,,,,180,90,Pro Masters 40-44,M,B,Raw,,180,,1972
1,Oleksiy Solovyov,Ukraine,108.75,,,,,215,230,-240,,,,,,230,110,Pro Masters 40-44,M,B,Raw,,230,,1975
1,Zbigniew Drewniak,Poland,125,,,,,190,200,,,,,,,200,125,Pro Masters 40-44,M,B,Raw,,200,,1973
2,Igor Demidov,Moldova,116,,,,,160,-170,170,,,,,,170,125,Pro Masters 40-44,M,B,Raw,,170,,1971
3,Andriy Bodrov,Ukraine,115.6,,,,,140,150,-160,,,,,,150,125,Pro Masters 40-44,M,B,Raw,,150,,1975
1,Oleksandr Gensitskyy,Ukraine,137.7,,,,,220,230,237.5,,,,,,237.5,140,Pro Masters 40-44,M,B,Raw,,237.5,,1975
1,Aleksandr Scherbakov,Moldova,89.6,,,,,220,-230,-230,,,,,,220,90,Pro Masters 45-49,M,B,Raw,,220,,1966
1,Hovhannes Yazichyan,Armenia,93,,,,,205,210,215,,,,,,215,100,Pro Masters 45-49,M,B,Raw,,215,,1971
1,Andriy Gimbarov,Ukraine,106.25,,,,,150,160,167.5,,,,,,167.5,110,Pro Masters 45-49,M,B,Raw,,167.5,,1966
1,Igor Chumak,Ukraine,74.2,,,,,105,115,120,,,,,,120,75,Pro Masters 50-54,M,B,Raw,,120,,1965
2,Gasan Garumov,Ukraine,74.45,,,,,95,-100,-102.5,,,,,,95,75,Pro Masters 50-54,M,B,Raw,,95,,1963
1,Sergii Deniak,Ukraine,98.4,,,,,150,-155,-155,,,,,,150,100,Pro Masters 50-54,M,B,Raw,,150,,1966
2,Vitaliy Kostiyuk,Ukraine,97.95,,,,,140,-145,-145,,,,,,140,100,Pro Masters 50-54,M,B,Raw,,140,,1964
1,Mykhailo Geienko,Ukraine,108.75,,,,,160,-170,-170,,,,,,160,110,Pro Masters 50-54,M,B,Raw,,160,,1963
1,Genadiy Vasyliev,Ukraine,72.7,,,,,75,80,85,,,,,,85,75,Pro Masters 60-64,M,B,Raw,,85,,1952
1,Witold Głos,Poland,96.75,,,,,145,-150,-155,,,,,,145,100,Pro Masters 60-64,M,B,Raw,,145,,1954
1,Ryszard Wilczak,Poland,103,,,,,-155,155,-157.5,,,,,,155,110,Pro Masters 60-64,M,B,Raw,,155,,1955
1,Anatoliy Bolyukh,Ukraine,94.7,,,,,145,150,155,,,,,,155,100,Pro Masters 65-69,M,B,Raw,,155,,1950
1,Valeriy Kolyadyuk,Ukraine,102,,,,,140,145,150,,,,,,150,110,Pro Masters 65-69,M,B,Raw,,150,,1949
1,Béla Bolgárfalvi,Hungary,88.4,,,,,105,110,115,,,,,,115,90,Pro Masters 70-74,M,B,Raw,,115,,1943
1,Mirosław Orłowski,Poland,94.95,,,,,-130,130,135,,,,,,135,100,Pro Masters 70-74,M,B,Raw,,135,,1943
1,Vyacheslav Tsyganok,Ukraine,100.1,,,,,100,-107.5,,,,,,,100,110,Pro Masters 75-79,M,B,Raw,,100,,1938
1,Oleksandr Ploskyy,Ukraine,88.3,,,,,160,-165,-165,,,,,,160,90,Pro Military/Fire/Police,M,B,Raw,,160,,1974
1,Sergii Deniak,Ukraine,98.4,,,,,150,-155,-155,,,,,,150,100,Pro Military/Fire/Police,M,B,Raw,,150,,1966
2,Roman Rusyn,Ukraine,92.2,,,,,120,127.5,132.5,,,,,,132.5,100,Pro Military/Fire/Police,M,B,Raw,,132.5,,1992
1,Paweł Liszcz,Poland,108.5,,,,,215,225,-235,,,,,,225,110,Pro Military/Fire/Police,M,B,Raw,,225,,1978
1,Krzysztof Drozdowski,Poland,127.05,,,,,225,230,235,,,,,,235,140,Pro Military/Fire/Police,M,B,Raw,,235,,1983
1,Krisztian Varhegyi,Hungary,49.6,,,,,72.5,77.5,82.5,,,,,,82.5,52,Pro Paralympian,M,B,Raw,,82.5,,1997
1,Pavlo Kozak,Ukraine,56,,,,,130,135,140,142.5,,,,,140,56,Pro Paralympian,M,B,Raw,,140,,1983
2,Gyorgy Sztano,Hungary,54.7,,,,,110,120,-125,,,,,,120,56,Pro Paralympian,M,B,Raw,,120,,1997
1,István Tóth,Hungary,58.35,,,,,115,-120,120,,,,,,120,60,Pro Paralympian,M,B,Raw,,120,,1956
1,Daniel Simon,Hungary,65,,,,,70,72.5,-75,,,,,,72.5,67.5,Pro Paralympian,M,B,Raw,,72.5,,2000
1,Paweł Niewiadomski,Poland,74.35,,,,,125,-130,,,,,,,125,75,Pro Paralympian,M,B,Raw,,125,,1974
1,Gyula Romzsa,Hungary,80.5,,,,,-90,90,95,,,,,,95,82.5,Pro Paralympian,M,B,Raw,,95,,1981
1,Balint Balazs,Hungary,98,,,,,110,-120,120,,,,,,120,100,Pro Paralympian,M,B,Raw,,120,,1978
1,Ákos Galyas,Hungary,104,,,,,130,140,145,,,,,,145,110,Pro Paralympian,M,B,Raw,,145,,1982
1,Lesia Bolmot,Ukraine,46.1,,,,,-40,-40,40,,,,,,40,48,Pro Open,F,B,Raw,,40,,1983
1,Olena Shcherbinina,Ukraine,59.25,,,,,62.5,65,-67.5,,,,,,65,60,Pro Open,F,B,Raw,,65,,1982
1,Yulia Shenkarenko,Ukraine,66.4,,,,,125,-127.5,,,,,,,125,67.5,Pro Open,F,B,Raw,,125,,1986
2,Honorata Kaczorowska,Poland,61.9,,,,,105,110,115,-121,,,,,115,67.5,Pro Open,F,B,Raw,,115,,1985
3,Adriana Bończak,Poland,63.4,,,,,85,90,-92.5,,,,,,90,67.5,Pro Open,F,B,Raw,,90,,1973
1,Marta Chachuła,Poland,68.55,,,,,82.5,85,87.5,,,,,,87.5,75,Pro Open,F,B,Raw,,87.5,,1987
1,Olena Shcherbinina,Ukraine,59.25,,,,,62.5,65,-67.5,,,,,,65,60,Pro Submasters 33-39,F,B,Raw,,65,,1982
1,Adriana Bończak,Poland,63.4,,,,,85,90,-92.5,,,,,,90,67.5,Pro Masters 40-44,F,B,Raw,,90,,1973
1,Katalin Mezei,Hungary,52,,,,,55,60,-65,,,,,,60,52,Pro Paralympian,F,B,Raw,,60,,1979
1,Mykhaylo Malkush,Ukraine,58.5,,,,,-140,140,150,,,,,,150,60,Amateur Teen 18-19,M,B,Multi-ply,,150,,1996
1,Vitaliy Menchuk,Ukraine,87.85,,,,,170,-180,185,191,,,,,185,90,Amateur Teen 18-19,M,B,Multi-ply,,185,,1998
1,Andrii Krakovskyy,Ukraine,82.5,,,,,172.5,180,-182.5,,,,,,180,82.5,Amateur Open,M,B,Multi-ply,,180,,1988
1,Irakli Tskhovrebashvili,Georgia,93.7,,,,,210,222.5,-230,,,,,,222.5,100,Amateur Open,M,B,Multi-ply,,222.5,,1981
1,Viktor Bozhukha,Ukraine,112,,,,,190,195,200,,,,,,200,125,Amateur Open,M,B,Multi-ply,,200,,1978
1,Irakli Tskhovrebashvili,Georgia,93.7,,,,,210,222.5,-230,,,,,,222.5,100,Amateur Submasters 33-39,M,B,Multi-ply,,222.5,,1981
1,Viktor Bozhukha,Ukraine,112,,,,,190,195,200,,,,,,200,125,Amateur Submasters 33-39,M,B,Multi-ply,,200,,1978
1,Yuriy Malygin,Ukraine,105.8,,,,,100,160,-177.5,,,,,,160,110,Amateur Masters 45-49,M,B,Multi-ply,,160,,1967
1,Oksana Prikhodko,Ukraine,55,,,,,100,115,-130,,,,,,115,56,Amateur Open,F,B,Multi-ply,,115,,1991
1,Roman Pelykh,Ukraine,73.6,,,,,240,-255,-260,,,,,,240,75,Pro Open,M,B,Multi-ply,,240,,1985
1,Sergiy Naleykin,Ukraine,77,,,,,242.5,250,-262.5,,,,,,250,82.5,Pro Open,M,B,Multi-ply,,250,,1981
1,Volodymyr Galyga,Ukraine,89.5,,,,,250,-260,-260,,,,,,250,90,Pro Open,M,B,Multi-ply,,250,,1983
2,Vitaliy Sobkovskiy,Ukraine,86.25,,,,,180,190,195,,,,,,195,90,Pro Open,M,B,Multi-ply,,195,,1991
1,Volodymyr Mygas,Ukraine,92.3,,,,,230,-242.5,-242.5,,,,,,230,100,Pro Open,M,B,Multi-ply,,230,,1975
1,Sergiy Ivanov,Ukraine,109,,,,,340,-355,-360,,,,,,340,110,Pro Open,M,B,Multi-ply,,340,,1990
2,Aleksandr Makey,Belarus,105,,,,,-260,260,-280,,,,,,260,110,Pro Open,M,B,Multi-ply,,260,,1964
3,Andriy Prykhodko,Ukraine,108.25,,,,,250,-267.5,-267.5,,,,,,250,110,Pro Open,M,B,Multi-ply,,250,,1981
4,Sebastjan Balner,Poland,106.2,,,,,-210,210,-250,,,,,,210,110,Pro Open,M,B,Multi-ply,,210,,1973
DQ,Vatalii Chornyi,Ukraine,130.4,,,,,-300,-300,-300,,,,,,,140,Pro Open,M,B,Multi-ply,,,,1984
1,Rostyslav Bondarenko,Ukraine,87.3,,,,,220,-230,-230,,,,,,220,90,Pro Masters 40-44,M,B,Multi-ply,,220,,1972
1,Volodymyr Mygas,Ukraine,92.3,,,,,230,-242.5,-242.5,,,,,,230,100,Pro Masters 40-44,M,B,Multi-ply,,230,,1975
1,Sebastjan Balner,Poland,106.2,,,,,-210,210,-250,,,,,,210,110,Pro Masters 40-44,M,B,Multi-ply,,210,,1973
1,Andriy Bodrov,Ukraine,115.6,,,,,160,170,-180,,,,,,170,125,Pro Masters 40-44,M,B,Multi-ply,,170,,1975
1,Valentin Petrovskii,Belarus,98.5,,,,,180,190,200,,,,,,200,100,Pro Masters 45-49,M,B,Multi-ply,,200,,1967
1,Aleksandr Makey,Belarus,105,,,,,-260,260,-280,,,,,,260,110,Pro Masters 50-54,M,B,Multi-ply,,260,,1964
1,Antoni Kaliňski,Poland,67.15,,,,,125,130,135,,,,,,135,67.5,Pro Masters 60-64,M,B,Multi-ply,,135,,1953
1,Mirosław Orłowski,Poland,94.95,,,,,165,-170,170,,,,,,170,100,Pro Masters 70-74,M,B,Multi-ply,,170,,1943
DQ,Vyacheslav Tsyganok,Ukraine,100.1,,,,,-130,-130,,,,,,,,110,Pro Masters 75-79,M,B,Multi-ply,,,,1938
1,Demian Karandeev,Ukraine,43.85,,,,,,,,,40,50,60,,60,44,Amateur Children 10,M,D,Raw,,,60,2005
1,Mykhailo Yurchenko,Ukraine,73.2,,,,,,,,,-200,210,225.5,-235,225.5,75,Amateur Teen 16-17,M,D,Raw,,,225.5,1999
1,Bogdan Bushtryuk,Ukraine,87.9,,,,,,,,,160,180,-190,,180,90,Amateur Teen 16-17,M,D,Raw,,,180,1998
1,Ivan Pogrebov,Ukraine,103.55,,,,,,,,,150,-160,160,,160,110,Amateur Teen 16-17,M,D,Raw,,,160,1998
1,Sergii Denysevych,Ukraine,66.7,,,,,,,,,190,205,210,,210,67.5,Amateur Juniors 20-23,M,D,Raw,,,210,1994
2,Vadym Bozhyk,Ukraine,65.3,,,,,,,,,145,155,-165,,155,67.5,Amateur Juniors 20-23,M,D,Raw,,,155,1993
1,Adrian Wierzbicki,Poland,73.4,,,,,,,,,190,200,210,,210,75,Amateur Juniors 20-23,M,D,Raw,,,210,1993
2,Grzegorz Indyka,Poland,71.7,,,,,,,,,185,195,-200,,195,75,Amateur Juniors 20-23,M,D,Raw,,,195,1992
3,Anatolii Martseniuk,Ukraine,72.3,,,,,,,,,165,-175,-175,,165,75,Amateur Juniors 20-23,M,D,Raw,,,165,1995
1,Oleksandr Golovatskiy,Ukraine,79.95,,,,,,,,,210,220,232.5,,232.5,82.5,Amateur Juniors 20-23,M,D,Raw,,,232.5,1993
2,Oleksandr Babiets,Ukraine,80,,,,,,,,,-215,220,232.5,,232.5,82.5,Amateur Juniors 20-23,M,D,Raw,,,232.5,1996
1,Dmitro Kondratenko,Ukraine,67.5,,,,,,,,,150,170,180,,180,67.5,Amateur Open,M,D,Raw,,,180,1986
1,Viktor Kondratiuk,Ukraine,70.15,,,,,,,,,190,200,-222.5,,200,75,Amateur Open,M,D,Raw,,,200,1987
2,Grzegorz Indyka,Poland,71.7,,,,,,,,,185,195,-200,,195,75,Amateur Open,M,D,Raw,,,195,1992
1,Maksym Ivashchenko,Ukraine,87.7,,,,,,,,,240,250,255,,255,90,Amateur Open,M,D,Raw,,,255,1987
2,Borys Stashuk,Ukraine,86.35,,,,,,,,,220,240,252.5,,252.5,90,Amateur Open,M,D,Raw,,,252.5,1985
3,Sergey Alvanyan,Armenia,89.85,,,,,,,,,220,235,-242.5,,235,90,Amateur Open,M,D,Raw,,,235,1985
1,Oleksandr Lisovskiy,Ukraine,94.35,,,,,,,,,257.5,-270,-270,,257.5,100,Amateur Open,M,D,Raw,,,257.5,1990
2,Nver Gharibyan,Armenia,100,,,,,,,,,250,-260,-262.5,,250,100,Amateur Open,M,D,Raw,,,250,1987
3,Andrii Tupchii,Ukraine,93.2,,,,,,,,,220,230,240,,240,100,Amateur Open,M,D,Raw,,,240,1987
4,Oleksandr Dmytriev,Ukraine,96.5,,,,,,,,,240,-250,-250,,240,100,Amateur Open,M,D,Raw,,,240,1987
5,George Popov,Ukraine,96.9,,,,,,,,,200,220.5,230,,230,100,Amateur Open,M,D,Raw,,,230,1976
1,Anatoliy Shostatskyy,Ukraine,101.05,,,,,,,,,260,-270,-270,,260,110,Amateur Open,M,D,Raw,,,260,1981
2,Ivan Ilchenko,Ukraine,108.85,,,,,,,,,225,235,-245,,235,110,Amateur Open,M,D,Raw,,,235,1988
1,Pavlo Mishchuk,Ukraine,110.1,,,,,,,,,247.5,265,-272.5,,265,125,Amateur Open,M,D,Raw,,,265,1998
1,Yuriy Spinov,Ukraine,129.9,,,,,,,,,300,315,322.5,,322.5,140,Amateur Open,M,D,Raw,,,322.5,1962
1,Irakli Chanturia,Georgia,155.7,,,,,,,,,305,331,341,,341,140+,Amateur Open,M,D,Raw,,,341,1984
1,Ivan Tymokhin,Ukraine,87.95,,,,,,,,,180,-185,185,,185,90,Amateur Submasters 33-39,M,D,Raw,,,185,1980
1,George Popov,Ukraine,96.9,,,,,,,,,200,220.5,230,,230,100,Amateur Submasters 33-39,M,D,Raw,,,230,1976
1,Anatoliy Shostatskyy,Ukraine,101.05,,,,,,,,,260,-270,-270,,260,110,Amateur Submasters 33-39,M,D,Raw,,,260,1981
1,Igor Golovko,Ukraine,122.2,,,,,,,,,230,245,-250,,245,125,Amateur Submasters 33-39,M,D,Raw,,,245,1983
1,Przemysław Kozioł,Poland,98.65,,,,,,,,,230,242.5,250,,250,100,Amateur Masters 40-44,M,D,Raw,,,250,1973
1,Viacheslav Bulgakov,Ukraine,80.2,,,,,,,,,-160,160,172.5,,172.5,82.5,Amateur Masters 45-49,M,D,Raw,,,172.5,1966
1,Pavlo Kipnyak,Ukraine,107.1,,,,,,,,,190,210,,,210,110,Amateur Masters 45-49,M,D,Raw,,,210,1969
1,Oleg Brazhnyk,Ukraine,152.6,,,,,,,,,160,170,180,-200,180,140+,Amateur Masters 45-49,M,D,Raw,,,180,1970
1,Oleksandr Kalkutin,Ukraine,125,,,,,,,,,200,,,,200,125,Amateur Masters 50-54,M,D,Raw,,,200,1965
1,Yuriy Spinov,Ukraine,129.9,,,,,,,,,300,315,322.5,,322.5,140,Amateur Masters 50-54,M,D,Raw,,,322.5,1962
1,Oleksandr Artemiev,Ukraine,90,,,,,,,,,105,115,122.5,,122.5,90,Amateur Masters 55-59,M,D,Raw,,,122.5,1958
1,Zbigniew Koper,Poland,72.3,,,,,,,,,-130,130,145,,145,75,Amateur Masters 60-64,M,D,Raw,,,145,1953
1,Ryszard Śliwiński,Poland,72.45,,,,,,,,,130,135,140,,140,75,Amateur Masters 65-69,M,D,Raw,,,140,1950
1,Stefan Sochaňski,Poland,90.6,,,,,,,,,190,212.5,,,212.5,100,Amateur Masters 65-69,M,D,Raw,,,212.5,1948
2,Viktor Stefanov,Ukraine,98.6,,,,,,,,,150,160,170,,170,100,Amateur Masters 65-69,M,D,Raw,,,170,1948
1,Igor Zubarev,Ukraine,74,,,,,,,,,80,92.5,102.5,,102.5,75,Amateur Masters 70-74,M,D,Raw,,,102.5,1941
1,Maksym Ivashchenko,Ukraine,87.7,,,,,,,,,240,250,255,,255,90,Amateur Military/Fire/Police,M,D,Raw,,,255,1987
1,Alina Klimchuk,Ukraine,51.6,,,,,,,,,-90,100,-110,,100,52,Amateur Teen 13-15,F,D,Raw,,,100,2000
1,Gabriela Gacek,Poland,60.9,,,,,,,,,110,115,122.5,,122.5,67.5,Amateur Teen 16-17,F,D,Raw,,,122.5,1998
1,Oleksandra Solomka,Ukraine,51.05,,,,,,,,,80,90,-95,,90,52,Amateur Teen 18-19,F,D,Raw,,,90,1997
2,Khrystyna Kashuba,Ukraine,52,,,,,,,,,65,70,-75,,70,52,Amateur Teen 18-19,F,D,Raw,,,70,1996
1,Elyzaveta Borsuk,Ukraine,56,,,,,,,,,85,97.5,-100,,97.5,56,Amateur Teen 18-19,F,D,Raw,,,97.5,1998
1,Mariya Soltysyak,Ukraine,58.55,,,,,,,,,80,100,110,,110,60,Amateur Teen 18-19,F,D,Raw,,,110,1998
1,Karina Kyriiak,Ukraine,46.85,,,,,,,,,100,105,110,,110,48,Amateur Open,F,D,Raw,,,110,1987
1,Olga Yarmolyuk,Ukraine,52,,,,,,,,,125,135,138,,138,52,Amateur Open,F,D,Raw,,,138,1989
2,Svitlana Melnychuk,Ukraine,52,,,,,,,,,100,-110,-110,,100,52,Amateur Open,F,D,Raw,,,100,1991
DQ,Yuliya Chernyak,Ukraine,49.45,,,,,,,,,-100,-100,,,,52,Amateur Open,F,D,Raw,,,,1983
1,Uliana Khmelenko-Lepska,Ukraine,54.95,,,,,,,,,90,100,-102.5,,100,56,Amateur Open,F,D,Raw,,,100,1991
2,Armine Sargsyan,Ukraine,55.8,,,,,,,,,100,-107.5,-107.5,,100,56,Amateur Open,F,D,Raw,,,100,1981
1,Agnieszka Błońska Sara,Poland,73.1,,,,,,,,,120,125,-130,,125,75,Amateur Open,F,D,Raw,,,125,1985
1,Svitlana Perebejnos,Ukraine,76.1,,,,,,,,,130,142.5,152.5,,152.5,82.5,Amateur Open,F,D,Raw,,,152.5,1988
1,Armine Sargsyan,Ukraine,55.8,,,,,,,,,100,-107.5,-107.5,,100,56,Amateur Submasters 33-39,F,D,Raw,,,100,1981
1,Nataliya Penkova,Ukraine,58.7,,,,,,,,,95,105,-120,,105,60,Amateur Masters 50-54,F,D,Raw,,,105,1965
1,Viktor Tretiakov,Moldova,55.45,,,,,,,,,120,140,150,,150,56,Pro Teen 18-19,M,D,Raw,,,150,1996
1,Nazar Sokol,Ukraine,70.65,,,,,,,,,155,165,-172.5,,165,75,Pro Teen 18-19,M,D,Raw,,,165,1998
1,Patryk Gawryluk,Poland,94,,,,,,,,,210,-225,,,210,100,Pro Teen 18-19,M,D,Raw,,,210,1997
1,Kostyantin Barkov,Ukraine,107.3,,,,,,,,,300,320,-330,,320,110,Pro Teen 18-19,M,D,Raw,,,320,1996
1,Marcin Sokołowski,Poland,115.5,,,,,,,,,180,200,-220,,200,125,Pro Teen 18-19,M,D,Raw,,,200,1997
1,Viktor Smychuk,Ukraine,55.5,,,,,,,,,160,-172.5,-172.5,,160,56,Pro Juniors 20-23,M,D,Raw,,,160,1994
1,Maksym Rybalka,Ukraine,97.3,,,,,,,,,265,275,-282.5,,275,100,Pro Juniors 20-23,M,D,Raw,,,275,1993
1,Sergii Ostapchuk,Ukraine,73.8,,,,,,,,,180,195,,,195,75,Pro Open,M,D,Raw,,,195,1983
1,Sergii Zakhariev,Ukraine,81.45,,,,,,,,,210,220,225,,225,82.5,Pro Open,M,D,Raw,,,225,1982
1,Pavlo Ishchenko,Ukraine,90,,,,,,,,,262.5,272.5,277.5,,277.5,90,Pro Open,M,D,Raw,,,277.5,1991
2,Viacheslav Kravchenko,Ukraine,88.8,,,,,,,,,275,-287.5,-287.5,,275,90,Pro Open,M,D,Raw,,,275,1969
3,Roman Medvedchuk,Ukraine,87.2,,,,,,,,,260,272.5,-277.5,,272.5,90,Pro Open,M,D,Raw,,,272.5,1981
1,Grzegorz Rompalski,Poland,99.4,,,,,,,,,-250,250,275,,275,100,Pro Open,M,D,Raw,,,275,1982
2,Viktor Rublyov,Ukraine,99.3,,,,,,,,,230,255,265,,265,100,Pro Open,M,D,Raw,,,265,1975
3,Vadim Omelchuk,Ukraine,92.85,,,,,,,,,205,220,230,,230,100,Pro Open,M,D,Raw,,,230,1989
1,Kostyantin Barkov,Ukraine,107.3,,,,,,,,,300,320,-330,,320,110,Pro Open,M,D,Raw,,,320,1996
1,Eugene Moskvichov,Ukraine,111.35,,,,,,,,,-307.5,307.5,,,307.5,125,Pro Open,M,D,Raw,,,307.5,1979
2,Rafał Wójcik,Poland,112.9,,,,,,,,,285,295,305,,305,125,Pro Open,M,D,Raw,,,305,1987
3,Szymon Markowski,Poland,115.75,,,,,,,,,270,285,-295,,285,125,Pro Open,M,D,Raw,,,285,1988
1,Vasilij Mazur,Moldova,127,,,,,,,,,300,320,330,-337.5,330,140,Pro Open,M,D,Raw,,,330,1984
2,Robert Nemś,Poland,129.1,,,,,,,,,300,315,330,-337.5,330,140,Pro Open,M,D,Raw,,,330,1969
1,Grzegorz Rompalski,Poland,99.4,,,,,,,,,-250,250,275,,275,100,Pro Submasters 33-39,M,D,Raw,,,275,1982
1,Eugene Moskvichov,Ukraine,111.35,,,,,,,,,-307.5,307.5,,,307.5,125,Pro Submasters 33-39,M,D,Raw,,,307.5,1979
2,Przemyslaw Karwański,Poland,111.55,,,,,,,,,250,265,275,,275,125,Pro Submasters 33-39,M,D,Raw,,,275,1980
1,Viktor Rublyov,Ukraine,99.3,,,,,,,,,230,255,265,,265,100,Pro Masters 40-44,M,D,Raw,,,265,1975
1,Volodymyr Karandeev,Ukraine,109.2,,,,,,,,,230,255,262.5,,262.5,110,Pro Masters 40-44,M,D,Raw,,,262.5,1974
1,Oleksandr Plokhoi,Ukraine,73.95,,,,,,,,,170,-180,-180,,170,75,Pro Masters 45-49,M,D,Raw,,,170,1970
1,Viacheslav Kravchenko,Ukraine,88.8,,,,,,,,,275,-287.5,-287.5,,275,90,Pro Masters 45-49,M,D,Raw,,,275,1969
1,Robert Nemś,Poland,129.1,,,,,,,,,300,315,330,-337.5,330,140,Pro Masters 45-49,M,D,Raw,,,330,1969
1,Yuliia Ruzhytska,Ukraine,55,,,,,,,,,100,110,120,,120,56,Pro Teen 18-19,F,D,Raw,,,120,1997
1,Liudmyla Sus,Ukraine,58.8,,,,,,,,,110,120,127.5,,127.5,60,Pro Teen 18-19,F,D,Raw,,,127.5,1997
1,Vitaliya Tonysheva,Ukraine,46.8,,,,,,,,,85,95,105,,105,48,Pro Open,F,D,Raw,,,105,1990
1,Mariia Markovych,Ukraine,53.5,,,,,,,,,120,127.5,135,,135,56,Pro Open,F,D,Raw,,,135,1985
1,Olena Shcherbinina,Ukraine,59.25,,,,,,,,,105,110,117.5,,117.5,60,Pro Open,F,D,Raw,,,117.5,1982
1,Honorata Kaczorowska,Poland,61.9,,,,,,,,,160,176,,,176,67.5,Pro Open,F,D,Raw,,,176,1985
1,Olena Shcherbinina,Ukraine,59.25,,,,,,,,,105,110,117.5,,117.5,60,Pro Submasters 33-39,F,D,Raw,,,117.5,1982
DQ,Dmytro Dushok,Ukraine,82.5,,,,,,,,,-200,-200,-200,,,82.5,Amateur Teen 16-17,M,D,Multi-ply,,,,1999
1,Oleksandr Mushynskiy,Ukraine,78.7,,,,,,,,,190,205,215,,215,82.5,Amateur Juniors 20-23,M,D,Multi-ply,,,215,1993
1,Mykola Mumrenko,Ukraine,80.8,,,,,,,,,-200,200,230,,230,82.5,Amateur Open,M,D,Multi-ply,,,230,1985
1,Stefan Sochaňski,Poland,90.6,,,,,,,,,210,230,250,,250,100,Amateur Masters 65-69,M,D,Multi-ply,,,250,1948
1,Inna Yudina,Ukraine,75,,,,,,,,,152.5,162.5,-167.5,,162.5,75,Amateur Open,F,D,Multi-ply,,,162.5,1978
1,Dmytro Gavrylyuk,Ukraine,89.85,,,,,,,,,265,-275,-275,,265,90,Pro Open,M,D,Multi-ply,,,265,1989
1,Dmytro Ilyashenko,Ukraine,98.5,,,,,,,,,230,240,245,,245,100,Pro Open,M,D,Multi-ply,,,245,1984
